rtl/tb_cwgan_gp_full.vcd
$date
	Fri Dec 19 14:46:45 2025
$end
$version
	Icarus Verilog
$end
$timescale
	1ps
$end
$scope module tb_cwgan_gp_full $end
$var wire 1 ! ofdm_recon_valid $end
$var wire 16 " ofdm_recon_out [15:0] $end
$var wire 1 # ofdm_degraded_ready $end
$var wire 1 $ ofdm_clean_ready $end
$var wire 1 % done $end
$var wire 1 & disc_score_real_valid $end
$var wire 16 ' disc_score_real [15:0] $end
$var wire 1 ( disc_score_fake_valid $end
$var wire 16 ) disc_score_fake [15:0] $end
$var wire 1 * busy $end
$var parameter 32 + ACC_WIDTH $end
$var parameter 32 , CLK_PERIOD $end
$var parameter 32 - DATA_WIDTH $end
$var parameter 32 . FRAME_LEN $end
$var parameter 32 / IN_CH $end
$var parameter 32 0 NUM_TESTS $end
$var parameter 32 1 WEIGHT_WIDTH $end
$var reg 1 2 clk $end
$var reg 1 3 mode $end
$var reg 16 4 ofdm_clean_in [15:0] $end
$var reg 1 5 ofdm_clean_valid $end
$var reg 16 6 ofdm_degraded_in [15:0] $end
$var reg 1 7 ofdm_degraded_valid $end
$var reg 1 8 ofdm_recon_ready $end
$var reg 1 9 rst_n $end
$var reg 1 : start $end
$var real 1 ; evm_degraded $end
$var real 1 < evm_reconstructed $end
$var real 1 = improvement_ratio $end
$var real 1 > mse_degraded $end
$var real 1 ? mse_reconstructed $end
$var integer 32 @ output_count [31:0] $end
$var integer 32 A seed [31:0] $end
$var real 1 B signal_power $end
$var real 1 C snr_degraded $end
$var real 1 D snr_reconstructed $end
$var integer 32 E test_num [31:0] $end
$var integer 32 F tests_improved [31:0] $end
$var real 1 G total_improvement $end
$var real 1 H total_mse_degraded $end
$var real 1 I total_mse_recon $end
$scope module dut $end
$var wire 1 * busy $end
$var wire 1 2 clk $end
$var wire 16 J disc_score_fake [15:0] $end
$var wire 1 ( disc_score_fake_valid $end
$var wire 16 K disc_score_real [15:0] $end
$var wire 1 & disc_score_real_valid $end
$var wire 1 3 mode $end
$var wire 16 L ofdm_clean_in [15:0] $end
$var wire 1 $ ofdm_clean_ready $end
$var wire 1 5 ofdm_clean_valid $end
$var wire 16 M ofdm_degraded_in [15:0] $end
$var wire 1 # ofdm_degraded_ready $end
$var wire 1 7 ofdm_degraded_valid $end
$var wire 16 N ofdm_recon_out [15:0] $end
$var wire 1 8 ofdm_recon_ready $end
$var wire 1 ! ofdm_recon_valid $end
$var wire 1 9 rst_n $end
$var wire 1 : start $end
$var wire 1 O gen_ready_in $end
$var wire 1 P gen_out_valid $end
$var wire 16 Q gen_out [15:0] $end
$var wire 1 R gen_done $end
$var wire 1 S gen_busy $end
$var wire 1 % done $end
$var wire 1 T disc_score_valid $end
$var wire 16 U disc_score [15:0] $end
$var wire 1 V disc_ready $end
$var wire 1 W disc_done $end
$var wire 1 X disc_busy $end
$var parameter 32 Y ACC_WIDTH $end
$var parameter 32 Z DATA_WIDTH $end
$var parameter 32 [ FRAME_LEN $end
$var parameter 32 \ IN_CH $end
$var parameter 3 ] ST_DISC_FAKE $end
$var parameter 3 ^ ST_DISC_REAL $end
$var parameter 3 _ ST_DONE $end
$var parameter 3 ` ST_GEN $end
$var parameter 3 a ST_IDLE $end
$var parameter 32 b WEIGHT_WIDTH $end
$var reg 1 c buf_ch_cnt $end
$var reg 4 d buf_pos_cnt [3:0] $end
$var reg 16 e disc_cand_in [15:0] $end
$var reg 1 f disc_cand_valid $end
$var reg 16 g disc_cond_in [15:0] $end
$var reg 1 h disc_cond_valid $end
$var reg 3 i next_state [2:0] $end
$var reg 16 j score_fake_reg [15:0] $end
$var reg 1 k score_fake_valid_reg $end
$var reg 16 l score_real_reg [15:0] $end
$var reg 1 m score_real_valid_reg $end
$var reg 3 n state [2:0] $end
$var integer 32 o i [31:0] $end
$var integer 32 p j [31:0] $end
$scope module u_discriminator $end
$var wire 1 X busy $end
$var wire 16 q cand_in [15:0] $end
$var wire 1 f cand_valid $end
$var wire 1 2 clk $end
$var wire 16 r cond_in [15:0] $end
$var wire 1 h cond_valid $end
$var wire 1 V ready_in $end
$var wire 1 9 rst_n $end
$var wire 1 s start $end
$var wire 11 t weight_addr_k0 [10:0] $end
$var wire 8 u weight_k2 [7:0] $end
$var wire 8 v weight_k1 [7:0] $end
$var wire 8 w weight_k0 [7:0] $end
$var wire 11 x weight_addr_k2 [10:0] $end
$var wire 11 y weight_addr_k1 [10:0] $end
$var wire 24 z mult_k2 [23:0] $end
$var wire 24 { mult_k1 [23:0] $end
$var wire 24 | mult_k0 [23:0] $end
$var wire 32 } kernel_sum [31:0] $end
$var wire 1 W done $end
$var wire 16 ~ bias_data [15:0] $end
$var parameter 32 !" ACC_WIDTH $end
$var parameter 32 "" BADDR_CONV1 $end
$var parameter 32 #" BADDR_CONV2 $end
$var parameter 32 $" BADDR_DENSE $end
$var parameter 32 %" CONV1_OUT_CH $end
$var parameter 32 &" CONV1_OUT_LEN $end
$var parameter 32 '" CONV2_OUT_CH $end
$var parameter 32 (" CONV2_OUT_LEN $end
$var parameter 32 )" DATA_WIDTH $end
$var parameter 32 *" FRAME_LEN $end
$var parameter 32 +" IN_CH $end
$var parameter 4 ," ST_CONV1 $end
$var parameter 4 -" ST_CONV2 $end
$var parameter 4 ." ST_DENSE $end
$var parameter 4 /" ST_DONE $end
$var parameter 4 0" ST_IDLE $end
$var parameter 4 1" ST_LOAD_CAND $end
$var parameter 4 2" ST_LOAD_COND $end
$var parameter 4 3" ST_OUTPUT $end
$var parameter 4 4" ST_POOL $end
$var parameter 32 5" WADDR_CONV1 $end
$var parameter 32 6" WADDR_CONV2 $end
$var parameter 32 7" WADDR_DENSE $end
$var parameter 32 8" WEIGHT_WIDTH $end
$var reg 6 9" bias_addr [5:0] $end
$var reg 16 :" data_k0 [15:0] $end
$var reg 16 ;" data_k1 [15:0] $end
$var reg 16 <" data_k2 [15:0] $end
$var reg 32 =" dense_acc [31:0] $end
$var reg 5 >" in_ch_iter [4:0] $end
$var reg 2 ?" load_ch_cnt [1:0] $end
$var reg 5 @" load_pos_cnt [4:0] $end
$var reg 4 A" next_state [3:0] $end
$var reg 5 B" out_ch_cnt [4:0] $end
$var reg 5 C" out_pos_cnt [4:0] $end
$var reg 3 D" pipe_flush [2:0] $end
$var reg 1 E" pipe_s2_last_in_ch $end
$var reg 5 F" pipe_s2_out_ch [4:0] $end
$var reg 5 G" pipe_s2_out_pos [4:0] $end
$var reg 1 H" pipe_s2_valid $end
$var reg 32 I" pipe_s3_ksum [31:0] $end
$var reg 1 J" pipe_s3_last_in_ch $end
$var reg 5 K" pipe_s3_out_ch [4:0] $end
$var reg 5 L" pipe_s3_out_pos [4:0] $end
$var reg 1 M" pipe_s3_valid $end
$var reg 16 N" score_out [15:0] $end
$var reg 1 T score_valid $end
$var reg 4 O" state [3:0] $end
$var reg 11 P" weight_addr_base [10:0] $end
$var integer 32 Q" i [31:0] $end
$var integer 32 R" j [31:0] $end
$scope module u_bias_rom $end
$var wire 6 S" addr [5:0] $end
$var wire 1 2 clk $end
$var parameter 32 T" ADDR_WIDTH $end
$var parameter 32 U" DATA_WIDTH $end
$var parameter 32 V" DEPTH $end
$var reg 16 W" data [15:0] $end
$var integer 32 X" init_i [31:0] $end
$upscope $end
$scope module u_wrom_k0 $end
$var wire 11 Y" addr [10:0] $end
$var wire 1 2 clk $end
$var parameter 32 Z" ADDR_WIDTH $end
$var parameter 32 [" DEPTH $end
$var parameter 32 \" WEIGHT_WIDTH $end
$var reg 8 ]" data [7:0] $end
$var integer 32 ^" init_i [31:0] $end
$upscope $end
$scope module u_wrom_k1 $end
$var wire 11 _" addr [10:0] $end
$var wire 1 2 clk $end
$var parameter 32 `" ADDR_WIDTH $end
$var parameter 32 a" DEPTH $end
$var parameter 32 b" WEIGHT_WIDTH $end
$var reg 8 c" data [7:0] $end
$var integer 32 d" init_i [31:0] $end
$upscope $end
$scope module u_wrom_k2 $end
$var wire 11 e" addr [10:0] $end
$var wire 1 2 clk $end
$var parameter 32 f" ADDR_WIDTH $end
$var parameter 32 g" DEPTH $end
$var parameter 32 h" WEIGHT_WIDTH $end
$var reg 8 i" data [7:0] $end
$var integer 32 j" init_i [31:0] $end
$upscope $end
$scope begin conv1_store $end
$var reg 16 k" result [15:0] $end
$var reg 32 l" sum [31:0] $end
$upscope $end
$scope begin conv2_store $end
$var reg 16 m" result [15:0] $end
$var reg 32 n" sum [31:0] $end
$upscope $end
$upscope $end
$scope module u_generator $end
$var wire 1 S busy $end
$var wire 1 2 clk $end
$var wire 16 o" cond_in [15:0] $end
$var wire 1 7 cond_valid $end
$var wire 16 p" data_in [15:0] $end
$var wire 1 8 ready_out $end
$var wire 1 9 rst_n $end
$var wire 1 q" start $end
$var wire 1 7 valid_in $end
$var wire 11 r" weight_addr_k0 [10:0] $end
$var wire 8 s" weight_k2 [7:0] $end
$var wire 8 t" weight_k1 [7:0] $end
$var wire 8 u" weight_k0 [7:0] $end
$var wire 11 v" weight_addr_k2 [10:0] $end
$var wire 11 w" weight_addr_k1 [10:0] $end
$var wire 1 O ready_in $end
$var wire 24 x" mult_k2 [23:0] $end
$var wire 24 y" mult_k1 [23:0] $end
$var wire 24 z" mult_k0 [23:0] $end
$var wire 32 {" kernel_sum [31:0] $end
$var wire 1 R done $end
$var wire 16 |" bias_data [15:0] $end
$var parameter 32 }" ACC_WIDTH $end
$var parameter 32 ~" BADDR_BNECK $end
$var parameter 32 !# BADDR_DEC1 $end
$var parameter 32 "# BADDR_ENC1 $end
$var parameter 32 ## BADDR_OUT $end
$var parameter 32 $# BNECK_OUT_CH $end
$var parameter 32 %# BNECK_OUT_LEN $end
$var parameter 32 &# DATA_WIDTH $end
$var parameter 32 '# DEC1_OUT_CH $end
$var parameter 32 (# DEC1_OUT_LEN $end
$var parameter 32 )# ENC1_OUT_CH $end
$var parameter 32 *# ENC1_OUT_LEN $end
$var parameter 32 +# FRAME_LEN $end
$var parameter 32 ,# IN_CH $end
$var parameter 32 -# OUT_CH $end
$var parameter 4 .# ST_BNECK $end
$var parameter 4 /# ST_DEC1 $end
$var parameter 4 0# ST_DONE $end
$var parameter 4 1# ST_ENC1 $end
$var parameter 4 2# ST_IDLE $end
$var parameter 4 3# ST_LOAD_IN $end
$var parameter 4 4# ST_OUTPUT $end
$var parameter 4 5# ST_OUT_CONV $end
$var parameter 4 6# ST_SKIP_ADD $end
$var parameter 4 7# ST_TANH $end
$var parameter 4 8# ST_UPSAMPLE1 $end
$var parameter 4 9# ST_UPSAMPLE2 $end
$var parameter 32 :# UP1_LEN $end
$var parameter 32 ;# WADDR_BNECK $end
$var parameter 32 <# WADDR_DEC1 $end
$var parameter 32 =# WADDR_ENC1 $end
$var parameter 32 ># WADDR_OUT $end
$var parameter 32 ?# WEIGHT_WIDTH $end
$var reg 6 @# bias_addr [5:0] $end
$var reg 16 A# data_k0 [15:0] $end
$var reg 16 B# data_k1 [15:0] $end
$var reg 16 C# data_k2 [15:0] $end
$var reg 16 D# data_out [15:0] $end
$var reg 3 E# in_ch_cnt [2:0] $end
$var reg 4 F# in_ch_iter [3:0] $end
$var reg 5 G# in_pos_cnt [4:0] $end
$var reg 4 H# next_state [3:0] $end
$var reg 4 I# out_ch_cnt [3:0] $end
$var reg 5 J# out_pos_cnt [4:0] $end
$var reg 3 K# pipe_flush [2:0] $end
$var reg 1 L# pipe_s2_last_in_ch $end
$var reg 4 M# pipe_s2_out_ch [3:0] $end
$var reg 5 N# pipe_s2_out_pos [4:0] $end
$var reg 1 O# pipe_s2_valid $end
$var reg 32 P# pipe_s3_ksum [31:0] $end
$var reg 1 Q# pipe_s3_last_in_ch $end
$var reg 4 R# pipe_s3_out_ch [3:0] $end
$var reg 5 S# pipe_s3_out_pos [4:0] $end
$var reg 1 T# pipe_s3_valid $end
$var reg 4 U# state [3:0] $end
$var reg 1 P valid_out $end
$var reg 11 V# weight_addr_base [10:0] $end
$var integer 32 W# i [31:0] $end
$var integer 32 X# j [31:0] $end
$scope module u_bias_rom $end
$var wire 6 Y# addr [5:0] $end
$var wire 1 2 clk $end
$var parameter 32 Z# ADDR_WIDTH $end
$var parameter 32 [# DATA_WIDTH $end
$var parameter 32 \# DEPTH $end
$var reg 16 ]# data [15:0] $end
$var integer 32 ^# init_i [31:0] $end
$upscope $end
$scope module u_wrom_k0 $end
$var wire 11 _# addr [10:0] $end
$var wire 1 2 clk $end
$var parameter 32 `# ADDR_WIDTH $end
$var parameter 32 a# DEPTH $end
$var parameter 32 b# WEIGHT_WIDTH $end
$var reg 8 c# data [7:0] $end
$var integer 32 d# init_i [31:0] $end
$upscope $end
$scope module u_wrom_k1 $end
$var wire 11 e# addr [10:0] $end
$var wire 1 2 clk $end
$var parameter 32 f# ADDR_WIDTH $end
$var parameter 32 g# DEPTH $end
$var parameter 32 h# WEIGHT_WIDTH $end
$var reg 8 i# data [7:0] $end
$var integer 32 j# init_i [31:0] $end
$upscope $end
$scope module u_wrom_k2 $end
$var wire 11 k# addr [10:0] $end
$var wire 1 2 clk $end
$var parameter 32 l# ADDR_WIDTH $end
$var parameter 32 m# DEPTH $end
$var parameter 32 n# WEIGHT_WIDTH $end
$var reg 8 o# data [7:0] $end
$var integer 32 p# init_i [31:0] $end
$upscope $end
$scope begin bneck_store $end
$var reg 16 q# result [15:0] $end
$var reg 32 r# sum [31:0] $end
$upscope $end
$scope begin dec1_store $end
$var reg 16 s# result [15:0] $end
$var reg 32 t# sum [31:0] $end
$upscope $end
$scope begin enc1_store $end
$var reg 16 u# result [15:0] $end
$var reg 32 v# sum [31:0] $end
$upscope $end
$scope begin out_store $end
$var reg 32 w# sum [31:0] $end
$upscope $end
$scope begin skip_add_blk $end
$var reg 32 x# sum [31:0] $end
$upscope $end
$upscope $end
$upscope $end
$scope task calculate_evm $end
$var real 1 y# evm $end
$var real 1 z# mse $end
$var real 1 {# sig_power $end
$upscope $end
$scope task calculate_mse $end
$var real 1 |# diff_i $end
$var real 1 }# diff_q $end
$var integer 32 ~# idx [31:0] $end
$var real 1 !$ mse $end
$var real 1 "$ sum_sq $end
$var integer 32 #$ use_recon [31:0] $end
$upscope $end
$scope task calculate_signal_power $end
$var integer 32 $$ idx [31:0] $end
$var real 1 %$ power $end
$var real 1 &$ sum_sq $end
$upscope $end
$scope task calculate_snr $end
$var real 1 '$ noise_mse $end
$var real 1 ($ sig_power $end
$var real 1 )$ snr $end
$upscope $end
$scope task generate_freq_selective_fade $end
$var real 1 *$ fade_coef $end
$var integer 32 +$ fade_strength [31:0] $end
$var integer 32 ,$ idx [31:0] $end
$var integer 32 -$ qam_level [31:0] $end
$upscope $end
$scope task generate_ofdm_with_burst $end
$var integer 32 .$ burst_len [31:0] $end
$var integer 32 /$ burst_power [31:0] $end
$var integer 32 0$ burst_start [31:0] $end
$var integer 32 1$ idx [31:0] $end
$var integer 32 2$ qam_level [31:0] $end
$upscope $end
$scope task generate_qam16_ofdm $end
$var integer 32 3$ fade_depth [31:0] $end
$var real 1 4$ fade_factor $end
$var integer 32 5$ fade_pos [31:0] $end
$var integer 32 6$ idx [31:0] $end
$var integer 32 7$ noise_i [31:0] $end
$var integer 32 8$ noise_level [31:0] $end
$var integer 32 9$ noise_q [31:0] $end
$var integer 32 :$ qam_level [31:0] $end
$upscope $end
$scope task print_metrics $end
$upscope $end
$scope task print_signal_table $end
$var reg 256 ;$ test_name [255:0] $end
$var integer 32 <$ idx [31:0] $end
$upscope $end
$scope task reset_dut $end
$upscope $end
$scope task run_inference $end
$var integer 32 =$ ch [31:0] $end
$var integer 32 >$ pos [31:0] $end
$upscope $end
$upscope $end
$enddefinitions $end
$comment Show the parameter values. $end
$dumpall
b1000 n#
b100000000000 m#
b1011 l#
b1000 h#
b100000000000 g#
b1011 f#
b1000 b#
b100000000000 a#
b1011 `#
b1000000 \#
b10000 [#
b110 Z#
b1000 ?#
b11011000 >#
b0 =#
b1111000 <#
b11000 ;#
b1000 :#
b111 9#
b100 8#
b1001 7#
b110 6#
b1000 5#
b1010 4#
b1 3#
b0 2#
b10 1#
b1011 0#
b101 /#
b11 .#
b10 -#
b10 ,#
b10000 +#
b1000 *#
b100 )#
b1000 (#
b100 '#
b10000 &#
b100 %#
b1000 $#
b10000 ##
b0 "#
b1100 !#
b100 ~"
b100000 }"
b1000 h"
b100000000000 g"
b1011 f"
b1000 b"
b100000000000 a"
b1011 `"
b1000 \"
b100000000000 ["
b1011 Z"
b1000000 V"
b10000 U"
b110 T"
b1000 8"
b1011100000 7"
b101100000 6"
b100000000 5"
b101 4"
b111 3"
b10 2"
b1 1"
b0 0"
b1000 /"
b110 ."
b100 -"
b11 ,"
b100 +"
b10000 *"
b10000 )"
b100 ("
b10000 '"
b1000 &"
b1000 %"
b111000 $"
b101000 #"
b100000 ""
b100000 !"
b1000 b
b0 a
b1 `
b100 _
b11 ^
b10 ]
b10 \
b10000 [
b10000 Z
b100000 Y
b1000 1
b101 0
b10 /
b10000 .
b10000 -
b1010 ,
b100000 +
$end
#0
$dumpvars
bx >$
bx =$
bx <$
bx ;$
bx :$
bx 9$
bx 8$
bx 7$
bx 6$
bx 5$
r0 4$
bx 3$
bx 2$
bx 1$
bx 0$
bx /$
bx .$
bx -$
bx ,$
bx +$
r0 *$
r0 )$
r0 ($
r0 '$
r0 &$
r0 %$
bx $$
bx #$
r0 "$
r0 !$
bx ~#
r0 }#
r0 |#
r0 {#
r0 z#
r0 y#
bx x#
bx w#
bx v#
bx u#
bx t#
bx s#
bx r#
bx q#
b100000000000 p#
bx o#
b10 k#
b100000000000 j#
bx i#
b1 e#
b100000000000 d#
bx c#
b0 _#
b1000000 ^#
bx ]#
b0 Y#
b10010 X#
b10 W#
b0 V#
b0 U#
0T#
bx S#
bx R#
xQ#
bx P#
0O#
bx N#
bx M#
xL#
b0 K#
b0 J#
b0 I#
b0 H#
b0 G#
b0 F#
b0 E#
b0 D#
b0 C#
b0 B#
b0 A#
b0 @#
bx |"
bx {"
bx z"
bx y"
bx x"
b1 w"
b10 v"
bx u"
bx t"
bx s"
b0 r"
0q"
b0 p"
b0 o"
bx n"
bx m"
bx l"
bx k"
b100000000000 j"
bx i"
b10 e"
b100000000000 d"
bx c"
b1 _"
b100000000000 ^"
bx ]"
b0 Y"
b1000000 X"
bx W"
b0 S"
b10010 R"
b100 Q"
b0 P"
b0 O"
b0 N"
0M"
bx L"
bx K"
xJ"
bx I"
0H"
bx G"
bx F"
xE"
b0 D"
b0 C"
b0 B"
b0 A"
b0 @"
b0 ?"
b0 >"
b0 ="
b0 <"
b0 ;"
b0 :"
b0 9"
bx ~
bx }
bx |
bx {
bx z
b1 y
b10 x
bx w
bx v
bx u
b0 t
0s
b0 r
b0 q
b10000 p
b10 o
b0 n
0m
b0 l
0k
b0 j
b0 i
0h
b0 g
0f
b0 e
b0 d
0c
0X
0W
0V
b0 U
0T
0S
0R
b0 Q
0P
0O
b0 N
b0 M
b0 L
b0 K
b0 J
r0 I
r0 H
r0 G
b0 F
b1 E
r0 D
r0 C
r0 B
b11000000111001 A
bx @
r0 ?
r0 >
r0 =
r0 <
r0 ;
0:
09
08
07
b0 6
05
b0 4
03
02
0*
b0 )
0(
b0 '
0&
0%
0$
0#
b0 "
0!
$end
#5000
b0 {"
b0 }
b0 z"
b100000 u"
b100000 c#
b0 y"
b1000000 t"
b1000000 i#
b0 x"
b100000 s"
b100000 o#
b10000 |"
b10000 ]#
b0 |
b100000 w
b100000 ]"
b0 {
b1000000 v
b1000000 c"
b0 z
b100000 u
b100000 i"
b10000 ~
b10000 W"
b10000 p
b10 o
b100 R"
b10000 Q"
b10000 X#
b10 W#
12
#10000
02
#15000
b10010 X#
b10 W#
b10010 R"
b100 Q"
b10000 p
b10 o
12
#20000
02
#25000
b10000 p
b10 o
b100 R"
b10000 Q"
b10000 X#
b10 W#
12
#30000
02
#35000
b10010 X#
b10 W#
b10010 R"
b100 Q"
b10000 p
b10 o
12
#40000
02
#45000
b10000 p
b10 o
b100 R"
b10000 Q"
b10000 X#
b10 W#
12
#50000
02
#55000
b10010 X#
b10 W#
b10010 R"
b100 Q"
b10000 p
b10 o
12
#60000
02
#65000
b10000 p
b10 o
b100 R"
b10000 Q"
b10000 X#
b10 W#
12
#70000
02
#75000
b10010 X#
b10 W#
b10010 R"
b100 Q"
b10000 p
b10 o
12
#80000
02
#85000
b10000 p
b10 o
b100 R"
b10000 Q"
b10000 X#
b10 W#
12
#90000
02
#95000
19
b10010 X#
b10 W#
b10010 R"
b100 Q"
b10000 p
b10 o
12
#100000
02
#105000
b10000 Q"
b10000 W#
12
#110000
02
#115000
b10000 W#
b10000 Q"
12
#120000
02
#125000
b10000 Q"
b10000 W#
12
#130000
02
#135000
b10000 W#
b10000 Q"
12
#140000
02
#145000
b11111111111111111111111111100101 9$
b101 7$
r1 4$
b11111111111111111111111101100000 :$
b11011110011100111111111001 A
b10000 6$
b0 5$
b0 3$
b11110 8$
b10000 Q"
b10000 W#
12
#150000
02
#155000
b1 H#
1q"
b1 i
1:
b10000 W#
b10000 Q"
12
#160000
02
#165000
1*
1S
b1 n
1#
1O
b1 U#
b1 H#
0q"
b1 i
b0 >$
b0 =$
0:
b10000 Q"
b10010 X#
b10000 W#
12
#170000
02
#175000
b1111111011010101 6
b1111111011010101 M
b1111111011010101 o"
b1111111011010101 p"
17
b10000 W#
b10000 Q"
12
#180000
02
#185000
b1 d
b1 G#
b1111111101010001 6
b1111111101010001 M
b1111111101010001 o"
b1111111101010001 p"
b1 >$
b10000 Q"
b10000 W#
12
#190000
02
#195000
b10 G#
b10 d
b1111111111100100 6
b1111111111100100 M
b1111111111100100 o"
b1111111111100100 p"
b10 >$
b10000 W#
b10000 Q"
12
#200000
02
#205000
b11 d
b11 G#
b1111111101001111 6
b1111111101001111 M
b1111111101001111 o"
b1111111101001111 p"
b11 >$
b10000 Q"
b10000 W#
12
#210000
02
#215000
b100 G#
b100 d
b1111111110100011 6
b1111111110100011 M
b1111111110100011 o"
b1111111110100011 p"
b100 >$
b10000 W#
b10000 Q"
12
#220000
02
#225000
b101 d
b101 G#
b10001 6
b10001 M
b10001 o"
b10001 p"
b101 >$
b10000 Q"
b10000 W#
12
#230000
02
#235000
b110 G#
b110 d
b1111111110100111 6
b1111111110100111 M
b1111111110100111 o"
b1111111110100111 p"
b110 >$
b10000 W#
b10000 Q"
12
#240000
02
#245000
b111 d
b111 G#
b1111111101001110 6
b1111111101001110 M
b1111111101001110 o"
b1111111101001110 p"
b111 >$
b10000 Q"
b10000 W#
12
#250000
02
#255000
b1000 G#
b1000 d
b1111111110100000 6
b1111111110100000 M
b1111111110100000 o"
b1111111110100000 p"
b1000 >$
b10000 W#
b10000 Q"
12
#260000
02
#265000
b1001 d
b1001 G#
b1011010 6
b1011010 M
b1011010 o"
b1011010 p"
b1001 >$
b10000 Q"
b10000 W#
12
#270000
02
#275000
b1010 G#
b1010 d
b10110 6
b10110 M
b10110 o"
b10110 p"
b1010 >$
b10000 W#
b10000 Q"
12
#280000
02
#285000
b1011 d
b1011 G#
b1011010 6
b1011010 M
b1011010 o"
b1011010 p"
b1011 >$
b10000 Q"
b10000 W#
12
#290000
02
#295000
b1100 G#
b1100 d
b1111111110010111 6
b1111111110010111 M
b1111111110010111 o"
b1111111110010111 p"
b1100 >$
b10000 W#
b10000 Q"
12
#300000
02
#305000
b1101 d
b1101 G#
b1111111110100001 6
b1111111110100001 M
b1111111110100001 o"
b1111111110100001 p"
b1101 >$
b10000 Q"
b10000 W#
12
#310000
02
#315000
b1110 G#
b1110 d
b1111111011011001 6
b1111111011011001 M
b1111111011011001 o"
b1111111011011001 p"
b1110 >$
b10000 W#
b10000 Q"
12
#320000
02
#325000
b1111 d
b1111 G#
b1111111110100101 6
b1111111110100101 M
b1111111110100101 o"
b1111111110100101 p"
b1111 >$
b10000 Q"
b10000 W#
12
#330000
02
#335000
b1 E#
b0 G#
1c
b0 d
b1010110 6
b1010110 M
b1010110 o"
b1010110 p"
b1 =$
b0 >$
b10000 W#
b10000 Q"
12
#340000
02
#345000
b1 d
b1 G#
b1 >$
b10000 Q"
b10000 W#
12
#350000
02
#355000
b10 G#
b10 d
b1111111110010001 6
b1111111110010001 M
b1111111110010001 o"
b1111111110010001 p"
b10 >$
b10000 W#
b10000 Q"
12
#360000
02
#365000
b11 d
b11 G#
b1010000 6
b1010000 M
b1010000 o"
b1010000 p"
b11 >$
b10000 Q"
b10000 W#
12
#370000
02
#375000
b100 G#
b100 d
b1111111100100110 6
b1111111100100110 M
b1111111100100110 o"
b1111111100100110 p"
b100 >$
b10000 W#
b10000 Q"
12
#380000
02
#385000
b101 d
b101 G#
b1111111101100111 6
b1111111101100111 M
b1111111101100111 o"
b1111111101100111 p"
b101 >$
b10000 Q"
b10000 W#
12
#390000
02
#395000
b110 G#
b110 d
b1001000 6
b1001000 M
b1001000 o"
b1001000 p"
b110 >$
b10000 W#
b10000 Q"
12
#400000
02
#405000
b111 d
b111 G#
b1111111101001100 6
b1111111101001100 M
b1111111101001100 o"
b1111111101001100 p"
b111 >$
b10000 Q"
b10000 W#
12
#410000
02
#415000
b1000 G#
b1000 d
b1111111100010001 6
b1111111100010001 M
b1111111100010001 o"
b1111111100010001 p"
b1000 >$
b10000 W#
b10000 Q"
12
#420000
02
#425000
b1001 d
b1001 G#
b11100 6
b11100 M
b11100 o"
b11100 p"
b1001 >$
b10000 Q"
b10000 W#
12
#430000
02
#435000
b1010 G#
b1010 d
b1111111100010101 6
b1111111100010101 M
b1111111100010101 o"
b1111111100010101 p"
b1010 >$
b10000 W#
b10000 Q"
12
#440000
02
#445000
b1011 d
b1011 G#
b1111111101001000 6
b1111111101001000 M
b1111111101001000 o"
b1111111101001000 p"
b1011 >$
b10000 Q"
b10000 W#
12
#450000
02
#455000
b1100 G#
b1100 d
b1111111110000101 6
b1111111110000101 M
b1111111110000101 o"
b1111111110000101 p"
b1100 >$
b10000 W#
b10000 Q"
12
#460000
02
#465000
b1101 d
b1101 G#
b1100000 6
b1100000 M
b1100000 o"
b1100000 p"
b1101 >$
b10000 Q"
b10000 W#
12
#470000
02
#475000
b1110 G#
b1110 d
b1111111110011110 6
b1111111110011110 M
b1111111110011110 o"
b1111111110011110 p"
b1110 >$
b10000 W#
b10000 Q"
12
#480000
02
#485000
b10 H#
b1111 d
b1111 G#
b1111111101000101 6
b1111111101000101 M
b1111111101000101 o"
b1111111101000101 p"
b1111 >$
b10000 Q"
b10000 W#
12
#490000
02
#495000
0#
0O
b10 U#
b10 E#
b0 G#
0c
b0 d
b10 H#
b0 @
18
07
b10 =$
b10000 >$
b10000 W#
b10000 Q"
12
#500000
02
#505000
b11111111111111111111111100111110 {"
b1 F#
b0 P#
0L#
b0 N#
b0 M#
1O#
b111111111110101000100000 x"
b1111111101010001 C#
b111111111011010101000000 y"
b1111111011010101 B#
b10000 Q"
12
#510000
02
#515000
b1000000 {"
b1 J#
b0 F#
b11111111111111111111111100111110 P#
0Q#
b0 S#
b0 R#
1T#
1L#
b101011000000 x"
b1010110 C#
b1010110000000 y"
b1010110 B#
b100 w"
b100 e#
b101 v"
b101 k#
b11 r"
b11 _#
b11 V#
b10000 Q"
12
#520000
02
#525000
b11111111111111111111111110101101 {"
b11000 u"
b11000 c#
b1001000 t"
b1001000 i#
b11000 s"
b11000 o#
b1 F#
b1000000 P#
1Q#
0L#
b1 N#
b111111111110111101101000 x"
b1111111101001111 C#
b111111111111100000100000 y"
b1111111111100100 B#
b111111111110111110011000 z"
b1111111101010001 A#
b1 w"
b1 e#
b10 v"
b10 k#
b0 r"
b0 _#
b0 V#
b10000 Q"
12
#530000
02
#535000
b11111111111111111111111111110001 {"
b100000 s"
b100000 o#
b1000000 t"
b1000000 i#
b100000 u"
b100000 c#
b10 J#
b0 F#
b11111111111111111111111110101101 P#
0Q#
b1 S#
1L#
b101000000000 x"
b1010000 C#
b111111111110010001000000 y"
b1111111110010001 B#
b101011000000 z"
b1010110 A#
b100 w"
b100 e#
b101 v"
b101 k#
b11 r"
b11 _#
b11 V#
b1111111111011011 u#
b11111111111111111111111110001110 v#
b10000 Q"
12
#540000
02
#545000
b11111111111111111111111110101100 {"
b11000 u"
b11000 c#
b1001000 t"
b1001000 i#
b11000 s"
b11000 o#
b1 F#
b11111111111111111111111111110001 P#
1Q#
0L#
b10 N#
b110011000 x"
b10001 C#
b111111111110010111011000 y"
b1111111110100011 B#
b111111111110111101101000 z"
b1111111101001111 A#
b1 w"
b1 e#
b10 v"
b10 k#
b0 r"
b0 _#
b0 V#
b10000 Q"
12
#550000
02
#555000
b11111111111111111111111110000000 {"
b100000 s"
b100000 o#
b1000000 t"
b1000000 i#
b100000 u"
b100000 c#
b11 J#
b0 F#
b11111111111111111111111110101100 P#
0Q#
b10 S#
1L#
b111111111110110011100000 x"
b1111111101100111 C#
b111111111100100110000000 y"
b1111111100100110 B#
b101000000000 z"
b1010000 A#
b100 w"
b100 e#
b101 v"
b101 k#
b11 r"
b11 _#
b11 V#
b1111111111100101 u#
b11111111111111111111111110101110 v#
b10000 Q"
12
#560000
02
#565000
b11111111111111111111111110101110 {"
b11000 u"
b11000 c#
b1001000 t"
b1001000 i#
b11000 s"
b11000 o#
b1 F#
b11111111111111111111111110000000 P#
1Q#
0L#
b11 N#
b111111111110111101010000 x"
b1111111101001110 C#
b111111111110011011111000 y"
b1111111110100111 B#
b110011000 z"
b10001 A#
b1 w"
b1 e#
b10 v"
b10 k#
b0 r"
b0 _#
b0 V#
b10000 Q"
12
#570000
02
