rtl/tb_cwgan_gp_simple.vcd
$date
	Fri Dec 19 14:33:20 2025
$end
$version
	Icarus Verilog
$end
$timescale
	1ps
$end
$scope module tb_cwgan_gp_simple $end
$var wire 1 ! ofdm_recon_valid $end
$var wire 16 " ofdm_recon_out [15:0] $end
$var wire 1 # ofdm_degraded_ready $end
$var wire 1 $ ofdm_clean_ready $end
$var wire 1 % done $end
$var wire 1 & disc_score_real_valid $end
$var wire 16 ' disc_score_real [15:0] $end
$var wire 1 ( disc_score_fake_valid $end
$var wire 16 ) disc_score_fake [15:0] $end
$var wire 1 * busy $end
$var parameter 32 + ACC_WIDTH $end
$var parameter 32 , CLK_PERIOD $end
$var parameter 32 - DATA_WIDTH $end
$var parameter 32 . FRAME_LEN $end
$var parameter 32 / IN_CH $end
$var parameter 32 0 WEIGHT_WIDTH $end
$var reg 1 1 clk $end
$var reg 1 2 mode $end
$var reg 16 3 ofdm_clean_in [15:0] $end
$var reg 1 4 ofdm_clean_valid $end
$var reg 16 5 ofdm_degraded_in [15:0] $end
$var reg 1 6 ofdm_degraded_valid $end
$var reg 1 7 ofdm_recon_ready $end
$var reg 1 8 rst_n $end
$var reg 1 9 start $end
$var integer 32 : i [31:0] $end
$var integer 32 ; output_count [31:0] $end
$var integer 32 < sample_count [31:0] $end
$scope module dut $end
$var wire 1 * busy $end
$var wire 1 1 clk $end
$var wire 16 = disc_score_fake [15:0] $end
$var wire 1 ( disc_score_fake_valid $end
$var wire 16 > disc_score_real [15:0] $end
$var wire 1 & disc_score_real_valid $end
$var wire 1 2 mode $end
$var wire 16 ? ofdm_clean_in [15:0] $end
$var wire 1 $ ofdm_clean_ready $end
$var wire 1 4 ofdm_clean_valid $end
$var wire 16 @ ofdm_degraded_in [15:0] $end
$var wire 1 # ofdm_degraded_ready $end
$var wire 1 6 ofdm_degraded_valid $end
$var wire 16 A ofdm_recon_out [15:0] $end
$var wire 1 7 ofdm_recon_ready $end
$var wire 1 ! ofdm_recon_valid $end
$var wire 1 8 rst_n $end
$var wire 1 9 start $end
$var wire 1 B gen_ready_in $end
$var wire 1 C gen_out_valid $end
$var wire 16 D gen_out [15:0] $end
$var wire 1 E gen_done $end
$var wire 1 F gen_busy $end
$var wire 1 % done $end
$var wire 1 G disc_score_valid $end
$var wire 16 H disc_score [15:0] $end
$var wire 1 I disc_ready $end
$var wire 1 J disc_done $end
$var wire 1 K disc_busy $end
$var parameter 32 L ACC_WIDTH $end
$var parameter 32 M DATA_WIDTH $end
$var parameter 32 N FRAME_LEN $end
$var parameter 32 O IN_CH $end
$var parameter 3 P ST_DISC_FAKE $end
$var parameter 3 Q ST_DISC_REAL $end
$var parameter 3 R ST_DONE $end
$var parameter 3 S ST_GEN $end
$var parameter 3 T ST_IDLE $end
$var parameter 32 U WEIGHT_WIDTH $end
$var reg 1 V buf_ch_cnt $end
$var reg 4 W buf_pos_cnt [3:0] $end
$var reg 16 X disc_cand_in [15:0] $end
$var reg 1 Y disc_cand_valid $end
$var reg 16 Z disc_cond_in [15:0] $end
$var reg 1 [ disc_cond_valid $end
$var reg 3 \ next_state [2:0] $end
$var reg 16 ] score_fake_reg [15:0] $end
$var reg 1 ^ score_fake_valid_reg $end
$var reg 16 _ score_real_reg [15:0] $end
$var reg 1 ` score_real_valid_reg $end
$var reg 3 a state [2:0] $end
$var integer 32 b i [31:0] $end
$var integer 32 c j [31:0] $end
$scope module u_discriminator $end
$var wire 1 K busy $end
$var wire 16 d cand_in [15:0] $end
$var wire 1 Y cand_valid $end
$var wire 1 1 clk $end
$var wire 16 e cond_in [15:0] $end
$var wire 1 [ cond_valid $end
$var wire 1 I ready_in $end
$var wire 1 8 rst_n $end
$var wire 1 f start $end
$var wire 11 g weight_addr_k0 [10:0] $end
$var wire 8 h weight_k2 [7:0] $end
$var wire 8 i weight_k1 [7:0] $end
$var wire 8 j weight_k0 [7:0] $end
$var wire 11 k weight_addr_k2 [10:0] $end
$var wire 11 l weight_addr_k1 [10:0] $end
$var wire 24 m mult_k2 [23:0] $end
$var wire 24 n mult_k1 [23:0] $end
$var wire 24 o mult_k0 [23:0] $end
$var wire 32 p kernel_sum [31:0] $end
$var wire 1 J done $end
$var wire 16 q bias_data [15:0] $end
$var parameter 32 r ACC_WIDTH $end
$var parameter 32 s BADDR_CONV1 $end
$var parameter 32 t BADDR_CONV2 $end
$var parameter 32 u BADDR_DENSE $end
$var parameter 32 v CONV1_OUT_CH $end
$var parameter 32 w CONV1_OUT_LEN $end
$var parameter 32 x CONV2_OUT_CH $end
$var parameter 32 y CONV2_OUT_LEN $end
$var parameter 32 z DATA_WIDTH $end
$var parameter 32 { FRAME_LEN $end
$var parameter 32 | IN_CH $end
$var parameter 4 } ST_CONV1 $end
$var parameter 4 ~ ST_CONV2 $end
$var parameter 4 !" ST_DENSE $end
$var parameter 4 "" ST_DONE $end
$var parameter 4 #" ST_IDLE $end
$var parameter 4 $" ST_LOAD_CAND $end
$var parameter 4 %" ST_LOAD_COND $end
$var parameter 4 &" ST_OUTPUT $end
$var parameter 4 '" ST_POOL $end
$var parameter 32 (" WADDR_CONV1 $end
$var parameter 32 )" WADDR_CONV2 $end
$var parameter 32 *" WADDR_DENSE $end
$var parameter 32 +" WEIGHT_WIDTH $end
$var reg 6 ," bias_addr [5:0] $end
$var reg 16 -" data_k0 [15:0] $end
$var reg 16 ." data_k1 [15:0] $end
$var reg 16 /" data_k2 [15:0] $end
$var reg 32 0" dense_acc [31:0] $end
$var reg 5 1" in_ch_iter [4:0] $end
$var reg 2 2" load_ch_cnt [1:0] $end
$var reg 5 3" load_pos_cnt [4:0] $end
$var reg 4 4" next_state [3:0] $end
$var reg 5 5" out_ch_cnt [4:0] $end
$var reg 5 6" out_pos_cnt [4:0] $end
$var reg 3 7" pipe_flush [2:0] $end
$var reg 1 8" pipe_s2_last_in_ch $end
$var reg 5 9" pipe_s2_out_ch [4:0] $end
$var reg 5 :" pipe_s2_out_pos [4:0] $end
$var reg 1 ;" pipe_s2_valid $end
$var reg 32 <" pipe_s3_ksum [31:0] $end
$var reg 1 =" pipe_s3_last_in_ch $end
$var reg 5 >" pipe_s3_out_ch [4:0] $end
$var reg 5 ?" pipe_s3_out_pos [4:0] $end
$var reg 1 @" pipe_s3_valid $end
$var reg 16 A" score_out [15:0] $end
$var reg 1 G score_valid $end
$var reg 4 B" state [3:0] $end
$var reg 11 C" weight_addr_base [10:0] $end
$var integer 32 D" i [31:0] $end
$var integer 32 E" j [31:0] $end
$scope module u_bias_rom $end
$var wire 6 F" addr [5:0] $end
$var wire 1 1 clk $end
$var parameter 32 G" ADDR_WIDTH $end
$var parameter 32 H" DATA_WIDTH $end
$var parameter 32 I" DEPTH $end
$var reg 16 J" data [15:0] $end
$var integer 32 K" init_i [31:0] $end
$upscope $end
$scope module u_wrom_k0 $end
$var wire 11 L" addr [10:0] $end
$var wire 1 1 clk $end
$var parameter 32 M" ADDR_WIDTH $end
$var parameter 32 N" DEPTH $end
$var parameter 32 O" WEIGHT_WIDTH $end
$var reg 8 P" data [7:0] $end
$var integer 32 Q" init_i [31:0] $end
$upscope $end
$scope module u_wrom_k1 $end
$var wire 11 R" addr [10:0] $end
$var wire 1 1 clk $end
$var parameter 32 S" ADDR_WIDTH $end
$var parameter 32 T" DEPTH $end
$var parameter 32 U" WEIGHT_WIDTH $end
$var reg 8 V" data [7:0] $end
$var integer 32 W" init_i [31:0] $end
$upscope $end
$scope module u_wrom_k2 $end
$var wire 11 X" addr [10:0] $end
$var wire 1 1 clk $end
$var parameter 32 Y" ADDR_WIDTH $end
$var parameter 32 Z" DEPTH $end
$var parameter 32 [" WEIGHT_WIDTH $end
$var reg 8 \" data [7:0] $end
$var integer 32 ]" init_i [31:0] $end
$upscope $end
$scope begin conv1_store $end
$var reg 16 ^" result [15:0] $end
$var reg 32 _" sum [31:0] $end
$upscope $end
$scope begin conv2_store $end
$var reg 16 `" result [15:0] $end
$var reg 32 a" sum [31:0] $end
$upscope $end
$upscope $end
$scope module u_generator $end
$var wire 1 F busy $end
$var wire 1 1 clk $end
$var wire 16 b" cond_in [15:0] $end
$var wire 1 6 cond_valid $end
$var wire 16 c" data_in [15:0] $end
$var wire 1 7 ready_out $end
$var wire 1 8 rst_n $end
$var wire 1 d" start $end
$var wire 1 6 valid_in $end
$var wire 11 e" weight_addr_k0 [10:0] $end
$var wire 8 f" weight_k2 [7:0] $end
$var wire 8 g" weight_k1 [7:0] $end
$var wire 8 h" weight_k0 [7:0] $end
$var wire 11 i" weight_addr_k2 [10:0] $end
$var wire 11 j" weight_addr_k1 [10:0] $end
$var wire 1 B ready_in $end
$var wire 24 k" mult_k2 [23:0] $end
$var wire 24 l" mult_k1 [23:0] $end
$var wire 24 m" mult_k0 [23:0] $end
$var wire 32 n" kernel_sum [31:0] $end
$var wire 1 E done $end
$var wire 16 o" bias_data [15:0] $end
$var parameter 32 p" ACC_WIDTH $end
$var parameter 32 q" BADDR_BNECK $end
$var parameter 32 r" BADDR_DEC1 $end
$var parameter 32 s" BADDR_ENC1 $end
$var parameter 32 t" BADDR_OUT $end
$var parameter 32 u" BNECK_OUT_CH $end
$var parameter 32 v" BNECK_OUT_LEN $end
$var parameter 32 w" DATA_WIDTH $end
$var parameter 32 x" DEC1_OUT_CH $end
$var parameter 32 y" DEC1_OUT_LEN $end
$var parameter 32 z" ENC1_OUT_CH $end
$var parameter 32 {" ENC1_OUT_LEN $end
$var parameter 32 |" FRAME_LEN $end
$var parameter 32 }" IN_CH $end
$var parameter 32 ~" OUT_CH $end
$var parameter 4 !# ST_BNECK $end
$var parameter 4 "# ST_DEC1 $end
$var parameter 4 ## ST_DONE $end
$var parameter 4 $# ST_ENC1 $end
$var parameter 4 %# ST_IDLE $end
$var parameter 4 &# ST_LOAD_IN $end
$var parameter 4 '# ST_OUTPUT $end
$var parameter 4 (# ST_OUT_CONV $end
$var parameter 4 )# ST_SKIP_ADD $end
$var parameter 4 *# ST_TANH $end
$var parameter 4 +# ST_UPSAMPLE1 $end
$var parameter 4 ,# ST_UPSAMPLE2 $end
$var parameter 32 -# UP1_LEN $end
$var parameter 32 .# WADDR_BNECK $end
$var parameter 32 /# WADDR_DEC1 $end
$var parameter 32 0# WADDR_ENC1 $end
$var parameter 32 1# WADDR_OUT $end
$var parameter 32 2# WEIGHT_WIDTH $end
$var reg 6 3# bias_addr [5:0] $end
$var reg 16 4# data_k0 [15:0] $end
$var reg 16 5# data_k1 [15:0] $end
$var reg 16 6# data_k2 [15:0] $end
$var reg 16 7# data_out [15:0] $end
$var reg 3 8# in_ch_cnt [2:0] $end
$var reg 4 9# in_ch_iter [3:0] $end
$var reg 5 :# in_pos_cnt [4:0] $end
$var reg 4 ;# next_state [3:0] $end
$var reg 4 <# out_ch_cnt [3:0] $end
$var reg 5 =# out_pos_cnt [4:0] $end
$var reg 3 ># pipe_flush [2:0] $end
$var reg 1 ?# pipe_s2_last_in_ch $end
$var reg 4 @# pipe_s2_out_ch [3:0] $end
$var reg 5 A# pipe_s2_out_pos [4:0] $end
$var reg 1 B# pipe_s2_valid $end
$var reg 32 C# pipe_s3_ksum [31:0] $end
$var reg 1 D# pipe_s3_last_in_ch $end
$var reg 4 E# pipe_s3_out_ch [3:0] $end
$var reg 5 F# pipe_s3_out_pos [4:0] $end
$var reg 1 G# pipe_s3_valid $end
$var reg 4 H# state [3:0] $end
$var reg 1 C valid_out $end
$var reg 11 I# weight_addr_base [10:0] $end
$var integer 32 J# i [31:0] $end
$var integer 32 K# j [31:0] $end
$scope module u_bias_rom $end
$var wire 6 L# addr [5:0] $end
$var wire 1 1 clk $end
$var parameter 32 M# ADDR_WIDTH $end
$var parameter 32 N# DATA_WIDTH $end
$var parameter 32 O# DEPTH $end
$var reg 16 P# data [15:0] $end
$var integer 32 Q# init_i [31:0] $end
$upscope $end
$scope module u_wrom_k0 $end
$var wire 11 R# addr [10:0] $end
$var wire 1 1 clk $end
$var parameter 32 S# ADDR_WIDTH $end
$var parameter 32 T# DEPTH $end
$var parameter 32 U# WEIGHT_WIDTH $end
$var reg 8 V# data [7:0] $end
$var integer 32 W# init_i [31:0] $end
$upscope $end
$scope module u_wrom_k1 $end
$var wire 11 X# addr [10:0] $end
$var wire 1 1 clk $end
$var parameter 32 Y# ADDR_WIDTH $end
$var parameter 32 Z# DEPTH $end
$var parameter 32 [# WEIGHT_WIDTH $end
$var reg 8 \# data [7:0] $end
$var integer 32 ]# init_i [31:0] $end
$upscope $end
$scope module u_wrom_k2 $end
$var wire 11 ^# addr [10:0] $end
$var wire 1 1 clk $end
$var parameter 32 _# ADDR_WIDTH $end
$var parameter 32 `# DEPTH $end
$var parameter 32 a# WEIGHT_WIDTH $end
$var reg 8 b# data [7:0] $end
$var integer 32 c# init_i [31:0] $end
$upscope $end
$scope begin bneck_store $end
$var reg 16 d# result [15:0] $end
$var reg 32 e# sum [31:0] $end
$upscope $end
$scope begin dec1_store $end
$var reg 16 f# result [15:0] $end
$var reg 32 g# sum [31:0] $end
$upscope $end
$scope begin enc1_store $end
$var reg 16 h# result [15:0] $end
$var reg 32 i# sum [31:0] $end
$upscope $end
$scope begin out_store $end
$var reg 32 j# sum [31:0] $end
$upscope $end
$scope begin skip_add_blk $end
$var reg 32 k# sum [31:0] $end
$upscope $end
$upscope $end
$upscope $end
$upscope $end
$enddefinitions $end
$comment Show the parameter values. $end
$dumpall
b1000 a#
b100000000000 `#
b1011 _#
b1000 [#
b100000000000 Z#
b1011 Y#
b1000 U#
b100000000000 T#
b1011 S#
b1000000 O#
b10000 N#
b110 M#
b1000 2#
b11011000 1#
b0 0#
b1111000 /#
b11000 .#
b1000 -#
b111 ,#
b100 +#
b1001 *#
b110 )#
b1000 (#
b1010 '#
b1 &#
b0 %#
b10 $#
b1011 ##
b101 "#
b11 !#
b10 ~"
b10 }"
b10000 |"
b1000 {"
b100 z"
b1000 y"
b100 x"
b10000 w"
b100 v"
b1000 u"
b10000 t"
b0 s"
b1100 r"
b100 q"
b100000 p"
b1000 ["
b100000000000 Z"
b1011 Y"
b1000 U"
b100000000000 T"
b1011 S"
b1000 O"
b100000000000 N"
b1011 M"
b1000000 I"
b10000 H"
b110 G"
b1000 +"
b1011100000 *"
b101100000 )"
b100000000 ("
b101 '"
b111 &"
b10 %"
b1 $"
b0 #"
b1000 ""
b110 !"
b100 ~
b11 }
b100 |
b10000 {
b10000 z
b100 y
b10000 x
b1000 w
b1000 v
b111000 u
b101000 t
b100000 s
b100000 r
b1000 U
b0 T
b1 S
b100 R
b11 Q
b10 P
b10 O
b10000 N
b10000 M
b100000 L
b1000 0
b10 /
b10000 .
b10000 -
b1010 ,
b100000 +
$end
#0
$dumpvars
bx k#
bx j#
bx i#
bx h#
bx g#
bx f#
bx e#
bx d#
b100000000000 c#
bx b#
b10 ^#
b100000000000 ]#
bx \#
b1 X#
b100000000000 W#
bx V#
b0 R#
b1000000 Q#
bx P#
b0 L#
b10010 K#
b10 J#
b0 I#
b0 H#
0G#
bx F#
bx E#
xD#
bx C#
0B#
bx A#
bx @#
x?#
b0 >#
b0 =#
b0 <#
b0 ;#
b0 :#
b0 9#
b0 8#
b0 7#
b0 6#
b0 5#
b0 4#
b0 3#
bx o"
bx n"
bx m"
bx l"
bx k"
b1 j"
b10 i"
bx h"
bx g"
bx f"
b0 e"
0d"
b0 c"
b0 b"
bx a"
bx `"
bx _"
bx ^"
b100000000000 ]"
bx \"
b10 X"
b100000000000 W"
bx V"
b1 R"
b100000000000 Q"
bx P"
b0 L"
b1000000 K"
bx J"
b0 F"
b10010 E"
b100 D"
b0 C"
b0 B"
b0 A"
0@"
bx ?"
bx >"
x="
bx <"
0;"
bx :"
bx 9"
x8"
b0 7"
b0 6"
b0 5"
b0 4"
b0 3"
b0 2"
b0 1"
b0 0"
b0 /"
b0 ."
b0 -"
b0 ,"
bx q
bx p
bx o
bx n
bx m
b1 l
b10 k
bx j
bx i
bx h
b0 g
0f
b0 e
b0 d
b10000 c
b10 b
b0 a
0`
b0 _
0^
b0 ]
b0 \
0[
b0 Z
0Y
b0 X
b0 W
0V
0K
0J
0I
b0 H
0G
0F
0E
b0 D
0C
0B
b0 A
b0 @
b0 ?
b0 >
b0 =
bx <
bx ;
bx :
09
08
07
06
b0 5
04
b0 3
02
01
0*
b0 )
0(
b0 '
0&
0%
0$
0#
b0 "
0!
$end
#5000
b0 n"
b0 p
b0 m"
b100000 h"
b100000 V#
b0 l"
b1000000 g"
b1000000 \#
b0 k"
b100000 f"
b100000 b#
b10000 o"
b10000 P#
b0 o
b100000 j
b100000 P"
b0 n
b1000000 i
b1000000 V"
b0 m
b100000 h
b100000 \"
b10000 q
b10000 J"
b10000 c
b10 b
b100 E"
b10000 D"
b10000 K#
b10 J#
11
#10000
01
#15000
b10010 K#
b10 J#
b10010 E"
b100 D"
b10000 c
b10 b
11
#20000
01
#25000
b10000 c
b10 b
b100 E"
b10000 D"
b10000 K#
b10 J#
11
#30000
01
#35000
b10010 K#
b10 J#
b10010 E"
b100 D"
b10000 c
b10 b
11
#40000
01
#45000
b10000 c
b10 b
b100 E"
b10000 D"
b10000 K#
b10 J#
11
#50000
01
#55000
b10010 K#
b10 J#
b10010 E"
b100 D"
b10000 c
b10 b
11
#60000
01
#65000
b10000 c
b10 b
b100 E"
b10000 D"
b10000 K#
b10 J#
11
#70000
01
#75000
b10010 K#
b10 J#
b10010 E"
b100 D"
b10000 c
b10 b
11
#80000
01
#85000
b10000 c
b10 b
b100 E"
b10000 D"
b10000 K#
b10 J#
11
#90000
01
#95000
18
b10010 K#
b10 J#
b10010 E"
b100 D"
b10000 c
b10 b
11
#100000
01
#105000
b10000 D"
b10000 J#
11
#110000
01
#115000
b10000 J#
b10000 D"
11
#120000
01
#125000
b10000 D"
b10000 J#
11
#130000
01
#135000
b10000 J#
b10000 D"
11
#140000
01
#145000
b10000 D"
b10000 J#
11
#150000
01
#155000
b1 ;#
1d"
b1 \
19
b10000 J#
b10000 D"
11
#160000
01
#165000
1*
1F
b1 a
1#
1B
b1 H#
b1 ;#
0d"
b1 \
09
b10000 D"
b10010 K#
b10000 J#
11
#170000
01
#175000
16
b1111111110000000 5
b1111111110000000 @
b1111111110000000 b"
b1111111110000000 c"
b0 :
b0 <
b10000 J#
b10000 D"
11
#180000
01
#185000
b1 W
b1 :#
b1111111110000001 5
b1111111110000001 @
b1111111110000001 b"
b1111111110000001 c"
b1 :
b1 <
b10000 D"
b10000 J#
11
#190000
01
#195000
b10 :#
b10 W
b1111111110000010 5
b1111111110000010 @
b1111111110000010 b"
b1111111110000010 c"
b10 :
b10 <
b10000 J#
b10000 D"
11
#200000
01
#205000
b11 W
b11 :#
b1111111110000011 5
b1111111110000011 @
b1111111110000011 b"
b1111111110000011 c"
b11 :
b11 <
b10000 D"
b10000 J#
11
#210000
01
#215000
b100 :#
b100 W
b1111111110000100 5
b1111111110000100 @
b1111111110000100 b"
b1111111110000100 c"
b100 :
b100 <
b10000 J#
b10000 D"
11
#220000
01
#225000
b101 W
b101 :#
b1111111110000101 5
b1111111110000101 @
b1111111110000101 b"
b1111111110000101 c"
b101 :
b101 <
b10000 D"
b10000 J#
11
#230000
01
#235000
b110 :#
b110 W
b1111111110000110 5
b1111111110000110 @
b1111111110000110 b"
b1111111110000110 c"
b110 :
b110 <
b10000 J#
b10000 D"
11
#240000
01
#245000
b111 W
b111 :#
b1111111110000111 5
b1111111110000111 @
b1111111110000111 b"
b1111111110000111 c"
b111 :
b111 <
b10000 D"
b10000 J#
11
#250000
01
#255000
b1000 :#
b1000 W
b1111111110001000 5
b1111111110001000 @
b1111111110001000 b"
b1111111110001000 c"
b1000 :
b1000 <
b10000 J#
b10000 D"
11
#260000
01
#265000
b1001 W
b1001 :#
b1111111110001001 5
b1111111110001001 @
b1111111110001001 b"
b1111111110001001 c"
b1001 :
b1001 <
b10000 D"
b10000 J#
11
#270000
01
#275000
b1010 :#
b1010 W
b1111111110001010 5
b1111111110001010 @
b1111111110001010 b"
b1111111110001010 c"
b1010 :
b1010 <
b10000 J#
b10000 D"
11
#280000
01
#285000
b1011 W
b1011 :#
b1111111110001011 5
b1111111110001011 @
b1111111110001011 b"
b1111111110001011 c"
b1011 :
b1011 <
b10000 D"
b10000 J#
11
#290000
01
#295000
b1100 :#
b1100 W
b1111111110001100 5
b1111111110001100 @
b1111111110001100 b"
b1111111110001100 c"
b1100 :
b1100 <
b10000 J#
b10000 D"
11
#300000
01
#305000
b1101 W
b1101 :#
b1111111110001101 5
b1111111110001101 @
b1111111110001101 b"
b1111111110001101 c"
b1101 :
b1101 <
b10000 D"
b10000 J#
11
#310000
01
#315000
b1110 :#
b1110 W
b1111111110001110 5
b1111111110001110 @
b1111111110001110 b"
b1111111110001110 c"
b1110 :
b1110 <
b10000 J#
b10000 D"
11
#320000
01
#325000
b1111 W
b1111 :#
b1111111110001111 5
b1111111110001111 @
b1111111110001111 b"
b1111111110001111 c"
b1111 :
b1111 <
b10000 D"
b10000 J#
11
#330000
01
#335000
b1 8#
b0 :#
1V
b0 W
b1111111110010000 5
b1111111110010000 @
b1111111110010000 b"
b1111111110010000 c"
b10000 :
b10000 <
b10000 J#
b10000 D"
11
#340000
01
#345000
b1 W
b1 :#
b1111111110010001 5
b1111111110010001 @
b1111111110010001 b"
b1111111110010001 c"
b10001 :
b10001 <
b10000 D"
b10000 J#
11
#350000
01
#355000
b10 :#
b10 W
b1111111110010010 5
b1111111110010010 @
b1111111110010010 b"
b1111111110010010 c"
b10010 :
b10010 <
b10000 J#
b10000 D"
11
#360000
01
#365000
b11 W
b11 :#
b1111111110010011 5
b1111111110010011 @
b1111111110010011 b"
b1111111110010011 c"
b10011 :
b10011 <
b10000 D"
b10000 J#
11
#370000
01
#375000
b100 :#
b100 W
b1111111110010100 5
b1111111110010100 @
b1111111110010100 b"
b1111111110010100 c"
b10100 :
b10100 <
b10000 J#
b10000 D"
11
#380000
01
#385000
b101 W
b101 :#
b1111111110010101 5
b1111111110010101 @
b1111111110010101 b"
b1111111110010101 c"
b10101 :
b10101 <
b10000 D"
b10000 J#
11
#390000
01
#395000
b110 :#
b110 W
b1111111110010110 5
b1111111110010110 @
b1111111110010110 b"
b1111111110010110 c"
b10110 :
b10110 <
b10000 J#
b10000 D"
11
#400000
01
#405000
b111 W
b111 :#
b1111111110010111 5
b1111111110010111 @
b1111111110010111 b"
b1111111110010111 c"
b10111 :
b10111 <
b10000 D"
b10000 J#
11
#410000
01
#415000
b1000 :#
b1000 W
b1111111110011000 5
b1111111110011000 @
b1111111110011000 b"
b1111111110011000 c"
b11000 :
b11000 <
b10000 J#
b10000 D"
11
#420000
01
#425000
b1001 W
b1001 :#
b1111111110011001 5
b1111111110011001 @
b1111111110011001 b"
b1111111110011001 c"
b11001 :
b11001 <
b10000 D"
b10000 J#
11
#430000
01
#435000
b1010 :#
b1010 W
b1111111110011010 5
b1111111110011010 @
b1111111110011010 b"
b1111111110011010 c"
b11010 :
b11010 <
b10000 J#
b10000 D"
11
#440000
01
#445000
b1011 W
b1011 :#
b1111111110011011 5
b1111111110011011 @
b1111111110011011 b"
b1111111110011011 c"
b11011 :
b11011 <
b10000 D"
b10000 J#
11
#450000
01
#455000
b1100 :#
b1100 W
b1111111110011100 5
b1111111110011100 @
b1111111110011100 b"
b1111111110011100 c"
b11100 :
b11100 <
b10000 J#
b10000 D"
11
#460000
01
#465000
b1101 W
b1101 :#
b1111111110011101 5
b1111111110011101 @
b1111111110011101 b"
b1111111110011101 c"
b11101 :
b11101 <
b10000 D"
b10000 J#
11
#470000
01
#475000
b1110 :#
b1110 W
b1111111110011110 5
b1111111110011110 @
b1111111110011110 b"
b1111111110011110 c"
b11110 :
b11110 <
b10000 J#
b10000 D"
11
#480000
01
#485000
b10 ;#
b1111 W
b1111 :#
b1111111110011111 5
b1111111110011111 @
b1111111110011111 b"
b1111111110011111 c"
b11111 :
b11111 <
b10000 D"
b10000 J#
11
#490000
01
#495000
0#
0B
b10 H#
b10 8#
b0 :#
0V
b0 W
b10 ;#
b0 ;
17
06
b100000 :
b100000 <
b10000 J#
b10000 D"
11
#500000
01
#505000
b11111111111111111111111110100000 n"
b1 9#
b0 C#
0?#
b0 A#
b0 @#
1B#
b111111111111000000100000 k"
b1111111110000001 6#
b111111111110000000000000 l"
b1111111110000000 5#
b10000 D"
11
#510000
01
#515000
b11111111111111111111111110101100 n"
b1 =#
b0 9#
b11111111111111111111111110100000 C#
0D#
b0 F#
b0 E#
1G#
1?#
b111111111111001000100000 k"
b1111111110010001 6#
b111111111110010000000000 l"
b1111111110010000 5#
b100 j"
b100 X#
b101 i"
b101 ^#
b11 e"
b11 R#
b11 I#
b10000 D"
11
#520000
01
#525000
b11111111111111111111111110001001 n"
b11000 h"
b11000 V#
b1001000 g"
b1001000 \#
b11000 f"
b11000 b#
b1 9#
b11111111111111111111111110101100 C#
1D#
0?#
b1 A#
b111111111111010001001000 k"
b1111111110000011 6#
b111111111101110010010000 l"
b1111111110000010 5#
b111111111111010000011000 m"
b1111111110000001 4#
b1 j"
b1 X#
b10 i"
b10 ^#
b0 e"
b0 R#
b0 I#
b10000 D"
11
#530000
01
#535000
b11111111111111111111111110010001 n"
b100000 f"
b100000 b#
b1000000 g"
b1000000 \#
b100000 h"
b100000 V#
b10 =#
b0 9#
b11111111111111111111111110001001 C#
0D#
b1 F#
1?#
b111111111111001001100000 k"
b1111111110010011 6#
b111111111110010010000000 l"
b1111111110010010 5#
b111111111111001000100000 m"
b1111111110010001 4#
b100 j"
b100 X#
b101 i"
b101 ^#
b11 e"
b11 R#
b11 I#
b1111111111001100 h#
b11111111111111111111111101011100 i#
b10000 D"
11
#540000
01
#545000
b11111111111111111111111110001010 n"
b11000 h"
b11000 V#
b1001000 g"
b1001000 \#
b11000 f"
b11000 b#
b1 9#
b11111111111111111111111110010001 C#
1D#
0?#
b10 A#
b111111111111010001111000 k"
b1111111110000101 6#
b111111111101110100100000 l"
b1111111110000100 5#
b111111111111010001001000 m"
b1111111110000011 4#
b1 j"
b1 X#
b10 i"
b10 ^#
b0 e"
b0 R#
b0 I#
b10000 D"
11
#550000
01
#555000
b11111111111111111111111110010011 n"
b100000 f"
b100000 b#
b1000000 g"
b1000000 \#
b100000 h"
b100000 V#
b11 =#
b0 9#
b11111111111111111111111110001010 C#
0D#
b10 F#
1?#
b111111111111001010100000 k"
b1111111110010101 6#
b111111111110010100000000 l"
b1111111110010100 5#
b111111111111001001100000 m"
b1111111110010011 4#
b100 j"
b100 X#
b101 i"
b101 ^#
b11 e"
b11 R#
b11 I#
b1111111110111100 h#
b11111111111111111111111100101010 i#
b10000 D"
11
#560000
01
#565000
b11111111111111111111111110001100 n"
b11000 h"
b11000 V#
b1001000 g"
b1001000 \#
b11000 f"
b11000 b#
b1 9#
b11111111111111111111111110010011 C#
1D#
0?#
b11 A#
b111111111111010010101000 k"
b1111111110000111 6#
b111111111101110110110000 l"
b1111111110000110 5#
b111111111111010001111000 m"
b1111111110000101 4#
b1 j"
b1 X#
b10 i"
b10 ^#
b0 e"
b0 R#
b0 I#
b10000 D"
11
#570000
01
#575000
b11111111111111111111111110010101 n"
b100000 f"
b100000 b#
b1000000 g"
b1000000 \#
b100000 h"
b100000 V#
b100 =#
b0 9#
b11111111111111111111111110001100 C#
0D#
b11 F#
1?#
b111111111111001011100000 k"
b1111111110010111 6#
b111111111110010110000000 l"
b1111111110010110 5#
b111111111111001010100000 m"
b1111111110010101 4#
b100 j"
b100 X#
b101 i"
b101 ^#
b11 e"
b11 R#
b11 I#
b1111111110111101 h#
b11111111111111111111111100101101 i#
b10000 D"
11
#580000
01
#585000
b11111111111111111111111110001110 n"
b11000 h"
b11000 V#
b1001000 g"
b1001000 \#
b11000 f"
b11000 b#
b1 9#
b11111111111111111111111110010101 C#
1D#
0?#
b100 A#
b111111111111010011011000 k"
b1111111110001001 6#
b111111111101111001000000 l"
b1111111110001000 5#
b111111111111010010101000 m"
b1111111110000111 4#
b1 j"
b1 X#
b10 i"
b10 ^#
b0 e"
b0 R#
b0 I#
b10000 D"
11
#590000
01
#595000
b11111111111111111111111110010111 n"
b100000 f"
b100000 b#
b1000000 g"
b1000000 \#
b100000 h"
b100000 V#
b101 =#
b0 9#
b11111111111111111111111110001110 C#
0D#
b100 F#
1?#
b111111111111001100100000 k"
b1111111110011001 6#
b111111111110011000000000 l"
b1111111110011000 5#
b111111111111001011100000 m"
b1111111110010111 4#
b100 j"
b100 X#
b101 i"
b101 ^#
b11 e"
b11 R#
b11 I#
b1111111110111111 h#
b11111111111111111111111100110001 i#
b10000 D"
11
#600000
01
#605000
b11111111111111111111111110010000 n"
b11000 h"
b11000 V#
b1001000 g"
b1001000 \#
b11000 f"
b11000 b#
b1 9#
b11111111111111111111111110010111 C#
1D#
0?#
b101 A#
b111111111111010100001000 k"
b1111111110001011 6#
b111111111101111011010000 l"
b1111111110001010 5#
b111111111111010011011000 m"
b1111111110001001 4#
b1 j"
b1 X#
b10 i"
b10 ^#
b0 e"
b0 R#
b0 I#
b10000 D"
11
#610000
01
#615000
b11111111111111111111111110011001 n"
b100000 f"
b100000 b#
b1000000 g"
b1000000 \#
b100000 h"
b100000 V#
b110 =#
b0 9#
b11111111111111111111111110010000 C#
0D#
b101 F#
1?#
b111111111111001101100000 k"
b1111111110011011 6#
b111111111110011010000000 l"
b1111111110011010 5#
b111111111111001100100000 m"
b1111111110011001 4#
b100 j"
b100 X#
b101 i"
b101 ^#
b11 e"
b11 R#
b11 I#
b1111111111000000 h#
b11111111111111111111111100110101 i#
b10000 D"
11
#620000
01
