rtl/tb_cwgan_gp.vcd
$date
	Tue Dec 16 18:18:44 2025
$end
$version
	Icarus Verilog
$end
$timescale
	1ps
$end
$scope module tb_cwgan_gp $end
$var wire 1 ! ofdm_recon_valid $end
$var wire 16 " ofdm_recon_out [15:0] $end
$var wire 1 # ofdm_degraded_ready $end
$var wire 1 $ ofdm_clean_ready $end
$var wire 1 % done $end
$var wire 1 & disc_score_real_valid $end
$var wire 16 ' disc_score_real [15:0] $end
$var wire 1 ( disc_score_fake_valid $end
$var wire 16 ) disc_score_fake [15:0] $end
$var wire 1 * busy $end
$var parameter 32 + ACC_WIDTH $end
$var parameter 32 , CLK_PERIOD $end
$var parameter 32 - DATA_WIDTH $end
$var parameter 32 . FRAME_LEN $end
$var parameter 32 / IN_CH $end
$var parameter 32 0 WEIGHT_WIDTH $end
$var reg 1 1 clk $end
$var reg 1 2 mode $end
$var reg 16 3 ofdm_clean_in [15:0] $end
$var reg 1 4 ofdm_clean_valid $end
$var reg 16 5 ofdm_degraded_in [15:0] $end
$var reg 1 6 ofdm_degraded_valid $end
$var reg 1 7 ofdm_recon_ready $end
$var reg 1 8 rst_n $end
$var reg 1 9 start $end
$var reg 256 : test_name [255:0] $end
$var integer 32 ; cycles_end [31:0] $end
$var integer 32 < cycles_start [31:0] $end
$var integer 32 = errors [31:0] $end
$var integer 32 > i [31:0] $end
$var integer 32 ? test_num [31:0] $end
$scope module dut $end
$var wire 1 * busy $end
$var wire 1 1 clk $end
$var wire 16 @ disc_score_fake [15:0] $end
$var wire 1 ( disc_score_fake_valid $end
$var wire 16 A disc_score_real [15:0] $end
$var wire 1 & disc_score_real_valid $end
$var wire 1 2 mode $end
$var wire 16 B ofdm_clean_in [15:0] $end
$var wire 1 $ ofdm_clean_ready $end
$var wire 1 4 ofdm_clean_valid $end
$var wire 16 C ofdm_degraded_in [15:0] $end
$var wire 1 # ofdm_degraded_ready $end
$var wire 1 6 ofdm_degraded_valid $end
$var wire 16 D ofdm_recon_out [15:0] $end
$var wire 1 7 ofdm_recon_ready $end
$var wire 1 ! ofdm_recon_valid $end
$var wire 1 8 rst_n $end
$var wire 1 9 start $end
$var wire 1 E gen_ready_in $end
$var wire 1 F gen_out_valid $end
$var wire 16 G gen_out [15:0] $end
$var wire 1 H gen_done $end
$var wire 1 I gen_busy $end
$var wire 1 % done $end
$var wire 1 J disc_score_valid $end
$var wire 16 K disc_score [15:0] $end
$var wire 1 L disc_ready $end
$var wire 1 M disc_done $end
$var wire 1 N disc_busy $end
$var parameter 32 O ACC_WIDTH $end
$var parameter 32 P DATA_WIDTH $end
$var parameter 32 Q FRAME_LEN $end
$var parameter 32 R IN_CH $end
$var parameter 3 S ST_DISC_FAKE $end
$var parameter 3 T ST_DISC_REAL $end
$var parameter 3 U ST_DONE $end
$var parameter 3 V ST_GEN $end
$var parameter 3 W ST_IDLE $end
$var parameter 32 X WEIGHT_WIDTH $end
$var reg 1 Y buf_ch_cnt $end
$var reg 4 Z buf_pos_cnt [3:0] $end
$var reg 16 [ disc_cand_in [15:0] $end
$var reg 1 \ disc_cand_valid $end
$var reg 16 ] disc_cond_in [15:0] $end
$var reg 1 ^ disc_cond_valid $end
$var reg 3 _ next_state [2:0] $end
$var reg 16 ` score_fake_reg [15:0] $end
$var reg 1 a score_fake_valid_reg $end
$var reg 16 b score_real_reg [15:0] $end
$var reg 1 c score_real_valid_reg $end
$var reg 3 d state [2:0] $end
$var integer 32 e i [31:0] $end
$var integer 32 f j [31:0] $end
$scope module u_discriminator $end
$var wire 1 N busy $end
$var wire 16 g cand_in [15:0] $end
$var wire 1 \ cand_valid $end
$var wire 1 1 clk $end
$var wire 16 h cond_in [15:0] $end
$var wire 1 ^ cond_valid $end
$var wire 1 L ready_in $end
$var wire 1 8 rst_n $end
$var wire 1 i start $end
$var wire 11 j weight_addr_k0 [10:0] $end
$var wire 8 k weight_k2 [7:0] $end
$var wire 8 l weight_k1 [7:0] $end
$var wire 8 m weight_k0 [7:0] $end
$var wire 11 n weight_addr_k2 [10:0] $end
$var wire 11 o weight_addr_k1 [10:0] $end
$var wire 24 p mult_k2 [23:0] $end
$var wire 24 q mult_k1 [23:0] $end
$var wire 24 r mult_k0 [23:0] $end
$var wire 32 s kernel_sum [31:0] $end
$var wire 1 M done $end
$var wire 16 t bias_data [15:0] $end
$var parameter 32 u ACC_WIDTH $end
$var parameter 32 v BADDR_CONV1 $end
$var parameter 32 w BADDR_CONV2 $end
$var parameter 32 x BADDR_DENSE $end
$var parameter 32 y CONV1_OUT_CH $end
$var parameter 32 z CONV1_OUT_LEN $end
$var parameter 32 { CONV2_OUT_CH $end
$var parameter 32 | CONV2_OUT_LEN $end
$var parameter 32 } DATA_WIDTH $end
$var parameter 32 ~ FRAME_LEN $end
$var parameter 32 !" IN_CH $end
$var parameter 4 "" ST_CONV1 $end
$var parameter 4 #" ST_CONV2 $end
$var parameter 4 $" ST_DENSE $end
$var parameter 4 %" ST_DONE $end
$var parameter 4 &" ST_IDLE $end
$var parameter 4 '" ST_LOAD_CAND $end
$var parameter 4 (" ST_LOAD_COND $end
$var parameter 4 )" ST_OUTPUT $end
$var parameter 4 *" ST_POOL $end
$var parameter 32 +" WADDR_CONV1 $end
$var parameter 32 ," WADDR_CONV2 $end
$var parameter 32 -" WADDR_DENSE $end
$var parameter 32 ." WEIGHT_WIDTH $end
$var reg 6 /" bias_addr [5:0] $end
$var reg 16 0" data_k0 [15:0] $end
$var reg 16 1" data_k1 [15:0] $end
$var reg 16 2" data_k2 [15:0] $end
$var reg 32 3" dense_acc [31:0] $end
$var reg 5 4" in_ch_iter [4:0] $end
$var reg 2 5" load_ch_cnt [1:0] $end
$var reg 5 6" load_pos_cnt [4:0] $end
$var reg 4 7" next_state [3:0] $end
$var reg 5 8" out_ch_cnt [4:0] $end
$var reg 5 9" out_pos_cnt [4:0] $end
$var reg 3 :" pipe_flush [2:0] $end
$var reg 1 ;" pipe_s2_last_in_ch $end
$var reg 5 <" pipe_s2_out_ch [4:0] $end
$var reg 5 =" pipe_s2_out_pos [4:0] $end
$var reg 1 >" pipe_s2_valid $end
$var reg 32 ?" pipe_s3_ksum [31:0] $end
$var reg 1 @" pipe_s3_last_in_ch $end
$var reg 5 A" pipe_s3_out_ch [4:0] $end
$var reg 5 B" pipe_s3_out_pos [4:0] $end
$var reg 1 C" pipe_s3_valid $end
$var reg 16 D" score_out [15:0] $end
$var reg 1 J score_valid $end
$var reg 4 E" state [3:0] $end
$var reg 11 F" weight_addr_base [10:0] $end
$var integer 32 G" i [31:0] $end
$var integer 32 H" j [31:0] $end
$scope module u_bias_rom $end
$var wire 6 I" addr [5:0] $end
$var wire 1 1 clk $end
$var parameter 32 J" ADDR_WIDTH $end
$var parameter 32 K" DATA_WIDTH $end
$var parameter 32 L" DEPTH $end
$var reg 16 M" data [15:0] $end
$var integer 32 N" init_i [31:0] $end
$upscope $end
$scope module u_wrom_k0 $end
$var wire 11 O" addr [10:0] $end
$var wire 1 1 clk $end
$var parameter 32 P" ADDR_WIDTH $end
$var parameter 32 Q" DEPTH $end
$var parameter 32 R" WEIGHT_WIDTH $end
$var reg 8 S" data [7:0] $end
$var integer 32 T" init_i [31:0] $end
$upscope $end
$scope module u_wrom_k1 $end
$var wire 11 U" addr [10:0] $end
$var wire 1 1 clk $end
$var parameter 32 V" ADDR_WIDTH $end
$var parameter 32 W" DEPTH $end
$var parameter 32 X" WEIGHT_WIDTH $end
$var reg 8 Y" data [7:0] $end
$var integer 32 Z" init_i [31:0] $end
$upscope $end
$scope module u_wrom_k2 $end
$var wire 11 [" addr [10:0] $end
$var wire 1 1 clk $end
$var parameter 32 \" ADDR_WIDTH $end
$var parameter 32 ]" DEPTH $end
$var parameter 32 ^" WEIGHT_WIDTH $end
$var reg 8 _" data [7:0] $end
$var integer 32 `" init_i [31:0] $end
$upscope $end
$scope begin conv1_store $end
$var reg 16 a" result [15:0] $end
$var reg 32 b" sum [31:0] $end
$upscope $end
$scope begin conv2_store $end
$var reg 16 c" result [15:0] $end
$var reg 32 d" sum [31:0] $end
$upscope $end
$upscope $end
$scope module u_generator $end
$var wire 1 I busy $end
$var wire 1 1 clk $end
$var wire 16 e" cond_in [15:0] $end
$var wire 1 6 cond_valid $end
$var wire 16 f" data_in [15:0] $end
$var wire 1 7 ready_out $end
$var wire 1 8 rst_n $end
$var wire 1 g" start $end
$var wire 1 6 valid_in $end
$var wire 11 h" weight_addr_k0 [10:0] $end
$var wire 8 i" weight_k2 [7:0] $end
$var wire 8 j" weight_k1 [7:0] $end
$var wire 8 k" weight_k0 [7:0] $end
$var wire 11 l" weight_addr_k2 [10:0] $end
$var wire 11 m" weight_addr_k1 [10:0] $end
$var wire 1 E ready_in $end
$var wire 24 n" mult_k2 [23:0] $end
$var wire 24 o" mult_k1 [23:0] $end
$var wire 24 p" mult_k0 [23:0] $end
$var wire 32 q" kernel_sum [31:0] $end
$var wire 1 H done $end
$var wire 16 r" bias_data [15:0] $end
$var parameter 32 s" ACC_WIDTH $end
$var parameter 32 t" BADDR_BNECK $end
$var parameter 32 u" BADDR_DEC1 $end
$var parameter 32 v" BADDR_ENC1 $end
$var parameter 32 w" BADDR_OUT $end
$var parameter 32 x" BNECK_OUT_CH $end
$var parameter 32 y" BNECK_OUT_LEN $end
$var parameter 32 z" DATA_WIDTH $end
$var parameter 32 {" DEC1_OUT_CH $end
$var parameter 32 |" DEC1_OUT_LEN $end
$var parameter 32 }" ENC1_OUT_CH $end
$var parameter 32 ~" ENC1_OUT_LEN $end
$var parameter 32 !# FRAME_LEN $end
$var parameter 32 "# IN_CH $end
$var parameter 32 ## OUT_CH $end
$var parameter 4 $# ST_BNECK $end
$var parameter 4 %# ST_DEC1 $end
$var parameter 4 &# ST_DONE $end
$var parameter 4 '# ST_ENC1 $end
$var parameter 4 (# ST_IDLE $end
$var parameter 4 )# ST_LOAD_IN $end
$var parameter 4 *# ST_OUTPUT $end
$var parameter 4 +# ST_OUT_CONV $end
$var parameter 4 ,# ST_SKIP_ADD $end
$var parameter 4 -# ST_TANH $end
$var parameter 4 .# ST_UPSAMPLE1 $end
$var parameter 4 /# ST_UPSAMPLE2 $end
$var parameter 32 0# UP1_LEN $end
$var parameter 32 1# WADDR_BNECK $end
$var parameter 32 2# WADDR_DEC1 $end
$var parameter 32 3# WADDR_ENC1 $end
$var parameter 32 4# WADDR_OUT $end
$var parameter 32 5# WEIGHT_WIDTH $end
$var reg 6 6# bias_addr [5:0] $end
$var reg 16 7# data_k0 [15:0] $end
$var reg 16 8# data_k1 [15:0] $end
$var reg 16 9# data_k2 [15:0] $end
$var reg 16 :# data_out [15:0] $end
$var reg 3 ;# in_ch_cnt [2:0] $end
$var reg 4 <# in_ch_iter [3:0] $end
$var reg 5 =# in_pos_cnt [4:0] $end
$var reg 4 ># next_state [3:0] $end
$var reg 4 ?# out_ch_cnt [3:0] $end
$var reg 5 @# out_pos_cnt [4:0] $end
$var reg 3 A# pipe_flush [2:0] $end
$var reg 1 B# pipe_s2_last_in_ch $end
$var reg 4 C# pipe_s2_out_ch [3:0] $end
$var reg 5 D# pipe_s2_out_pos [4:0] $end
$var reg 1 E# pipe_s2_valid $end
$var reg 32 F# pipe_s3_ksum [31:0] $end
$var reg 1 G# pipe_s3_last_in_ch $end
$var reg 4 H# pipe_s3_out_ch [3:0] $end
$var reg 5 I# pipe_s3_out_pos [4:0] $end
$var reg 1 J# pipe_s3_valid $end
$var reg 4 K# state [3:0] $end
$var reg 1 F valid_out $end
$var reg 11 L# weight_addr_base [10:0] $end
$var integer 32 M# i [31:0] $end
$var integer 32 N# j [31:0] $end
$scope module u_bias_rom $end
$var wire 6 O# addr [5:0] $end
$var wire 1 1 clk $end
$var parameter 32 P# ADDR_WIDTH $end
$var parameter 32 Q# DATA_WIDTH $end
$var parameter 32 R# DEPTH $end
$var reg 16 S# data [15:0] $end
$var integer 32 T# init_i [31:0] $end
$upscope $end
$scope module u_wrom_k0 $end
$var wire 11 U# addr [10:0] $end
$var wire 1 1 clk $end
$var parameter 32 V# ADDR_WIDTH $end
$var parameter 32 W# DEPTH $end
$var parameter 32 X# WEIGHT_WIDTH $end
$var reg 8 Y# data [7:0] $end
$var integer 32 Z# init_i [31:0] $end
$upscope $end
$scope module u_wrom_k1 $end
$var wire 11 [# addr [10:0] $end
$var wire 1 1 clk $end
$var parameter 32 \# ADDR_WIDTH $end
$var parameter 32 ]# DEPTH $end
$var parameter 32 ^# WEIGHT_WIDTH $end
$var reg 8 _# data [7:0] $end
$var integer 32 `# init_i [31:0] $end
$upscope $end
$scope module u_wrom_k2 $end
$var wire 11 a# addr [10:0] $end
$var wire 1 1 clk $end
$var parameter 32 b# ADDR_WIDTH $end
$var parameter 32 c# DEPTH $end
$var parameter 32 d# WEIGHT_WIDTH $end
$var reg 8 e# data [7:0] $end
$var integer 32 f# init_i [31:0] $end
$upscope $end
$scope begin bneck_store $end
$var reg 16 g# result [15:0] $end
$var reg 32 h# sum [31:0] $end
$upscope $end
$scope begin dec1_store $end
$var reg 16 i# result [15:0] $end
$var reg 32 j# sum [31:0] $end
$upscope $end
$scope begin enc1_store $end
$var reg 16 k# result [15:0] $end
$var reg 32 l# sum [31:0] $end
$upscope $end
$scope begin out_store $end
$var reg 32 m# sum [31:0] $end
$upscope $end
$scope begin skip_add_blk $end
$var reg 32 n# sum [31:0] $end
$upscope $end
$upscope $end
$upscope $end
$scope task calculate_mse $end
$var real 1 o# diff $end
$var integer 32 p# idx [31:0] $end
$var real 1 q# mse $end
$var real 1 r# sum_sq $end
$upscope $end
$scope task capture_output $end
$var integer 32 s# ch [31:0] $end
$var integer 32 t# pos [31:0] $end
$upscope $end
$scope task feed_clean_signal $end
$var integer 32 u# ch [31:0] $end
$var integer 32 v# pos [31:0] $end
$upscope $end
$scope task feed_degraded_signal $end
$var integer 32 w# ch [31:0] $end
$var integer 32 x# pos [31:0] $end
$upscope $end
$scope task generate_qam_signal $end
$var integer 32 y# idx [31:0] $end
$var integer 32 z# qam_i [31:0] $end
$var integer 32 {# qam_q [31:0] $end
$upscope $end
$scope task generate_random_signal $end
$var integer 32 |# idx [31:0] $end
$upscope $end
$scope task generate_sine_signal $end
$var integer 32 }# amplitude [31:0] $end
$var integer 32 ~# freq_mult [31:0] $end
$var integer 32 !$ idx [31:0] $end
$var real 1 "$ noise $end
$var real 1 #$ noise_level $end
$var real 1 $$ sine_val $end
$upscope $end
$scope task print_signal_comparison $end
$var integer 32 %$ idx [31:0] $end
$upscope $end
$scope task reset_dut $end
$upscope $end
$upscope $end
$enddefinitions $end
$comment Show the parameter values. $end
$dumpall
b1000 d#
b100000000000 c#
b1011 b#
b1000 ^#
b100000000000 ]#
b1011 \#
b1000 X#
b100000000000 W#
b1011 V#
b1000000 R#
b10000 Q#
b110 P#
b1000 5#
b11011000 4#
b0 3#
b1111000 2#
b11000 1#
b1000 0#
b111 /#
b100 .#
b1001 -#
b110 ,#
b1000 +#
b1010 *#
b1 )#
b0 (#
b10 '#
b1011 &#
b101 %#
b11 $#
b10 ##
b10 "#
b10000 !#
b1000 ~"
b100 }"
b1000 |"
b100 {"
b10000 z"
b100 y"
b1000 x"
b10000 w"
b0 v"
b1100 u"
b100 t"
b100000 s"
b1000 ^"
b100000000000 ]"
b1011 \"
b1000 X"
b100000000000 W"
b1011 V"
b1000 R"
b100000000000 Q"
b1011 P"
b1000000 L"
b10000 K"
b110 J"
b1000 ."
b1011100000 -"
b101100000 ,"
b100000000 +"
b101 *"
b111 )"
b10 ("
b1 '"
b0 &"
b1000 %"
b110 $"
b100 #"
b11 ""
b100 !"
b10000 ~
b10000 }
b100 |
b10000 {
b1000 z
b1000 y
b111000 x
b101000 w
b100000 v
b100000 u
b1000 X
b0 W
b1 V
b100 U
b11 T
b10 S
b10 R
b10000 Q
b10000 P
b100000 O
b1000 0
b10 /
b10000 .
b10000 -
b101 ,
b100000 +
$end
#0
$dumpvars
bx %$
r0 $$
r0 #$
r0 "$
bx !$
bx ~#
bx }#
bx |#
bx {#
bx z#
bx y#
bx x#
bx w#
bx v#
bx u#
bx t#
bx s#
r0 r#
r0 q#
bx p#
r0 o#
bx n#
bx m#
bx l#
bx k#
bx j#
bx i#
bx h#
bx g#
b100000000000 f#
bx e#
b10 a#
b100000000000 `#
bx _#
b1 [#
b100000000000 Z#
bx Y#
b0 U#
b1000000 T#
bx S#
b0 O#
b10010 N#
b10 M#
b0 L#
b0 K#
0J#
bx I#
bx H#
xG#
bx F#
0E#
bx D#
bx C#
xB#
b0 A#
b0 @#
b0 ?#
b0 >#
b0 =#
b0 <#
b0 ;#
b0 :#
b0 9#
b0 8#
b0 7#
b0 6#
bx r"
bx q"
bx p"
bx o"
bx n"
b1 m"
b10 l"
bx k"
bx j"
bx i"
b0 h"
0g"
b0 f"
b0 e"
bx d"
bx c"
bx b"
bx a"
b100000000000 `"
bx _"
b10 ["
b100000000000 Z"
bx Y"
b1 U"
b100000000000 T"
bx S"
b0 O"
b1000000 N"
bx M"
b0 I"
b10010 H"
b100 G"
b0 F"
b0 E"
b0 D"
0C"
bx B"
bx A"
x@"
bx ?"
0>"
bx ="
bx <"
x;"
b0 :"
b0 9"
b0 8"
b0 7"
b0 6"
b0 5"
b0 4"
b0 3"
b0 2"
b0 1"
b0 0"
b0 /"
bx t
bx s
bx r
bx q
bx p
b1 o
b10 n
bx m
bx l
bx k
b0 j
0i
b0 h
b0 g
b10000 f
b10 e
b0 d
0c
b0 b
0a
b0 `
b0 _
0^
b0 ]
0\
b0 [
b0 Z
0Y
0N
0M
0L
b0 K
0J
0I
0H
b0 G
0F
0E
b0 D
b0 C
b0 B
b0 A
b0 @
b1 ?
bx >
b0 =
bx <
bx ;
b101001001100101011100110110010101110100001000000110000101101110011001000010000001001001011001000110110001100101 :
09
08
07
06
b0 5
04
b0 3
02
01
0*
b0 )
0(
b0 '
0&
0%
0$
0#
b0 "
0!
$end
#2000
b0 q"
b0 s
b0 p"
b100000 k"
b100000 Y#
b0 o"
b1000000 j"
b1000000 _#
b0 n"
b100000 i"
b100000 e#
b10000 r"
b10000 S#
b0 r
b100000 m
b100000 S"
b0 q
b1000000 l
b1000000 Y"
b0 p
b100000 k
b100000 _"
b10000 t
b10000 M"
b10000 f
b10 e
b100 H"
b10000 G"
b10000 N#
b10 M#
11
#4000
01
#6000
b10010 N#
b10 M#
b10010 H"
b100 G"
b10000 f
b10 e
11
#8000
01
#10000
b10000 f
b10 e
b100 H"
b10000 G"
b10000 N#
b10 M#
11
#12000
01
#14000
b10010 N#
b10 M#
b10010 H"
b100 G"
b10000 f
b10 e
11
#16000
01
#18000
b10000 f
b10 e
b100 H"
b10000 G"
b10000 N#
b10 M#
11
#20000
01
#22000
b10010 N#
b10 M#
b10010 H"
b100 G"
b10000 f
b10 e
11
#24000
01
#26000
b10000 f
b10 e
b100 H"
b10000 G"
b10000 N#
b10 M#
11
#28000
01
#30000
b10010 N#
b10 M#
b10010 H"
b100 G"
b10000 f
b10 e
11
#32000
01
#34000
b10000 f
b10 e
b100 H"
b10000 G"
b10000 N#
b10 M#
11
#36000
01
#38000
18
b10010 N#
b10 M#
b10010 H"
b100 G"
b10000 f
b10 e
11
#40000
01
#42000
b10000 G"
b10000 M#
11
#44000
01
#46000
b10000 M#
b10000 G"
11
#48000
01
#50000
b10000 G"
b10000 M#
11
#52000
01
#54000
b10000 M#
b10000 G"
11
#56000
01
#58000
b10010 N#
b10010 H"
b10000 f
b10 e
08
b100 G"
b10 M#
b1000111011001010110111001100101011100100110000101110100011011110111001000100000010010010110111001100110011001010111001001100101011011100110001101100101001000000010110100100000010100110110100101101110011001010010000001010111011000010111011001100101 :
b10 ?
11
#60000
01
#62000
b10000 f
b10 e
b100 H"
b10000 G"
b10000 N#
b10 M#
11
#64000
01
#66000
b10010 N#
b10 M#
b10010 H"
b100 G"
b10000 f
b10 e
11
#68000
01
#70000
b10000 f
b10 e
b100 H"
b10000 G"
b10000 N#
b10 M#
11
#72000
01
#74000
b10010 N#
b10 M#
b10010 H"
b100 G"
b10000 f
b10 e
11
#76000
01
#78000
b10000 f
b10 e
b100 H"
b10000 G"
b10000 N#
b10 M#
11
#80000
01
#82000
b10010 N#
b10 M#
b10010 H"
b100 G"
b10000 f
b10 e
11
#84000
01
#86000
b10000 f
b10 e
b100 H"
b10000 G"
b10000 N#
b10 M#
11
#88000
01
#90000
b10010 N#
b10 M#
b10010 H"
b100 G"
b10000 f
b10 e
11
#92000
01
#94000
b10000 f
b10 e
b100 H"
b10000 G"
b10000 N#
b10 M#
11
#96000
01
#98000
18
b10010 N#
b10 M#
b10010 H"
b100 G"
b10000 f
b10 e
11
#100000
01
#102000
b10000 G"
b10000 M#
11
#104000
01
#106000
b10000 M#
b10000 G"
11
#108000
01
#110000
b10000 G"
b10000 M#
11
#112000
01
#114000
b10000 M#
b10000 G"
11
#116000
01
#118000
b10000 G"
b10000 M#
r-70.71138175440532 $$
r-18.6 "$
b10000 !$
r0.1 #$
b10 ~#
b1100100 }#
11
#120000
01
#122000
b1 >#
1g"
b1 _
19
b10000 M#
b10000 G"
11
#124000
01
#126000
1*
1I
0g"
b1 d
1#
1E
b1 K#
17
09
b10000 G"
b10010 N#
b10000 M#
b0 x#
b0 w#
b0 t#
b0 s#
b1111110 <
11
#128000
01
#130000
b1111111111110111 5
b1111111111110111 C
b1111111111110111 e"
b1111111111110111 f"
16
b10000 M#
b10000 G"
11
#132000
01
#134000
b1 Z
b1 =#
b10000 G"
b10000 M#
b1 x#
11
#136000
01
#138000
b10 =#
b10 Z
b101101 5
b101101 C
b101101 e"
b101101 f"
b10000 M#
b10000 G"
11
#140000
01
#142000
b11 Z
b11 =#
b10000 G"
b10000 M#
b10 x#
11
#144000
01
#146000
b100 =#
b100 Z
b111110 5
b111110 C
b111110 e"
b111110 f"
b10000 M#
b10000 G"
11
#148000
01
#150000
b101 Z
b101 =#
b10000 G"
b10000 M#
b11 x#
11
#152000
01
#154000
b110 =#
b110 Z
b101010 5
b101010 C
b101010 e"
b101010 f"
b10000 M#
b10000 G"
11
#156000
01
#158000
b111 Z
b111 =#
b10000 G"
b10000 M#
b100 x#
11
#160000
01
#162000
b1000 =#
b1000 Z
b1111111111110101 5
b1111111111110101 C
b1111111111110101 e"
b1111111111110101 f"
b10000 M#
b10000 G"
11
#164000
01
#166000
b1001 Z
b1001 =#
b10000 G"
b10000 M#
b101 x#
11
#168000
01
#170000
b1010 =#
b1010 Z
b1111111110111011 5
b1111111110111011 C
b1111111110111011 e"
b1111111110111011 f"
b10000 M#
b10000 G"
11
#172000
01
#174000
b1011 Z
b1011 =#
b10000 G"
b10000 M#
b110 x#
11
#176000
01
#178000
b1100 =#
b1100 Z
b1111111110000001 5
b1111111110000001 C
b1111111110000001 e"
b1111111110000001 f"
b10000 M#
b10000 G"
11
#180000
01
#182000
b1101 Z
b1101 =#
b10000 G"
b10000 M#
b111 x#
11
#184000
01
#186000
b1110 =#
b1110 Z
b1111111110010110 5
b1111111110010110 C
b1111111110010110 e"
b1111111110010110 f"
b10000 M#
b10000 G"
11
#188000
01
#190000
b1111 Z
b1111 =#
b10000 G"
b10000 M#
b1000 x#
11
#192000
01
#194000
b1 ;#
b0 =#
1Y
b0 Z
b1111111111110100 5
b1111111111110100 C
b1111111111110100 e"
b1111111111110100 f"
b10000 M#
b10000 G"
11
#196000
01
#198000
b1 Z
b1 =#
b10000 G"
b10000 M#
b1001 x#
11
#200000
01
#202000
b10 =#
b10 Z
b111011 5
b111011 C
b111011 e"
b111011 f"
b10000 M#
b10000 G"
11
#204000
01
#206000
b11 Z
b11 =#
b10000 G"
b10000 M#
b1010 x#
11
#208000
01
#210000
b100 =#
b100 Z
b1100010 5
b1100010 C
b1100010 e"
b1100010 f"
b10000 M#
b10000 G"
11
#212000
01
#214000
b101 Z
b101 =#
b10000 G"
b10000 M#
b1011 x#
11
#216000
01
#218000
b110 =#
b110 Z
b1000000 5
b1000000 C
b1000000 e"
b1000000 f"
b10000 M#
b10000 G"
11
#220000
01
#222000
b111 Z
b111 =#
b10000 G"
b10000 M#
b1100 x#
11
#224000
01
#226000
b1000 =#
b1000 Z
b1010 5
b1010 C
b1010 e"
b1010 f"
b10000 M#
b10000 G"
11
#228000
01
#230000
b1001 Z
b1001 =#
b10000 G"
b10000 M#
b1101 x#
11
#232000
01
#234000
b1010 =#
b1010 Z
b1111111110111011 5
b1111111110111011 C
b1111111110111011 e"
b1111111110111011 f"
b10000 M#
b10000 G"
11
#236000
01
#238000
b1011 Z
b1011 =#
b10000 G"
b10000 M#
b1110 x#
11
#240000
01
#242000
b1100 =#
b1100 Z
b1111111110101001 5
b1111111110101001 C
b1111111110101001 e"
b1111111110101001 f"
b10000 M#
b10000 G"
11
#244000
01
#246000
b1101 Z
b1101 =#
b10000 G"
b10000 M#
b1111 x#
11
#248000
01
#250000
b1110 =#
b1110 Z
b1111111110101000 5
b1111111110101000 C
b1111111110101000 e"
b1111111110101000 f"
b10000 M#
b10000 G"
11
#252000
01
#254000
b10 >#
b1111 Z
b1111 =#
b10000 G"
b10000 M#
b1 w#
b0 x#
11
#256000
01
#258000
0#
0E
b10 K#
b10 ;#
b0 =#
0Y
b0 Z
b1011011 5
b1011011 C
b1011011 e"
b1011011 f"
b10000 M#
b10000 G"
11
#260000
01
#262000
b11111111111111111111111111111000 q"
b1 <#
b0 F#
0B#
b0 D#
b0 C#
1E#
b111111111111111011100000 n"
b1111111111110111 9#
b111111111111110111000000 o"
b1111111111110111 8#
b10000 G"
b1 x#
11
#264000
01
#266000
b11111111111111111111111111110111 q"
b1 @#
b0 <#
b11111111111111111111111111111000 F#
0G#
b0 I#
b0 H#
1J#
1B#
b111111111111111010000000 n"
b1111111111110100 9#
b111111111111110100000000 o"
b1111111111110100 8#
b100 m"
b100 [#
b101 l"
b101 a#
b11 h"
b11 U#
b11 L#
b10000 G"
11
#268000
01
#270000
b11111 q"
b1 <#
b11111111111111111111111111110111 F#
1G#
0B#
b1 D#
b101101 9#
b101101 8#
b111111111111111100101000 p"
b1111111111110111 7#
b1 m"
b1 [#
b10 l"
b10 a#
b0 h"
b0 U#
b0 L#
b10000111000 n"
b11000 i"
b11000 e#
b110010101000 o"
b1001000 j"
b1001000 _#
b11000 k"
b11000 Y#
b10000 G"
11
#272000
01
#274000
b101000 q"
b10 @#
b0 <#
b11111 F#
0G#
b1 I#
1B#
b111011 9#
b111011 8#
b1111111111110100 7#
b100 m"
b100 [#
b101 l"
b101 a#
b11 h"
b11 U#
b11 L#
b111111111111111010000000 p"
b100000 k"
b100000 Y#
b111011000000 o"
b1000000 j"
b1000000 _#
b11101100000 n"
b100000 i"
b100000 e#
b1111111111111110 k#
b11111111111111111111111111111111 l#
b10000 G"
11
#276000
01
#278000
b110101 q"
b1 <#
b101000 F#
1G#
0B#
b10 D#
b111110 9#
b111110 8#
b101101 7#
b1 m"
b1 [#
b10 l"
b10 a#
b0 h"
b0 U#
b0 L#
b10111010000 n"
b11000 i"
b11000 e#
b1000101110000 o"
b1001000 j"
b1001000 _#
b10000111000 p"
b11000 k"
b11000 Y#
b10000 G"
11
#280000
01
#282000
b1010111 q"
b11 @#
b0 <#
b110101 F#
0G#
b10 I#
1B#
b1100010 9#
b1100010 8#
b111011 7#
b100 m"
b100 [#
b101 l"
b101 a#
b11 h"
b11 U#
b11 L#
b11101100000 p"
b100000 k"
b100000 Y#
b1100010000000 o"
b1000000 j"
b1000000 _#
b110001000000 n"
b100000 i"
b100000 e#
b1010111 k#
b1010111 l#
b10000 G"
11
#284000
01
#286000
b101001 q"
b1 <#
b1010111 F#
1G#
0B#
b11 D#
b101010 9#
b101010 8#
b111110 7#
b1 m"
b1 [#
b10 l"
b10 a#
b0 h"
b0 U#
b0 L#
b1111110000 n"
b11000 i"
b11000 e#
b101111010000 o"
b1001000 j"
b1001000 _#
b10111010000 p"
b11000 k"
b11000 Y#
b10000 G"
11
#288000
01
#290000
b1001000 q"
b100 @#
b0 <#
b101001 F#
0G#
b11 I#
1B#
b1000000 9#
b1000000 8#
b1100010 7#
b100 m"
b100 [#
b101 l"
b101 a#
b11 h"
b11 U#
b11 L#
b110001000000 p"
b100000 k"
b100000 Y#
b1000000000000 o"
b1000000 j"
b1000000 _#
b100000000000 n"
b100000 i"
b100000 e#
b10011100 k#
b10011100 l#
b10000 G"
11
#292000
01
#294000
b11111111111111111111111111111101 q"
b1 <#
b1001000 F#
1G#
0B#
b100 D#
b1111111111110101 9#
b1111111111110101 8#
b101010 7#
b1 m"
b1 [#
b10 l"
b10 a#
b0 h"
b0 U#
b0 L#
b111111111111111011111000 n"
b11000 i"
b11000 e#
b111111111111110011101000 o"
b1001000 j"
b1001000 _#
b1111110000 p"
b11000 k"
b11000 Y#
b10000 G"
11
#296000
01
#298000
b10111 q"
b101 @#
b0 <#
b11111111111111111111111111111101 F#
0G#
b100 I#
1B#
b1010 9#
b1010 8#
b1000000 7#
b100 m"
b100 [#
b101 l"
b101 a#
b11 h"
b11 U#
b11 L#
b100000000000 p"
b100000 k"
b100000 Y#
b1010000000 o"
b1000000 j"
b1000000 _#
b101000000 n"
b100000 i"
b100000 e#
b10000001 k#
b10000001 l#
b10000 G"
11
#300000
01
#302000
b11111111111111111111111111001001 q"
b1 <#
b10111 F#
1G#
0B#
b101 D#
b1111111110111011 9#
b1111111110111011 8#
b1111111111110101 7#
b1 m"
b1 [#
b10 l"
b10 a#
b0 h"
b0 U#
b0 L#
b111111111111100110001000 n"
b11000 i"
b11000 e#
b111111111110110010011000 o"
b1001000 j"
b1001000 _#
b111111111111111011111000 p"
b11000 k"
b11000 Y#
b10000 G"
11
#304000
01
