rtl/tb_generator_mini.vcd
$date
	Tue Dec 16 18:24:39 2025
$end
$version
	Icarus Verilog
$end
$timescale
	1ps
$end
$scope module tb_generator_mini $end
$var wire 1 ! valid_out $end
$var wire 1 " ready_in $end
$var wire 1 # done $end
$var wire 16 $ data_out [15:0] $end
$var wire 1 % busy $end
$var parameter 32 & ACC_WIDTH $end
$var parameter 32 ' CLK_PERIOD $end
$var parameter 32 ( DATA_WIDTH $end
$var parameter 32 ) FRAME_LEN $end
$var parameter 32 * IN_CH $end
$var parameter 32 + OUT_CH $end
$var parameter 32 , TIMEOUT $end
$var parameter 32 - WEIGHT_WIDTH $end
$var reg 1 . clk $end
$var reg 16 / cond_in [15:0] $end
$var reg 1 0 cond_valid $end
$var reg 16 1 data_in [15:0] $end
$var reg 1 2 input_timeout $end
$var reg 4 3 prev_state [3:0] $end
$var reg 1 4 ready_out $end
$var reg 1 5 rst_n $end
$var reg 1 6 start $end
$var reg 128 7 state_name [127:0] $end
$var reg 1 8 valid_in $end
$var integer 32 9 cycle_count [31:0] $end
$var integer 32 : error_count [31:0] $end
$var integer 32 ; i [31:0] $end
$var integer 32 < in_idx [31:0] $end
$var integer 32 = out_idx [31:0] $end
$var integer 32 > start_cycle [31:0] $end
$var integer 32 ? test_num [31:0] $end
$var integer 32 @ total_cycles [31:0] $end
$var integer 32 A total_errors [31:0] $end
$var integer 32 B total_tests [31:0] $end
$scope function get_state_str $end
$var reg 4 C st [3:0] $end
$upscope $end
$scope module dut $end
$var wire 1 % busy $end
$var wire 1 . clk $end
$var wire 16 D cond_in [15:0] $end
$var wire 1 0 cond_valid $end
$var wire 16 E data_in [15:0] $end
$var wire 1 4 ready_out $end
$var wire 1 5 rst_n $end
$var wire 1 6 start $end
$var wire 1 8 valid_in $end
$var wire 11 F weight_addr_k0 [10:0] $end
$var wire 8 G weight_k2 [7:0] $end
$var wire 8 H weight_k1 [7:0] $end
$var wire 8 I weight_k0 [7:0] $end
$var wire 11 J weight_addr_k2 [10:0] $end
$var wire 11 K weight_addr_k1 [10:0] $end
$var wire 1 " ready_in $end
$var wire 24 L mult_k2 [23:0] $end
$var wire 24 M mult_k1 [23:0] $end
$var wire 24 N mult_k0 [23:0] $end
$var wire 32 O kernel_sum [31:0] $end
$var wire 1 # done $end
$var wire 16 P bias_data [15:0] $end
$var parameter 32 Q ACC_WIDTH $end
$var parameter 32 R BADDR_BNECK $end
$var parameter 32 S BADDR_DEC1 $end
$var parameter 32 T BADDR_ENC1 $end
$var parameter 32 U BADDR_OUT $end
$var parameter 32 V BNECK_OUT_CH $end
$var parameter 32 W BNECK_OUT_LEN $end
$var parameter 32 X DATA_WIDTH $end
$var parameter 32 Y DEC1_OUT_CH $end
$var parameter 32 Z DEC1_OUT_LEN $end
$var parameter 32 [ ENC1_OUT_CH $end
$var parameter 32 \ ENC1_OUT_LEN $end
$var parameter 32 ] FRAME_LEN $end
$var parameter 32 ^ IN_CH $end
$var parameter 32 _ OUT_CH $end
$var parameter 4 ` ST_BNECK $end
$var parameter 4 a ST_DEC1 $end
$var parameter 4 b ST_DONE $end
$var parameter 4 c ST_ENC1 $end
$var parameter 4 d ST_IDLE $end
$var parameter 4 e ST_LOAD_IN $end
$var parameter 4 f ST_OUTPUT $end
$var parameter 4 g ST_OUT_CONV $end
$var parameter 4 h ST_SKIP_ADD $end
$var parameter 4 i ST_TANH $end
$var parameter 4 j ST_UPSAMPLE1 $end
$var parameter 4 k ST_UPSAMPLE2 $end
$var parameter 32 l UP1_LEN $end
$var parameter 32 m WADDR_BNECK $end
$var parameter 32 n WADDR_DEC1 $end
$var parameter 32 o WADDR_ENC1 $end
$var parameter 32 p WADDR_OUT $end
$var parameter 32 q WEIGHT_WIDTH $end
$var reg 6 r bias_addr [5:0] $end
$var reg 16 s data_k0 [15:0] $end
$var reg 16 t data_k1 [15:0] $end
$var reg 16 u data_k2 [15:0] $end
$var reg 16 v data_out [15:0] $end
$var reg 3 w in_ch_cnt [2:0] $end
$var reg 4 x in_ch_iter [3:0] $end
$var reg 5 y in_pos_cnt [4:0] $end
$var reg 4 z next_state [3:0] $end
$var reg 4 { out_ch_cnt [3:0] $end
$var reg 5 | out_pos_cnt [4:0] $end
$var reg 3 } pipe_flush [2:0] $end
$var reg 1 ~ pipe_s2_last_in_ch $end
$var reg 4 !" pipe_s2_out_ch [3:0] $end
$var reg 5 "" pipe_s2_out_pos [4:0] $end
$var reg 1 #" pipe_s2_valid $end
$var reg 32 $" pipe_s3_ksum [31:0] $end
$var reg 1 %" pipe_s3_last_in_ch $end
$var reg 4 &" pipe_s3_out_ch [3:0] $end
$var reg 5 '" pipe_s3_out_pos [4:0] $end
$var reg 1 (" pipe_s3_valid $end
$var reg 4 )" state [3:0] $end
$var reg 1 ! valid_out $end
$var reg 11 *" weight_addr_base [10:0] $end
$var integer 32 +" i [31:0] $end
$var integer 32 ," j [31:0] $end
$scope module u_bias_rom $end
$var wire 6 -" addr [5:0] $end
$var wire 1 . clk $end
$var parameter 32 ." ADDR_WIDTH $end
$var parameter 32 /" DATA_WIDTH $end
$var parameter 32 0" DEPTH $end
$var reg 16 1" data [15:0] $end
$var integer 32 2" init_i [31:0] $end
$upscope $end
$scope module u_wrom_k0 $end
$var wire 11 3" addr [10:0] $end
$var wire 1 . clk $end
$var parameter 32 4" ADDR_WIDTH $end
$var parameter 32 5" DEPTH $end
$var parameter 32 6" WEIGHT_WIDTH $end
$var reg 8 7" data [7:0] $end
$var integer 32 8" init_i [31:0] $end
$upscope $end
$scope module u_wrom_k1 $end
$var wire 11 9" addr [10:0] $end
$var wire 1 . clk $end
$var parameter 32 :" ADDR_WIDTH $end
$var parameter 32 ;" DEPTH $end
$var parameter 32 <" WEIGHT_WIDTH $end
$var reg 8 =" data [7:0] $end
$var integer 32 >" init_i [31:0] $end
$upscope $end
$scope module u_wrom_k2 $end
$var wire 11 ?" addr [10:0] $end
$var wire 1 . clk $end
$var parameter 32 @" ADDR_WIDTH $end
$var parameter 32 A" DEPTH $end
$var parameter 32 B" WEIGHT_WIDTH $end
$var reg 8 C" data [7:0] $end
$var integer 32 D" init_i [31:0] $end
$upscope $end
$scope begin bneck_store $end
$var reg 16 E" result [15:0] $end
$var reg 32 F" sum [31:0] $end
$upscope $end
$scope begin dec1_store $end
$var reg 16 G" result [15:0] $end
$var reg 32 H" sum [31:0] $end
$upscope $end
$scope begin enc1_store $end
$var reg 16 I" result [15:0] $end
$var reg 32 J" sum [31:0] $end
$upscope $end
$scope begin out_store $end
$var reg 32 K" sum [31:0] $end
$upscope $end
$scope begin skip_add_blk $end
$var reg 32 L" sum [31:0] $end
$upscope $end
$upscope $end
$scope task run_test $end
$var integer 32 M" test_id [31:0] $end
$upscope $end
$upscope $end
$enddefinitions $end
$comment Show the parameter values. $end
$dumpall
b1000 B"
b100000000000 A"
b1011 @"
b1000 <"
b100000000000 ;"
b1011 :"
b1000 6"
b100000000000 5"
b1011 4"
b1000000 0"
b10000 /"
b110 ."
b1000 q
b11011000 p
b0 o
b1111000 n
b11000 m
b1000 l
b111 k
b100 j
b1001 i
b110 h
b1000 g
b1010 f
b1 e
b0 d
b10 c
b1011 b
b101 a
b11 `
b10 _
b10 ^
b10000 ]
b1000 \
b100 [
b1000 Z
b100 Y
b10000 X
b100 W
b1000 V
b10000 U
b0 T
b1100 S
b100 R
b100000 Q
b1000 -
b11000011010100000 ,
b10 +
b10 *
b10000 )
b10000 (
b1010 '
b100000 &
$end
#0
$dumpvars
bx M"
bx L"
bx K"
bx J"
bx I"
bx H"
bx G"
bx F"
bx E"
b100000000000 D"
bx C"
b10 ?"
b100000000000 >"
bx ="
b1 9"
b100000000000 8"
bx 7"
b0 3"
b1000000 2"
bx 1"
b0 -"
b10010 ,"
b10 +"
b0 *"
b0 )"
0("
bx '"
bx &"
x%"
bx $"
0#"
bx ""
bx !"
x~
b0 }
b0 |
b0 {
b0 z
b0 y
b0 x
b0 w
b0 v
b0 u
b0 t
b0 s
b0 r
bx P
bx O
bx N
bx M
bx L
b1 K
b10 J
bx I
bx H
bx G
b0 F
b0 E
b0 D
bx C
b0 B
b0 A
bx @
bx ?
bx >
bx =
bx <
bx ;
bx :
b0 9
08
b1001001010001000100110001000101 7
06
05
14
bx 3
x2
b0 1
00
b0 /
0.
0%
b0 $
0#
0"
0!
$end
#5000
b0 O
b0 N
b100000 I
b100000 7"
b0 M
b1000000 H
b1000000 ="
b0 L
b100000 G
b100000 C"
b10000 P
b10000 1"
b0 3
b10000 ,"
b10 +"
1.
#10000
0.
#15000
b10010 ,"
b10 +"
1.
#20000
0.
#25000
b10000 ,"
b10 +"
1.
#30000
0.
#35000
b10010 ,"
b10 +"
1.
#40000
0.
#45000
b10000 ,"
b10 +"
1.
#50000
0.
#55000
b10010 ,"
b10 +"
1.
#60000
0.
#65000
b10000 ,"
b10 +"
1.
#70000
0.
#75000
b10010 ,"
b10 +"
1.
#80000
0.
#85000
b10000 ,"
b10 +"
1.
#90000
0.
#95000
15
b10010 ,"
b10 +"
1.
#100000
0.
#105000
b1 9
b10000 +"
1.
#110000
0.
#115000
b10 9
b10000 +"
1.
#120000
0.
#125000
b11 9
b10000 +"
1.
#130000
0.
#135000
b100 9
b10000 +"
1.
#140000
0.
#145000
b101 9
02
b0 =
b0 <
b0 :
b1 B
b1 ?
b1 M"
b100000 ;
b10000 +"
1.
#150000
0.
#155000
b110 9
b10000 +"
1.
#160000
0.
#165000
b111 9
b10000 +"
1.
#170000
0.
#175000
b1000 9
b1 z
b111 >
16
b10000 +"
1.
#180000
0.
#185000
1%
b1001100010011110100000101000100010111110100100101001110 7
b1001 9
1"
b1 )"
b1 z
06
b10010 ,"
b10000 +"
1.
#190000
0.
#195000
b1 3
b1010 9
b1 C
b1 <
10
18
b10000 +"
1.
#200000
0.
#205000
b1011 9
b1 y
b10 <
b10000 +"
1.
#210000
0.
#215000
b10 y
b1100 9
b11 <
b10000 +"
1.
#220000
0.
#225000
b1101 9
b11 y
b100 <
b10000 +"
1.
#230000
0.
#235000
b100 y
b1110 9
b101 <
b10000 +"
1.
#240000
0.
#245000
b1111 9
b101 y
b110 <
b10000 +"
1.
#250000
0.
#255000
b110 y
b10000 9
b111 <
b10000 +"
1.
#260000
0.
#265000
b10001 9
b111 y
b1000 <
b10000 +"
1.
#270000
0.
#275000
b1000 y
b10010 9
b1001 <
b10000 +"
1.
#280000
0.
#285000
b10011 9
b1001 y
b1010 <
b10000 +"
1.
#290000
0.
#295000
b1010 y
b10100 9
b1011 <
b10000 +"
1.
#300000
0.
#305000
b10101 9
b1011 y
b1100 <
b10000 +"
1.
#310000
0.
#315000
b1100 y
b10110 9
b1101 <
b10000 +"
1.
#320000
0.
#325000
b10111 9
b1101 y
b1110 <
b10000 +"
1.
#330000
0.
#335000
b1110 y
b11000 9
b1111 <
b10000 +"
1.
#340000
0.
#345000
b11001 9
b1111 y
b10000 <
b10000 +"
1.
#350000
0.
#355000
b1 w
b0 y
b11010 9
b10001 <
b10000 +"
1.
#360000
0.
#365000
b11011 9
b1 y
b10010 <
b10000 +"
1.
#370000
0.
#375000
b10 y
b11100 9
b10011 <
b10000 +"
1.
#380000
0.
#385000
b11101 9
b11 y
b10100 <
b10000 +"
1.
#390000
0.
#395000
b100 y
b11110 9
b10101 <
b10000 +"
1.
#400000
0.
#405000
b11111 9
b101 y
b10110 <
b10000 +"
1.
#410000
0.
#415000
b110 y
b100000 9
b10111 <
b10000 +"
1.
#420000
0.
#425000
b100001 9
b111 y
b11000 <
b10000 +"
1.
#430000
0.
#435000
b1000 y
b100010 9
b11001 <
b10000 +"
1.
#440000
0.
#445000
b100011 9
b1001 y
b11010 <
b10000 +"
1.
#450000
0.
#455000
b1010 y
b100100 9
b11011 <
b10000 +"
1.
#460000
0.
#465000
b100101 9
b1011 y
b11100 <
b10000 +"
1.
#470000
0.
#475000
b1100 y
b100110 9
b11101 <
b10000 +"
1.
#480000
0.
#485000
b100111 9
b1101 y
b11110 <
b10000 +"
1.
#490000
0.
#495000
b1110 y
b101000 9
b11111 <
b10000 +"
1.
#500000
0.
#505000
b10 z
b101001 9
b1111 y
b100000 <
b10000 +"
1.
#510000
0.
#515000
b1000101010011100100001100110001 7
0"
b10 )"
b10 w
b0 y
b101010 9
b10 z
00
08
b10000 +"
1.
#520000
0.
#525000
b10 3
b101011 9
b1 x
b0 $"
0~
b0 ""
b0 !"
1#"
b10 C
1.
#530000
0.
#535000
b1 |
b0 x
0%"
b0 '"
b0 &"
1("
1~
b100 K
b100 9"
b101 J
b101 ?"
b11 F
b11 3"
b11 *"
b101100 9
1.
#540000
0.
#545000
b11000 I
b11000 7"
b1001000 H
b1001000 ="
b11000 G
b11000 C"
b101101 9
b1 x
1%"
0~
b1 ""
b1 K
b1 9"
b10 J
b10 ?"
b0 F
b0 3"
b0 *"
1.
#550000
0.
#555000
b100000 G
b100000 C"
b1000000 H
b1000000 ="
b100000 I
b100000 7"
b10 |
b0 x
0%"
b1 '"
1~
b100 K
b100 9"
b101 J
b101 ?"
b11 F
b11 3"
b11 *"
b101110 9
b10000 I"
b10000 J"
1.
#560000
0.
#565000
b11000 I
b11000 7"
b1001000 H
b1001000 ="
b11000 G
b11000 C"
b101111 9
b1 x
1%"
0~
b10 ""
b1 K
b1 9"
b10 J
b10 ?"
b0 F
b0 3"
b0 *"
1.
#570000
0.
#575000
b100000 G
b100000 C"
b1000000 H
b1000000 ="
b100000 I
b100000 7"
b11 |
b0 x
0%"
b10 '"
1~
b100 K
b100 9"
b101 J
b101 ?"
b11 F
b11 3"
b11 *"
b110000 9
1.
#580000
0.
#585000
b11000 I
b11000 7"
b1001000 H
b1001000 ="
b11000 G
b11000 C"
b110001 9
b1 x
1%"
0~
b11 ""
b1 K
b1 9"
b10 J
b10 ?"
b0 F
b0 3"
b0 *"
1.
#590000
0.
#595000
b100000 G
b100000 C"
b1000000 H
b1000000 ="
b100000 I
b100000 7"
b100 |
b0 x
0%"
b11 '"
1~
b100 K
b100 9"
b101 J
b101 ?"
b11 F
b11 3"
b11 *"
b110010 9
1.
#600000
0.
#605000
b11000 I
b11000 7"
b1001000 H
b1001000 ="
b11000 G
b11000 C"
b110011 9
b1 x
1%"
0~
b100 ""
b1 K
b1 9"
b10 J
b10 ?"
b0 F
b0 3"
b0 *"
1.
#610000
0.
#615000
b100000 G
b100000 C"
b1000000 H
b1000000 ="
b100000 I
b100000 7"
b101 |
b0 x
0%"
b100 '"
1~
b100 K
b100 9"
b101 J
b101 ?"
b11 F
b11 3"
b11 *"
b110100 9
1.
#620000
0.
#625000
b11000 I
b11000 7"
b1001000 H
b1001000 ="
b11000 G
b11000 C"
b110101 9
b1 x
1%"
0~
b101 ""
b1 K
b1 9"
b10 J
b10 ?"
b0 F
b0 3"
b0 *"
1.
#630000
0.
#635000
b100000 G
b100000 C"
b1000000 H
b1000000 ="
b100000 I
b100000 7"
b110 |
b0 x
0%"
b101 '"
1~
b100 K
b100 9"
b101 J
b101 ?"
b11 F
b11 3"
b11 *"
b110110 9
1.
#640000
0.
#645000
b11000 I
b11000 7"
b1001000 H
b1001000 ="
b11000 G
b11000 C"
b110111 9
b1 x
1%"
0~
b110 ""
b1 K
b1 9"
b10 J
b10 ?"
b0 F
b0 3"
b0 *"
1.
#650000
0.
#655000
b100000 G
b100000 C"
b1000000 H
b1000000 ="
b100000 I
b100000 7"
b111 |
b0 x
0%"
b110 '"
1~
b100 K
b100 9"
b101 J
b101 ?"
b11 F
b11 3"
b11 *"
b111000 9
1.
#660000
0.
#665000
b11000 I
b11000 7"
b1001000 H
b1001000 ="
b11000 G
b11000 C"
b111001 9
b1 x
1%"
0~
b111 ""
b1 K
b1 9"
b10 J
b10 ?"
b0 F
b0 3"
b0 *"
1.
#670000
0.
#675000
b100000 G
b100000 C"
b1000000 H
b1000000 ="
b100000 I
b100000 7"
b1 {
b0 |
b0 x
0%"
b111 '"
1~
b100 K
b100 9"
b101 J
b101 ?"
b11 F
b11 3"
b11 *"
b111010 9
1.
#680000
0.
#685000
b11000 I
b11000 7"
b1001000 H
b1001000 ="
b11000 G
b11000 C"
b111011 9
b1 x
1%"
0~
b0 ""
b1 !"
b1 r
b1 -"
b111 K
b111 9"
b1000 J
b1000 ?"
b110 F
b110 3"
b110 *"
1.
#690000
0.
#695000
b1111111111110000 P
b1111111111110000 1"
b110000 G
b110000 C"
b111000 H
b111000 ="
b110000 I
b110000 7"
b1 |
b0 x
0%"
b0 '"
b1 &"
1~
b1010 K
b1010 9"
b1011 J
b1011 ?"
b1001 F
b1001 3"
b1001 *"
b111100 9
1.
#700000
0.
#705000
b101000 I
b101000 7"
b1010000 H
b1010000 ="
b101000 G
b101000 C"
b111101 9
b1 x
1%"
0~
b1 ""
b111 K
b111 9"
b1000 J
b1000 ?"
b110 F
b110 3"
b110 *"
1.
#710000
0.
#715000
b110000 G
b110000 C"
b111000 H
b111000 ="
b110000 I
b110000 7"
b10 |
b0 x
0%"
b1 '"
1~
b1010 K
b1010 9"
b1011 J
b1011 ?"
b1001 F
b1001 3"
b1001 *"
b111110 9
b1111111111111011 I"
b11111111111111111111111111110000 J"
1.
#720000
0.
#725000
b101000 I
b101000 7"
b1010000 H
b1010000 ="
b101000 G
b101000 C"
b111111 9
b1 x
1%"
0~
b10 ""
b111 K
b111 9"
b1000 J
b1000 ?"
b110 F
b110 3"
b110 *"
1.
#730000
0.
#735000
b110000 G
b110000 C"
b111000 H
b111000 ="
b110000 I
b110000 7"
b11 |
b0 x
0%"
b10 '"
1~
b1010 K
b1010 9"
b1011 J
b1011 ?"
b1001 F
b1001 3"
b1001 *"
b1000000 9
b1111111111111011 I"
1.
#740000
0.
#745000
b101000 I
b101000 7"
b1010000 H
b1010000 ="
b101000 G
b101000 C"
b1000001 9
b1 x
1%"
0~
b11 ""
b111 K
b111 9"
b1000 J
b1000 ?"
b110 F
b110 3"
b110 *"
1.
#750000
0.
#755000
b110000 G
b110000 C"
b111000 H
b111000 ="
b110000 I
b110000 7"
b100 |
b0 x
0%"
b11 '"
1~
b1010 K
b1010 9"
b1011 J
b1011 ?"
b1001 F
b1001 3"
b1001 *"
b1000010 9
b1111111111111011 I"
1.
#760000
0.
#765000
b101000 I
b101000 7"
b1010000 H
b1010000 ="
b101000 G
b101000 C"
b1000011 9
b1 x
1%"
0~
b100 ""
b111 K
b111 9"
b1000 J
b1000 ?"
b110 F
b110 3"
b110 *"
1.
#770000
0.
#775000
b110000 G
b110000 C"
b111000 H
b111000 ="
b110000 I
b110000 7"
b101 |
b0 x
0%"
b100 '"
1~
b1010 K
b1010 9"
b1011 J
b1011 ?"
b1001 F
b1001 3"
b1001 *"
b1000100 9
b1111111111111011 I"
1.
#780000
0.
#785000
b101000 I
b101000 7"
b1010000 H
b1010000 ="
b101000 G
b101000 C"
b1000101 9
b1 x
1%"
0~
b101 ""
b111 K
b111 9"
b1000 J
b1000 ?"
b110 F
b110 3"
b110 *"
1.
#790000
0.
#795000
b110000 G
b110000 C"
b111000 H
b111000 ="
b110000 I
b110000 7"
b110 |
b0 x
0%"
b101 '"
1~
b1010 K
b1010 9"
b1011 J
b1011 ?"
b1001 F
b1001 3"
b1001 *"
b1000110 9
b1111111111111011 I"
1.
#800000
0.
#805000
b101000 I
b101000 7"
b1010000 H
b1010000 ="
b101000 G
b101000 C"
b1000111 9
b1 x
1%"
0~
b110 ""
b111 K
b111 9"
b1000 J
b1000 ?"
b110 F
b110 3"
b110 *"
1.
#810000
0.
#815000
b110000 G
b110000 C"
b111000 H
b111000 ="
b110000 I
b110000 7"
b111 |
b0 x
0%"
b110 '"
1~
b1010 K
b1010 9"
b1011 J
b1011 ?"
b1001 F
b1001 3"
b1001 *"
b1001000 9
b1111111111111011 I"
1.
#820000
0.
#825000
b101000 I
b101000 7"
b1010000 H
b1010000 ="
b101000 G
b101000 C"
b1001001 9
b1 x
1%"
0~
b111 ""
b111 K
b111 9"
b1000 J
b1000 ?"
b110 F
b110 3"
b110 *"
1.
#830000
0.
#835000
b110000 G
b110000 C"
b111000 H
b111000 ="
b110000 I
b110000 7"
b10 {
b0 |
b0 x
0%"
b111 '"
1~
b1010 K
b1010 9"
b1011 J
b1011 ?"
b1001 F
b1001 3"
b1001 *"
b1001010 9
b1111111111111011 I"
1.
#840000
0.
#845000
b101000 I
b101000 7"
b1010000 H
b1010000 ="
b101000 G
b101000 C"
b1001011 9
b1 x
1%"
0~
b0 ""
b10 !"
b10 r
b10 -"
b1101 K
b1101 9"
b1110 J
b1110 ?"
b1100 F
b1100 3"
b1100 *"
1.
#850000
0.
#855000
b1000 P
b1000 1"
b10000 G
b10000 C"
b1100000 H
b1100000 ="
b10000 I
b10000 7"
b1 |
b0 x
0%"
b0 '"
b10 &"
1~
b10000 K
b10000 9"
b10001 J
b10001 ?"
b1111 F
b1111 3"
b1111 *"
b1001100 9
b1111111111111011 I"
1.
#860000
0.
#865000
b111000 I
b111000 7"
b110000 H
b110000 ="
b111000 G
b111000 C"
b1001101 9
b1 x
1%"
0~
b1 ""
b1101 K
b1101 9"
b1110 J
b1110 ?"
b1100 F
b1100 3"
b1100 *"
1.
#870000
0.
#875000
b10000 G
b10000 C"
b1100000 H
b1100000 ="
b10000 I
b10000 7"
b10 |
b0 x
0%"
b1 '"
1~
b10000 K
b10000 9"
b10001 J
b10001 ?"
b1111 F
b1111 3"
b1111 *"
b1001110 9
b1000 I"
b1000 J"
1.
#880000
0.
#885000
b111000 I
b111000 7"
b110000 H
b110000 ="
b111000 G
b111000 C"
b1001111 9
b1 x
1%"
0~
b10 ""
b1101 K
b1101 9"
b1110 J
b1110 ?"
b1100 F
b1100 3"
b1100 *"
1.
#890000
0.
#895000
b10000 G
b10000 C"
b1100000 H
b1100000 ="
b10000 I
b10000 7"
b11 |
b0 x
0%"
b10 '"
1~
b10000 K
b10000 9"
b10001 J
b10001 ?"
b1111 F
b1111 3"
b1111 *"
b1010000 9
1.
#900000
0.
#905000
b111000 I
b111000 7"
b110000 H
b110000 ="
b111000 G
b111000 C"
b1010001 9
b1 x
1%"
0~
b11 ""
b1101 K
b1101 9"
b1110 J
b1110 ?"
b1100 F
b1100 3"
b1100 *"
1.
#910000
0.
#915000
b10000 G
b10000 C"
b1100000 H
b1100000 ="
b10000 I
b10000 7"
b100 |
b0 x
0%"
b11 '"
1~
b10000 K
b10000 9"
b10001 J
b10001 ?"
b1111 F
b1111 3"
b1111 *"
b1010010 9
1.
#920000
0.
#925000
b111000 I
b111000 7"
b110000 H
b110000 ="
b111000 G
b111000 C"
b1010011 9
b1 x
1%"
0~
b100 ""
b1101 K
b1101 9"
b1110 J
b1110 ?"
b1100 F
b1100 3"
b1100 *"
1.
#930000
0.
#935000
b10000 G
b10000 C"
b1100000 H
b1100000 ="
b10000 I
b10000 7"
b101 |
b0 x
0%"
b100 '"
1~
b10000 K
b10000 9"
b10001 J
b10001 ?"
b1111 F
b1111 3"
b1111 *"
b1010100 9
1.
#940000
0.
#945000
b111000 I
b111000 7"
b110000 H
b110000 ="
b111000 G
b111000 C"
b1010101 9
b1 x
1%"
0~
b101 ""
b1101 K
b1101 9"
b1110 J
b1110 ?"
b1100 F
b1100 3"
b1100 *"
1.
#950000
0.
#955000
b10000 G
b10000 C"
b1100000 H
b1100000 ="
b10000 I
b10000 7"
b110 |
b0 x
0%"
b101 '"
1~
b10000 K
b10000 9"
b10001 J
b10001 ?"
b1111 F
b1111 3"
b1111 *"
b1010110 9
1.
#960000
0.
#965000
b111000 I
b111000 7"
b110000 H
b110000 ="
b111000 G
b111000 C"
b1010111 9
b1 x
1%"
0~
b110 ""
b1101 K
b1101 9"
b1110 J
b1110 ?"
b1100 F
b1100 3"
b1100 *"
1.
#970000
0.
#975000
b10000 G
b10000 C"
b1100000 H
b1100000 ="
b10000 I
b10000 7"
b111 |
b0 x
0%"
b110 '"
1~
b10000 K
b10000 9"
b10001 J
b10001 ?"
b1111 F
b1111 3"
b1111 *"
b1011000 9
1.
#980000
0.
#985000
b111000 I
b111000 7"
b110000 H
b110000 ="
b111000 G
b111000 C"
b1011001 9
b1 x
1%"
0~
b111 ""
b1101 K
b1101 9"
b1110 J
b1110 ?"
b1100 F
b1100 3"
b1100 *"
1.
#990000
0.
#995000
b10000 G
b10000 C"
b1100000 H
b1100000 ="
b10000 I
b10000 7"
b11 {
b0 |
b0 x
0%"
b111 '"
1~
b10000 K
b10000 9"
b10001 J
b10001 ?"
b1111 F
b1111 3"
b1111 *"
b1011010 9
1.
#1000000
0.
#1005000
b111000 I
b111000 7"
b110000 H
b110000 ="
b111000 G
b111000 C"
b1011011 9
b1 x
1%"
0~
b0 ""
b11 !"
b11 r
b11 -"
b10011 K
b10011 9"
b10100 J
b10100 ?"
b10010 F
b10010 3"
b10010 *"
1.
#1010000
0.
#1015000
b1111111111111000 P
b1111111111111000 1"
b100000 G
b100000 C"
b1011000 H
b1011000 ="
b100000 I
b100000 7"
b1 |
b0 x
0%"
b0 '"
b11 &"
1~
b10110 K
b10110 9"
b10111 J
b10111 ?"
b10101 F
b10101 3"
b10101 *"
b1011100 9
1.
#1020000
0.
#1025000
b1001000 I
b1001000 7"
b101000 H
b101000 ="
b1001000 G
b1001000 C"
b1011101 9
b1 x
1%"
0~
b1 ""
b10011 K
b10011 9"
b10100 J
b10100 ?"
b10010 F
b10010 3"
b10010 *"
1.
#1030000
0.
#1035000
b100000 G
b100000 C"
b1011000 H
b1011000 ="
b100000 I
b100000 7"
b10 |
b0 x
0%"
b1 '"
1~
b10110 K
b10110 9"
b10111 J
b10111 ?"
b10101 F
b10101 3"
b10101 *"
b1011110 9
b1111111111111101 I"
b11111111111111111111111111111000 J"
1.
#1040000
0.
#1045000
b1001000 I
b1001000 7"
b101000 H
b101000 ="
b1001000 G
b1001000 C"
b1011111 9
b1 x
1%"
0~
b10 ""
b10011 K
b10011 9"
b10100 J
b10100 ?"
b10010 F
b10010 3"
b10010 *"
1.
#1050000
0.
#1055000
b100000 G
b100000 C"
b1011000 H
b1011000 ="
b100000 I
b100000 7"
b11 |
b0 x
0%"
b10 '"
1~
b10110 K
b10110 9"
b10111 J
b10111 ?"
b10101 F
b10101 3"
b10101 *"
b1100000 9
b1111111111111101 I"
1.
#1060000
0.
#1065000
b1001000 I
b1001000 7"
b101000 H
b101000 ="
b1001000 G
b1001000 C"
b1100001 9
b1 x
1%"
0~
b11 ""
b10011 K
b10011 9"
b10100 J
b10100 ?"
b10010 F
b10010 3"
b10010 *"
1.
#1070000
0.
#1075000
b100000 G
b100000 C"
b1011000 H
b1011000 ="
b100000 I
b100000 7"
b100 |
b0 x
0%"
b11 '"
1~
b10110 K
b10110 9"
b10111 J
b10111 ?"
b10101 F
b10101 3"
b10101 *"
b1100010 9
b1111111111111101 I"
1.
#1080000
0.
#1085000
b1001000 I
b1001000 7"
b101000 H
b101000 ="
b1001000 G
b1001000 C"
b1100011 9
b1 x
1%"
0~
b100 ""
b10011 K
b10011 9"
b10100 J
b10100 ?"
b10010 F
b10010 3"
b10010 *"
1.
#1090000
0.
#1095000
b100000 G
b100000 C"
b1011000 H
b1011000 ="
b100000 I
b100000 7"
b101 |
b0 x
0%"
b100 '"
1~
b10110 K
b10110 9"
b10111 J
b10111 ?"
b10101 F
b10101 3"
b10101 *"
b1100100 9
b1111111111111101 I"
1.
#1100000
0.
#1105000
b1001000 I
b1001000 7"
b101000 H
b101000 ="
b1001000 G
b1001000 C"
b1100101 9
b1 x
1%"
0~
b101 ""
b10011 K
b10011 9"
b10100 J
b10100 ?"
b10010 F
b10010 3"
b10010 *"
1.
#1110000
0.
#1115000
b100000 G
b100000 C"
b1011000 H
b1011000 ="
b100000 I
b100000 7"
b110 |
b0 x
0%"
b101 '"
1~
b10110 K
b10110 9"
b10111 J
b10111 ?"
b10101 F
b10101 3"
b10101 *"
b1100110 9
b1111111111111101 I"
1.
#1120000
0.
#1125000
b1001000 I
b1001000 7"
b101000 H
b101000 ="
b1001000 G
b1001000 C"
b1100111 9
b1 x
1%"
0~
b110 ""
b10011 K
b10011 9"
b10100 J
b10100 ?"
b10010 F
b10010 3"
b10010 *"
1.
#1130000
0.
#1135000
b100000 G
b100000 C"
b1011000 H
b1011000 ="
b100000 I
b100000 7"
b111 |
b0 x
0%"
b110 '"
1~
b10110 K
b10110 9"
b10111 J
b10111 ?"
b10101 F
b10101 3"
b10101 *"
b1101000 9
b1111111111111101 I"
1.
#1140000
0.
#1145000
b1001000 I
b1001000 7"
b101000 H
b101000 ="
b1001000 G
b1001000 C"
b1101001 9
b1 x
1%"
0~
b111 ""
b10011 K
b10011 9"
b10100 J
b10100 ?"
b10010 F
b10010 3"
b10010 *"
1.
#1150000
0.
#1155000
b100000 G
b100000 C"
b1011000 H
b1011000 ="
b100000 I
b100000 7"
b1 }
b0 |
b0 x
0%"
b111 '"
1~
b10110 K
b10110 9"
b10111 J
b10111 ?"
b10101 F
b10101 3"
b10101 *"
b1101010 9
b1111111111111101 I"
1.
#1160000
0.
#1165000
b1001000 I
b1001000 7"
b101000 H
b101000 ="
b1001000 G
b1001000 C"
b1101011 9
b1 x
1%"
0~
b0 ""
b10011 K
b10011 9"
b10100 J
b10100 ?"
b10010 F
b10010 3"
b10010 *"
1.
#1170000
0.
#1175000
b100000 G
b100000 C"
b1011000 H
b1011000 ="
b100000 I
b100000 7"
b1 |
b0 x
0%"
b0 '"
1~
b10110 K
b10110 9"
b10111 J
b10111 ?"
b10101 F
b10101 3"
b10101 *"
b1101100 9
b1111111111111101 I"
1.
#1180000
0.
