rtl/ofdmGAN/tb_discriminator_mini.vcd
$date
	Fri Dec 19 15:39:41 2025
$end
$version
	Icarus Verilog
$end
$timescale
	1ps
$end
$scope module tb_discriminator_mini $end
$var wire 1 ! score_valid $end
$var wire 16 " score_out [15:0] $end
$var wire 1 # ready_in $end
$var wire 1 $ done $end
$var wire 1 % busy $end
$var parameter 32 & ACC_WIDTH $end
$var parameter 32 ' CLK_PERIOD $end
$var parameter 32 ( DATA_WIDTH $end
$var parameter 32 ) FRAME_LEN $end
$var parameter 32 * IN_CH $end
$var parameter 32 + TIMEOUT $end
$var parameter 32 , WEIGHT_WIDTH $end
$var reg 16 - cand_in [15:0] $end
$var reg 1 . cand_valid $end
$var reg 16 / captured_score [15:0] $end
$var reg 1 0 clk $end
$var reg 16 1 cond_in [15:0] $end
$var reg 1 2 cond_valid $end
$var reg 4 3 prev_state [3:0] $end
$var reg 1 4 rst_n $end
$var reg 16 5 score_max [15:0] $end
$var reg 16 6 score_min [15:0] $end
$var reg 1 7 start $end
$var reg 128 8 state_name [127:0] $end
$var integer 32 9 ch_idx [31:0] $end
$var integer 32 : cycle_count [31:0] $end
$var integer 32 ; error_count [31:0] $end
$var integer 32 < i [31:0] $end
$var integer 32 = pos_idx [31:0] $end
$var integer 32 > start_cycle [31:0] $end
$var integer 32 ? test_num [31:0] $end
$var integer 32 @ total_cycles [31:0] $end
$var integer 32 A total_errors [31:0] $end
$var integer 32 B total_tests [31:0] $end
$scope module dut $end
$var wire 1 % busy $end
$var wire 16 C cand_in [15:0] $end
$var wire 1 . cand_valid $end
$var wire 1 0 clk $end
$var wire 16 D cond_in [15:0] $end
$var wire 1 2 cond_valid $end
$var wire 1 # ready_in $end
$var wire 1 4 rst_n $end
$var wire 1 7 start $end
$var wire 11 E weight_addr_k0 [10:0] $end
$var wire 8 F weight_k2 [7:0] $end
$var wire 8 G weight_k1 [7:0] $end
$var wire 8 H weight_k0 [7:0] $end
$var wire 11 I weight_addr_k2 [10:0] $end
$var wire 11 J weight_addr_k1 [10:0] $end
$var wire 24 K mult_k2 [23:0] $end
$var wire 24 L mult_k1 [23:0] $end
$var wire 24 M mult_k0 [23:0] $end
$var wire 32 N kernel_sum [31:0] $end
$var wire 1 $ done $end
$var wire 16 O bias_data [15:0] $end
$var parameter 32 P ACC_WIDTH $end
$var parameter 32 Q BADDR_CONV1 $end
$var parameter 32 R BADDR_CONV2 $end
$var parameter 32 S BADDR_DENSE $end
$var parameter 32 T CONV1_OUT_CH $end
$var parameter 32 U CONV1_OUT_LEN $end
$var parameter 32 V CONV2_OUT_CH $end
$var parameter 32 W CONV2_OUT_LEN $end
$var parameter 32 X DATA_WIDTH $end
$var parameter 32 Y FRAME_LEN $end
$var parameter 32 Z IN_CH $end
$var parameter 4 [ ST_CONV1 $end
$var parameter 4 \ ST_CONV2 $end
$var parameter 4 ] ST_DENSE $end
$var parameter 4 ^ ST_DONE $end
$var parameter 4 _ ST_IDLE $end
$var parameter 4 ` ST_LOAD_CAND $end
$var parameter 4 a ST_LOAD_COND $end
$var parameter 4 b ST_OUTPUT $end
$var parameter 4 c ST_POOL $end
$var parameter 32 d WADDR_CONV1 $end
$var parameter 32 e WADDR_CONV2 $end
$var parameter 32 f WADDR_DENSE $end
$var parameter 32 g WEIGHT_WIDTH $end
$var reg 6 h bias_addr [5:0] $end
$var reg 16 i data_k0 [15:0] $end
$var reg 16 j data_k1 [15:0] $end
$var reg 16 k data_k2 [15:0] $end
$var reg 32 l dense_acc [31:0] $end
$var reg 5 m in_ch_iter [4:0] $end
$var reg 2 n load_ch_cnt [1:0] $end
$var reg 5 o load_pos_cnt [4:0] $end
$var reg 4 p next_state [3:0] $end
$var reg 5 q out_ch_cnt [4:0] $end
$var reg 5 r out_pos_cnt [4:0] $end
$var reg 3 s pipe_flush [2:0] $end
$var reg 1 t pipe_s2_last_in_ch $end
$var reg 5 u pipe_s2_out_ch [4:0] $end
$var reg 5 v pipe_s2_out_pos [4:0] $end
$var reg 1 w pipe_s2_valid $end
$var reg 32 x pipe_s3_ksum [31:0] $end
$var reg 1 y pipe_s3_last_in_ch $end
$var reg 5 z pipe_s3_out_ch [4:0] $end
$var reg 5 { pipe_s3_out_pos [4:0] $end
$var reg 1 | pipe_s3_valid $end
$var reg 16 } score_out [15:0] $end
$var reg 1 ! score_valid $end
$var reg 4 ~ state [3:0] $end
$var reg 11 !" weight_addr_base [10:0] $end
$var integer 32 "" i [31:0] $end
$var integer 32 #" j [31:0] $end
$scope module u_bias_rom $end
$var wire 6 $" addr [5:0] $end
$var wire 1 0 clk $end
$var parameter 32 %" ADDR_WIDTH $end
$var parameter 32 &" DATA_WIDTH $end
$var parameter 32 '" DEPTH $end
$var reg 16 (" data [15:0] $end
$var integer 32 )" init_i [31:0] $end
$upscope $end
$scope module u_wrom_k0 $end
$var wire 11 *" addr [10:0] $end
$var wire 1 0 clk $end
$var parameter 32 +" ADDR_WIDTH $end
$var parameter 32 ," DEPTH $end
$var parameter 32 -" WEIGHT_WIDTH $end
$var reg 8 ." data [7:0] $end
$var integer 32 /" init_i [31:0] $end
$upscope $end
$scope module u_wrom_k1 $end
$var wire 11 0" addr [10:0] $end
$var wire 1 0 clk $end
$var parameter 32 1" ADDR_WIDTH $end
$var parameter 32 2" DEPTH $end
$var parameter 32 3" WEIGHT_WIDTH $end
$var reg 8 4" data [7:0] $end
$var integer 32 5" init_i [31:0] $end
$upscope $end
$scope module u_wrom_k2 $end
$var wire 11 6" addr [10:0] $end
$var wire 1 0 clk $end
$var parameter 32 7" ADDR_WIDTH $end
$var parameter 32 8" DEPTH $end
$var parameter 32 9" WEIGHT_WIDTH $end
$var reg 8 :" data [7:0] $end
$var integer 32 ;" init_i [31:0] $end
$upscope $end
$scope begin conv1_store $end
$var reg 16 <" result [15:0] $end
$var reg 32 =" sum [31:0] $end
$upscope $end
$scope begin conv2_store $end
$var reg 16 >" result [15:0] $end
$var reg 32 ?" sum [31:0] $end
$upscope $end
$upscope $end
$scope task run_test $end
$var integer 32 @" test_id [31:0] $end
$upscope $end
$upscope $end
$enddefinitions $end
$comment Show the parameter values. $end
$dumpall
b1000 9"
b100000000000 8"
b1011 7"
b1000 3"
b100000000000 2"
b1011 1"
b1000 -"
b100000000000 ,"
b1011 +"
b1000000 '"
b10000 &"
b110 %"
b1000 g
b1011100000 f
b101100000 e
b100000000 d
b101 c
b111 b
b10 a
b1 `
b0 _
b1000 ^
b110 ]
b100 \
b11 [
b100 Z
b10000 Y
b10000 X
b100 W
b10000 V
b1000 U
b1000 T
b111000 S
b101000 R
b100000 Q
b100000 P
b1000 ,
b1100001101010000 +
b100 *
b10000 )
b10000 (
b1010 '
b100000 &
$end
#0
$dumpvars
bx @"
bx ?"
bx >"
bx ="
bx <"
b100000000000 ;"
bx :"
b10 6"
b100000000000 5"
bx 4"
b1 0"
b100000000000 /"
bx ."
b0 *"
b1000000 )"
bx ("
b0 $"
b10010 #"
b100 ""
b0 !"
b0 ~
b0 }
0|
bx {
bx z
xy
bx x
0w
bx v
bx u
xt
b0 s
b0 r
b0 q
b0 p
b0 o
b0 n
b0 m
b0 l
b0 k
b0 j
b0 i
b0 h
bx O
bx N
bx M
bx L
bx K
b1 J
b10 I
bx H
bx G
bx F
b0 E
b0 D
b0 C
b0 B
b0 A
bx @
bx ?
bx >
bx =
bx <
bx ;
b0 :
bx 9
b1001001010001000100110001000101 8
07
bx 6
bx 5
04
bx 3
02
b0 1
00
bx /
0.
b0 -
0%
0$
0#
b0 "
0!
$end
#5000
b0 N
b0 M
b100000 H
b100000 ."
b0 L
b1000000 G
b1000000 4"
b0 K
b100000 F
b100000 :"
b10000 O
b10000 ("
b0 3
b100 #"
b10000 ""
10
#10000
00
#15000
b10010 #"
b100 ""
10
#20000
00
#25000
b100 #"
b10000 ""
10
#30000
00
#35000
b10010 #"
b100 ""
10
#40000
00
#45000
b100 #"
b10000 ""
10
#50000
00
#55000
b10010 #"
b100 ""
10
#60000
00
#65000
b100 #"
b10000 ""
10
#70000
00
#75000
b10010 #"
b100 ""
10
#80000
00
#85000
b100 #"
b10000 ""
10
#90000
00
#95000
14
b10010 #"
b100 ""
10
#100000
00
#105000
b1 :
b10000 ""
10
#110000
00
#115000
b10 :
b10000 ""
10
#120000
00
#125000
b11 :
b10000 ""
10
#130000
00
#135000
b100 :
b10000 ""
10
#140000
00
#145000
b101 :
b0 /
b0 ;
b1 B
b1 ?
b1 @"
b1000000000000 5
b1111000000000000 6
b10000 <
b10000 ""
10
#150000
00
#155000
b110 :
b10000 ""
10
#160000
00
#165000
b111 :
b10000 ""
10
#170000
00
#175000
b1000 :
b1 p
b111 >
17
b10000 ""
10
#180000
00
#185000
1#
1%
b10011000100111101000001010001000101111101000011010000010100111001000100 8
b0 =
b0 9
b1001 :
b1 ~
b1 p
07
b10010 #"
b10000 ""
10
#190000
00
#195000
b1 3
b1010 :
b1 =
1.
b10000 ""
10
#200000
00
#205000
b1011 :
b1 o
b10 =
b10000 ""
10
#210000
00
#215000
b10 o
b1100 :
b11 =
b10000 ""
10
#220000
00
#225000
b1101 :
b11 o
b100 =
b10000 ""
10
#230000
00
#235000
b100 o
b1110 :
b101 =
b10000 ""
10
#240000
00
#245000
b1111 :
b101 o
b110 =
b10000 ""
10
#250000
00
#255000
b110 o
b10000 :
b111 =
b10000 ""
10
#260000
00
#265000
b10001 :
b111 o
b1000 =
b10000 ""
10
#270000
00
#275000
b1000 o
b10010 :
b1001 =
b10000 ""
10
#280000
00
#285000
b10011 :
b1001 o
b1010 =
b10000 ""
10
#290000
00
#295000
b1010 o
b10100 :
b1011 =
b10000 ""
10
#300000
00
#305000
b10101 :
b1011 o
b1100 =
b10000 ""
10
#310000
00
#315000
b1100 o
b10110 :
b1101 =
b10000 ""
10
#320000
00
#325000
b10111 :
b1101 o
b1110 =
b10000 ""
10
#330000
00
#335000
b1110 o
b11000 :
b1111 =
b10000 ""
10
#340000
00
#345000
b11001 :
b1111 o
b1 9
b0 =
b10000 ""
10
#350000
00
#355000
b1 n
b0 o
b11010 :
b1 =
b10000 ""
10
#360000
00
#365000
b11011 :
b1 o
b10 =
b10000 ""
10
#370000
00
#375000
b10 o
b11100 :
b11 =
b10000 ""
10
#380000
00
#385000
b11101 :
b11 o
b100 =
b10000 ""
10
#390000
00
#395000
b100 o
b11110 :
b101 =
b10000 ""
10
#400000
00
#405000
b11111 :
b101 o
b110 =
b10000 ""
10
#410000
00
#415000
b110 o
b100000 :
b111 =
b10000 ""
10
#420000
00
#425000
b100001 :
b111 o
b1000 =
b10000 ""
10
#430000
00
#435000
b1000 o
b100010 :
b1001 =
b10000 ""
10
#440000
00
#445000
b100011 :
b1001 o
b1010 =
b10000 ""
10
#450000
00
#455000
b1010 o
b100100 :
b1011 =
b10000 ""
10
#460000
00
#465000
b100101 :
b1011 o
b1100 =
b10000 ""
10
#470000
00
#475000
b1100 o
b100110 :
b1101 =
b10000 ""
10
#480000
00
#485000
b100111 :
b1101 o
b1110 =
b10000 ""
10
#490000
00
#495000
b1110 o
b101000 :
b1111 =
b10000 ""
10
#500000
00
#505000
b10 p
b101001 :
b1111 o
b10 9
b0 =
b10000 ""
10
#510000
00
#515000
b10011000100111101000001010001000101111101000011010011110100111001000100 8
b0 9
b10 ~
b0 n
b0 o
b101010 :
b10 p
0.
b10000 ""
10
#520000
00
#525000
b10 3
b101011 :
b1 =
12
b10000 ""
10
#530000
00
#535000
b1 o
b101100 :
b10 =
b10000 ""
10
#540000
00
#545000
b101101 :
b10 o
b11 =
b10000 ""
10
#550000
00
#555000
b11 o
b101110 :
b100 =
b10000 ""
10
#560000
00
#565000
b101111 :
b100 o
b101 =
b10000 ""
10
#570000
00
#575000
b101 o
b110000 :
b110 =
b10000 ""
10
#580000
00
#585000
b110001 :
b110 o
b111 =
b10000 ""
10
#590000
00
#595000
b111 o
b110010 :
b1000 =
b10000 ""
10
#600000
00
#605000
b110011 :
b1000 o
b1001 =
b10000 ""
10
#610000
00
#615000
b1001 o
b110100 :
b1010 =
b10000 ""
10
#620000
00
#625000
b110101 :
b1010 o
b1011 =
b10000 ""
10
#630000
00
#635000
b1011 o
b110110 :
b1100 =
b10000 ""
10
#640000
00
#645000
b110111 :
b1100 o
b1101 =
b10000 ""
10
#650000
00
#655000
b1101 o
b111000 :
b1110 =
b10000 ""
10
#660000
00
#665000
b111001 :
b1110 o
b1111 =
b10000 ""
10
#670000
00
#675000
b1111 o
b111010 :
b1 9
b0 =
b10000 ""
10
#680000
00
#685000
b111011 :
b1 n
b0 o
b1 =
b10000 ""
10
#690000
00
#695000
b1 o
b111100 :
b10 =
b10000 ""
10
#700000
00
#705000
b111101 :
b10 o
b11 =
b10000 ""
10
#710000
00
#715000
b11 o
b111110 :
b100 =
b10000 ""
10
#720000
00
#725000
b111111 :
b100 o
b101 =
b10000 ""
10
#730000
00
#735000
b101 o
b1000000 :
b110 =
b10000 ""
10
#740000
00
#745000
b1000001 :
b110 o
b111 =
b10000 ""
10
#750000
00
#755000
b111 o
b1000010 :
b1000 =
b10000 ""
10
#760000
00
#765000
b1000011 :
b1000 o
b1001 =
b10000 ""
10
#770000
00
#775000
b1001 o
b1000100 :
b1010 =
b10000 ""
10
#780000
00
#785000
b1000101 :
b1010 o
b1011 =
b10000 ""
10
#790000
00
#795000
b1011 o
b1000110 :
b1100 =
b10000 ""
10
#800000
00
#805000
b1000111 :
b1100 o
b1101 =
b10000 ""
10
#810000
00
#815000
b1101 o
b1001000 :
b1110 =
b10000 ""
10
#820000
00
#825000
b1001001 :
b1110 o
b1111 =
b10000 ""
10
#830000
00
#835000
b11 p
b1111 o
b1001010 :
b10 9
b0 =
b10000 ""
10
#840000
00
#845000
0#
b100001101001111010011100101011000110001 8
b1001011 :
b10 n
b0 o
b11 ~
b11 p
02
b10000 ""
10
#850000
00
#855000
b11 3
b1 m
b0 x
0t
b0 v
b0 u
1w
b100000 h
b100000 $"
b100000001 J
b100000001 0"
b100000010 I
b100000010 6"
b100000000 E
b100000000 *"
b100000000 !"
b1001100 :
10
#860000
00
#865000
b111010 H
b111010 ."
b1000110 G
b1000110 4"
b111010 F
b111010 :"
b1000 O
b1000 ("
b1001101 :
b10 m
0y
b0 {
b0 z
1|
b100000100 J
b100000100 0"
b100000101 I
b100000101 6"
b100000011 E
b100000011 *"
b100000011 !"
10
#870000
00
#875000
b101110 F
b101110 :"
b1010010 G
b1010010 4"
b101110 H
b101110 ."
b11 m
b100000111 J
b100000111 0"
b100001000 I
b100001000 6"
b100000110 E
b100000110 *"
b100000110 !"
b1001110 :
10
#880000
00
#885000
b0 H
b0 ."
b0 G
b0 4"
b0 F
b0 :"
b1001111 :
b1 r
b0 m
1t
b100001010 J
b100001010 0"
b100001011 I
b100001011 6"
b100001001 E
b100001001 *"
b100001001 !"
10
#890000
00
#895000
b1 m
1y
0t
b1 v
b100000001 J
b100000001 0"
b100000010 I
b100000010 6"
b100000000 E
b100000000 *"
b100000000 !"
b1010000 :
10
#900000
00
#905000
b111010 H
b111010 ."
b1000110 G
b1000110 4"
b111010 F
b111010 :"
b10 m
b1010001 :
0y
b1 {
b100000100 J
b100000100 0"
b100000101 I
b100000101 6"
b100000011 E
b100000011 *"
b100000011 !"
b1000 <"
b1000 ="
10
#910000
00
#915000
b101110 F
b101110 :"
b1010010 G
b1010010 4"
b101110 H
b101110 ."
b1010010 :
b11 m
b100000111 J
b100000111 0"
b100001000 I
b100001000 6"
b100000110 E
b100000110 *"
b100000110 !"
10
#920000
00
#925000
b0 H
b0 ."
b0 G
b0 4"
b0 F
b0 :"
b10 r
b0 m
1t
b100001010 J
b100001010 0"
b100001011 I
b100001011 6"
b100001001 E
b100001001 *"
b100001001 !"
b1010011 :
10
#930000
00
#935000
b1010100 :
b1 m
1y
0t
b10 v
b100000001 J
b100000001 0"
b100000010 I
b100000010 6"
b100000000 E
b100000000 *"
b100000000 !"
10
#940000
00
#945000
b111010 H
b111010 ."
b1000110 G
b1000110 4"
b111010 F
b111010 :"
b10 m
0y
b10 {
b100000100 J
b100000100 0"
b100000101 I
b100000101 6"
b100000011 E
b100000011 *"
b100000011 !"
b1010101 :
10
#950000
00
#955000
b101110 F
b101110 :"
b1010010 G
b1010010 4"
b101110 H
b101110 ."
b1010110 :
b11 m
b100000111 J
b100000111 0"
b100001000 I
b100001000 6"
b100000110 E
b100000110 *"
b100000110 !"
10
#960000
00
#965000
b0 H
b0 ."
b0 G
b0 4"
b0 F
b0 :"
b11 r
b0 m
1t
b100001010 J
b100001010 0"
b100001011 I
b100001011 6"
b100001001 E
b100001001 *"
b100001001 !"
b1010111 :
10
#970000
00
#975000
b1011000 :
b1 m
1y
0t
b11 v
b100000001 J
b100000001 0"
b100000010 I
b100000010 6"
b100000000 E
b100000000 *"
b100000000 !"
10
#980000
00
#985000
b111010 H
b111010 ."
b1000110 G
b1000110 4"
b111010 F
b111010 :"
b10 m
0y
b11 {
b100000100 J
b100000100 0"
b100000101 I
b100000101 6"
b100000011 E
b100000011 *"
b100000011 !"
b1011001 :
10
#990000
00
#995000
b101110 F
b101110 :"
b1010010 G
b1010010 4"
b101110 H
b101110 ."
b1011010 :
b11 m
b100000111 J
b100000111 0"
b100001000 I
b100001000 6"
b100000110 E
b100000110 *"
b100000110 !"
10
#1000000
00
#1005000
b0 H
b0 ."
b0 G
b0 4"
b0 F
b0 :"
b100 r
b0 m
1t
b100001010 J
b100001010 0"
b100001011 I
b100001011 6"
b100001001 E
b100001001 *"
b100001001 !"
b1011011 :
10
#1010000
00
#1015000
b1011100 :
b1 m
1y
0t
b100 v
b100000001 J
b100000001 0"
b100000010 I
b100000010 6"
b100000000 E
b100000000 *"
b100000000 !"
10
#1020000
00
#1025000
b111010 H
b111010 ."
b1000110 G
b1000110 4"
b111010 F
b111010 :"
b10 m
0y
b100 {
b100000100 J
b100000100 0"
b100000101 I
b100000101 6"
b100000011 E
b100000011 *"
b100000011 !"
b1011101 :
10
#1030000
00
#1035000
b101110 F
b101110 :"
b1010010 G
b1010010 4"
b101110 H
b101110 ."
b1011110 :
b11 m
b100000111 J
b100000111 0"
b100001000 I
b100001000 6"
b100000110 E
b100000110 *"
b100000110 !"
10
#1040000
00
#1045000
b0 H
b0 ."
b0 G
b0 4"
b0 F
b0 :"
b101 r
b0 m
1t
b100001010 J
b100001010 0"
b100001011 I
b100001011 6"
b100001001 E
b100001001 *"
b100001001 !"
b1011111 :
10
#1050000
00
#1055000
b1100000 :
b1 m
1y
0t
b101 v
b100000001 J
b100000001 0"
b100000010 I
b100000010 6"
b100000000 E
b100000000 *"
b100000000 !"
10
#1060000
00
#1065000
b111010 H
b111010 ."
b1000110 G
b1000110 4"
b111010 F
b111010 :"
b10 m
0y
b101 {
b100000100 J
b100000100 0"
b100000101 I
b100000101 6"
b100000011 E
b100000011 *"
b100000011 !"
b1100001 :
10
#1070000
00
#1075000
b101110 F
b101110 :"
b1010010 G
b1010010 4"
b101110 H
b101110 ."
b1100010 :
b11 m
b100000111 J
b100000111 0"
b100001000 I
b100001000 6"
b100000110 E
b100000110 *"
b100000110 !"
10
#1080000
00
#1085000
b0 H
b0 ."
b0 G
b0 4"
b0 F
b0 :"
b110 r
b0 m
1t
b100001010 J
b100001010 0"
b100001011 I
b100001011 6"
b100001001 E
b100001001 *"
b100001001 !"
b1100011 :
10
#1090000
00
#1095000
b1100100 :
b1 m
1y
0t
b110 v
b100000001 J
b100000001 0"
b100000010 I
b100000010 6"
b100000000 E
b100000000 *"
b100000000 !"
10
#1100000
00
#1105000
b111010 H
b111010 ."
b1000110 G
b1000110 4"
b111010 F
b111010 :"
b10 m
0y
b110 {
b100000100 J
b100000100 0"
b100000101 I
b100000101 6"
b100000011 E
b100000011 *"
b100000011 !"
b1100101 :
10
#1110000
00
#1115000
b101110 F
b101110 :"
b1010010 G
b1010010 4"
b101110 H
b101110 ."
b1100110 :
b11 m
b100000111 J
b100000111 0"
b100001000 I
b100001000 6"
b100000110 E
b100000110 *"
b100000110 !"
10
#1120000
00
#1125000
b0 H
b0 ."
b0 G
b0 4"
b0 F
b0 :"
b111 r
b0 m
1t
b100001010 J
b100001010 0"
b100001011 I
b100001011 6"
b100001001 E
b100001001 *"
b100001001 !"
b1100111 :
10
#1130000
00
#1135000
b1101000 :
b1 m
1y
0t
b111 v
b100000001 J
b100000001 0"
b100000010 I
b100000010 6"
b100000000 E
b100000000 *"
b100000000 !"
10
#1140000
00
#1145000
b111010 H
b111010 ."
b1000110 G
b1000110 4"
b111010 F
b111010 :"
b10 m
0y
b111 {
b100000100 J
b100000100 0"
b100000101 I
b100000101 6"
b100000011 E
b100000011 *"
b100000011 !"
b1101001 :
10
#1150000
00
#1155000
b101110 F
b101110 :"
b1010010 G
b1010010 4"
b101110 H
b101110 ."
b1101010 :
b11 m
b100000111 J
b100000111 0"
b100001000 I
b100001000 6"
b100000110 E
b100000110 *"
b100000110 !"
10
#1160000
00
#1165000
b0 H
b0 ."
b0 G
b0 4"
b0 F
b0 :"
b1 q
b0 r
b0 m
1t
b100001010 J
b100001010 0"
b100001011 I
b100001011 6"
b100001001 E
b100001001 *"
b100001001 !"
b1101011 :
10
#1170000
00
#1175000
b1101100 :
b1 m
1y
0t
b0 v
b1 u
b100001 h
b100001 $"
b100001101 J
b100001101 0"
b100001110 I
b100001110 6"
b100001100 E
b100001100 *"
b100001100 !"
10
#1180000
00
#1185000
b1111111111111000 O
b1111111111111000 ("
b10 m
0y
b0 {
b1 z
b100010000 J
b100010000 0"
b100010001 I
b100010001 6"
b100001111 E
b100001111 *"
b100001111 !"
b1101101 :
10
#1190000
00
#1195000
b1101110 :
b11 m
b100010011 J
b100010011 0"
b100010100 I
b100010100 6"
b100010010 E
b100010010 *"
b100010010 !"
10
#1200000
00
#1205000
b1 r
b0 m
1t
b100010110 J
b100010110 0"
b100010111 I
b100010111 6"
b100010101 E
b100010101 *"
b100010101 !"
b1101111 :
10
#1210000
00
#1215000
b1110000 :
b1 m
1y
0t
b1 v
b100001101 J
b100001101 0"
b100001110 I
b100001110 6"
b100001100 E
b100001100 *"
b100001100 !"
10
#1220000
00
#1225000
b10 m
0y
b1 {
b100010000 J
b100010000 0"
b100010001 I
b100010001 6"
b100001111 E
b100001111 *"
b100001111 !"
b1110001 :
b1111111111111101 <"
b11111111111111111111111111111000 ="
10
#1230000
00
#1235000
b1110010 :
b11 m
b100010011 J
b100010011 0"
b100010100 I
b100010100 6"
b100010010 E
b100010010 *"
b100010010 !"
10
#1240000
00
#1245000
b10 r
b0 m
1t
b100010110 J
b100010110 0"
b100010111 I
b100010111 6"
b100010101 E
b100010101 *"
b100010101 !"
b1110011 :
10
#1250000
00
#1255000
b1110100 :
b1 m
1y
0t
b10 v
b100001101 J
b100001101 0"
b100001110 I
b100001110 6"
b100001100 E
b100001100 *"
b100001100 !"
10
#1260000
00
#1265000
b10 m
0y
b10 {
b100010000 J
b100010000 0"
b100010001 I
b100010001 6"
b100001111 E
b100001111 *"
b100001111 !"
b1110101 :
b1111111111111101 <"
10
#1270000
00
#1275000
b1110110 :
b11 m
b100010011 J
b100010011 0"
b100010100 I
b100010100 6"
b100010010 E
b100010010 *"
b100010010 !"
10
#1280000
00
#1285000
b11 r
b0 m
1t
b100010110 J
b100010110 0"
b100010111 I
b100010111 6"
b100010101 E
b100010101 *"
b100010101 !"
b1110111 :
10
#1290000
00
#1295000
b1111000 :
b1 m
1y
0t
b11 v
b100001101 J
b100001101 0"
b100001110 I
b100001110 6"
b100001100 E
b100001100 *"
b100001100 !"
10
#1300000
00
#1305000
b10 m
0y
b11 {
b100010000 J
b100010000 0"
b100010001 I
b100010001 6"
b100001111 E
b100001111 *"
b100001111 !"
b1111001 :
b1111111111111101 <"
10
#1310000
00
#1315000
b1111010 :
b11 m
b100010011 J
b100010011 0"
b100010100 I
b100010100 6"
b100010010 E
b100010010 *"
b100010010 !"
10
#1320000
00
#1325000
b100 r
b0 m
1t
b100010110 J
b100010110 0"
b100010111 I
b100010111 6"
b100010101 E
b100010101 *"
b100010101 !"
b1111011 :
10
#1330000
00
#1335000
b1111100 :
b1 m
1y
0t
b100 v
b100001101 J
b100001101 0"
b100001110 I
b100001110 6"
b100001100 E
b100001100 *"
b100001100 !"
10
#1340000
00
#1345000
b10 m
0y
b100 {
b100010000 J
b100010000 0"
b100010001 I
b100010001 6"
b100001111 E
b100001111 *"
b100001111 !"
b1111101 :
b1111111111111101 <"
10
#1350000
00
#1355000
b1111110 :
b11 m
b100010011 J
b100010011 0"
b100010100 I
b100010100 6"
b100010010 E
b100010010 *"
b100010010 !"
10
#1360000
00
#1365000
b101 r
b0 m
1t
b100010110 J
b100010110 0"
b100010111 I
b100010111 6"
b100010101 E
b100010101 *"
b100010101 !"
b1111111 :
10
#1370000
00
#1375000
b10000000 :
b1 m
1y
0t
b101 v
b100001101 J
b100001101 0"
b100001110 I
b100001110 6"
b100001100 E
b100001100 *"
b100001100 !"
10
#1380000
00
#1385000
b10 m
0y
b101 {
b100010000 J
b100010000 0"
b100010001 I
b100010001 6"
b100001111 E
b100001111 *"
b100001111 !"
b10000001 :
b1111111111111101 <"
10
#1390000
00
#1395000
b10000010 :
b11 m
b100010011 J
b100010011 0"
b100010100 I
b100010100 6"
b100010010 E
b100010010 *"
b100010010 !"
10
#1400000
00
#1405000
b110 r
b0 m
1t
b100010110 J
b100010110 0"
b100010111 I
b100010111 6"
b100010101 E
b100010101 *"
b100010101 !"
b10000011 :
10
#1410000
00
#1415000
b10000100 :
b1 m
1y
0t
b110 v
b100001101 J
b100001101 0"
b100001110 I
b100001110 6"
b100001100 E
b100001100 *"
b100001100 !"
10
#1420000
00
#1425000
b10 m
0y
b110 {
b100010000 J
b100010000 0"
b100010001 I
b100010001 6"
b100001111 E
b100001111 *"
b100001111 !"
b10000101 :
b1111111111111101 <"
10
#1430000
00
#1435000
b10000110 :
b11 m
b100010011 J
b100010011 0"
b100010100 I
b100010100 6"
b100010010 E
b100010010 *"
b100010010 !"
10
#1440000
00
#1445000
b111 r
b0 m
1t
b100010110 J
b100010110 0"
b100010111 I
b100010111 6"
b100010101 E
b100010101 *"
b100010101 !"
b10000111 :
10
#1450000
00
#1455000
b10001000 :
b1 m
1y
0t
b111 v
b100001101 J
b100001101 0"
b100001110 I
b100001110 6"
b100001100 E
b100001100 *"
b100001100 !"
10
#1460000
00
#1465000
b10 m
0y
b111 {
b100010000 J
b100010000 0"
b100010001 I
b100010001 6"
b100001111 E
b100001111 *"
b100001111 !"
b10001001 :
b1111111111111101 <"
10
#1470000
00
#1475000
b10001010 :
b11 m
b100010011 J
b100010011 0"
b100010100 I
b100010100 6"
b100010010 E
b100010010 *"
b100010010 !"
10
#1480000
00
#1485000
b10 q
b0 r
b0 m
1t
b100010110 J
b100010110 0"
b100010111 I
b100010111 6"
b100010101 E
b100010101 *"
b100010101 !"
b10001011 :
10
#1490000
00
#1495000
b10001100 :
b1 m
1y
0t
b0 v
b10 u
b100010 h
b100010 $"
b100011001 J
b100011001 0"
b100011010 I
b100011010 6"
b100011000 E
b100011000 *"
b100011000 !"
10
#1500000
00
#1505000
b10000 O
b10000 ("
b10 m
0y
b0 {
b10 z
b100011100 J
b100011100 0"
b100011101 I
b100011101 6"
b100011011 E
b100011011 *"
b100011011 !"
b10001101 :
b1111111111111101 <"
10
#1510000
00
#1515000
b10001110 :
b11 m
b100011111 J
b100011111 0"
b100100000 I
b100100000 6"
b100011110 E
b100011110 *"
b100011110 !"
10
#1520000
00
#1525000
b1 r
b0 m
1t
b100100010 J
b100100010 0"
b100100011 I
b100100011 6"
b100100001 E
b100100001 *"
b100100001 !"
b10001111 :
10
#1530000
00
#1535000
b10010000 :
b1 m
1y
0t
b1 v
b100011001 J
b100011001 0"
b100011010 I
b100011010 6"
b100011000 E
b100011000 *"
b100011000 !"
10
#1540000
00
#1545000
b10 m
0y
b1 {
b100011100 J
b100011100 0"
b100011101 I
b100011101 6"
b100011011 E
b100011011 *"
b100011011 !"
b10010001 :
b10000 <"
b10000 ="
10
#1550000
00
#1555000
b10010010 :
b11 m
b100011111 J
b100011111 0"
b100100000 I
b100100000 6"
b100011110 E
b100011110 *"
b100011110 !"
10
#1560000
00
#1565000
b10 r
b0 m
1t
b100100010 J
b100100010 0"
b100100011 I
b100100011 6"
b100100001 E
b100100001 *"
b100100001 !"
b10010011 :
10
#1570000
00
#1575000
b10010100 :
b1 m
1y
0t
b10 v
b100011001 J
b100011001 0"
b100011010 I
b100011010 6"
b100011000 E
b100011000 *"
b100011000 !"
10
#1580000
00
#1585000
b10 m
0y
b10 {
b100011100 J
b100011100 0"
b100011101 I
b100011101 6"
b100011011 E
b100011011 *"
b100011011 !"
b10010101 :
10
#1590000
00
#1595000
b10010110 :
b11 m
b100011111 J
b100011111 0"
b100100000 I
b100100000 6"
b100011110 E
b100011110 *"
b100011110 !"
10
#1600000
00
#1605000
b11 r
b0 m
1t
b100100010 J
b100100010 0"
b100100011 I
b100100011 6"
b100100001 E
b100100001 *"
b100100001 !"
b10010111 :
10
#1610000
00
#1615000
b10011000 :
b1 m
1y
0t
b11 v
b100011001 J
b100011001 0"
b100011010 I
b100011010 6"
b100011000 E
b100011000 *"
b100011000 !"
10
#1620000
00
#1625000
b10 m
0y
b11 {
b100011100 J
b100011100 0"
b100011101 I
b100011101 6"
b100011011 E
b100011011 *"
b100011011 !"
b10011001 :
10
#1630000
00
#1635000
b10011010 :
b11 m
b100011111 J
b100011111 0"
b100100000 I
b100100000 6"
b100011110 E
b100011110 *"
b100011110 !"
10
#1640000
00
