rtl/ofdmGAN/tb_generator_mini.vcd
$date
	Fri Dec 19 15:39:41 2025
$end
$version
	Icarus Verilog
$end
$timescale
	1ps
$end
$scope module tb_generator_mini $end
$var wire 1 ! valid_out $end
$var wire 1 " ready_in $end
$var wire 1 # done $end
$var wire 16 $ data_out [15:0] $end
$var wire 1 % busy $end
$var parameter 32 & ACC_WIDTH $end
$var parameter 32 ' CLK_PERIOD $end
$var parameter 32 ( DATA_WIDTH $end
$var parameter 32 ) FRAME_LEN $end
$var parameter 32 * IN_CH $end
$var parameter 32 + OUT_CH $end
$var parameter 32 , TIMEOUT $end
$var parameter 32 - WEIGHT_WIDTH $end
$var reg 1 . clk $end
$var reg 16 / cond_in [15:0] $end
$var reg 1 0 cond_valid $end
$var reg 16 1 data_in [15:0] $end
$var reg 1 2 input_timeout $end
$var reg 4 3 prev_state [3:0] $end
$var reg 1 4 ready_out $end
$var reg 1 5 rst_n $end
$var reg 1 6 start $end
$var reg 128 7 state_name [127:0] $end
$var reg 1 8 valid_in $end
$var integer 32 9 cycle_count [31:0] $end
$var integer 32 : error_count [31:0] $end
$var real 1 ; evm_percent $end
$var integer 32 < i [31:0] $end
$var integer 32 = in_idx [31:0] $end
$var real 1 > input_power $end
$var real 1 ? noise_power $end
$var integer 32 @ out_idx [31:0] $end
$var real 1 A snr_input_db $end
$var real 1 B snr_output_db $end
$var integer 32 C start_cycle [31:0] $end
$var integer 32 D test_num [31:0] $end
$var integer 32 E total_cycles [31:0] $end
$var integer 32 F total_errors [31:0] $end
$var integer 32 G total_tests [31:0] $end
$scope function get_state_str $end
$var reg 4 H st [3:0] $end
$upscope $end
$scope module dut $end
$var wire 1 % busy $end
$var wire 1 . clk $end
$var wire 16 I cond_in [15:0] $end
$var wire 1 0 cond_valid $end
$var wire 16 J data_in [15:0] $end
$var wire 1 4 ready_out $end
$var wire 1 5 rst_n $end
$var wire 1 6 start $end
$var wire 1 8 valid_in $end
$var wire 11 K weight_addr_k0 [10:0] $end
$var wire 8 L weight_k2 [7:0] $end
$var wire 8 M weight_k1 [7:0] $end
$var wire 8 N weight_k0 [7:0] $end
$var wire 11 O weight_addr_k2 [10:0] $end
$var wire 11 P weight_addr_k1 [10:0] $end
$var wire 1 " ready_in $end
$var wire 24 Q mult_k2 [23:0] $end
$var wire 24 R mult_k1 [23:0] $end
$var wire 24 S mult_k0 [23:0] $end
$var wire 32 T kernel_sum [31:0] $end
$var wire 1 # done $end
$var wire 16 U bias_data [15:0] $end
$var parameter 32 V ACC_WIDTH $end
$var parameter 32 W BADDR_BNECK $end
$var parameter 32 X BADDR_DEC1 $end
$var parameter 32 Y BADDR_ENC1 $end
$var parameter 32 Z BADDR_OUT $end
$var parameter 32 [ BNECK_OUT_CH $end
$var parameter 32 \ BNECK_OUT_LEN $end
$var parameter 32 ] DATA_WIDTH $end
$var parameter 32 ^ DEC1_OUT_CH $end
$var parameter 32 _ DEC1_OUT_LEN $end
$var parameter 32 ` ENC1_OUT_CH $end
$var parameter 32 a ENC1_OUT_LEN $end
$var parameter 32 b FRAME_LEN $end
$var parameter 32 c IN_CH $end
$var parameter 32 d OUT_CH $end
$var parameter 4 e ST_BNECK $end
$var parameter 4 f ST_DEC1 $end
$var parameter 4 g ST_DONE $end
$var parameter 4 h ST_ENC1 $end
$var parameter 4 i ST_IDLE $end
$var parameter 4 j ST_LOAD_IN $end
$var parameter 4 k ST_OUTPUT $end
$var parameter 4 l ST_OUT_CONV $end
$var parameter 4 m ST_SKIP_ADD $end
$var parameter 4 n ST_TANH $end
$var parameter 4 o ST_UPSAMPLE1 $end
$var parameter 4 p ST_UPSAMPLE2 $end
$var parameter 32 q UP1_LEN $end
$var parameter 32 r WADDR_BNECK $end
$var parameter 32 s WADDR_DEC1 $end
$var parameter 32 t WADDR_ENC1 $end
$var parameter 32 u WADDR_OUT $end
$var parameter 32 v WEIGHT_WIDTH $end
$var reg 6 w bias_addr [5:0] $end
$var reg 16 x data_k0 [15:0] $end
$var reg 16 y data_k1 [15:0] $end
$var reg 16 z data_k2 [15:0] $end
$var reg 16 { data_out [15:0] $end
$var reg 3 | in_ch_cnt [2:0] $end
$var reg 4 } in_ch_iter [3:0] $end
$var reg 5 ~ in_pos_cnt [4:0] $end
$var reg 4 !" next_state [3:0] $end
$var reg 4 "" out_ch_cnt [3:0] $end
$var reg 5 #" out_pos_cnt [4:0] $end
$var reg 3 $" pipe_flush [2:0] $end
$var reg 1 %" pipe_s2_last_in_ch $end
$var reg 4 &" pipe_s2_out_ch [3:0] $end
$var reg 5 '" pipe_s2_out_pos [4:0] $end
$var reg 1 (" pipe_s2_valid $end
$var reg 32 )" pipe_s3_ksum [31:0] $end
$var reg 1 *" pipe_s3_last_in_ch $end
$var reg 4 +" pipe_s3_out_ch [3:0] $end
$var reg 5 ," pipe_s3_out_pos [4:0] $end
$var reg 1 -" pipe_s3_valid $end
$var reg 4 ." state [3:0] $end
$var reg 1 ! valid_out $end
$var reg 11 /" weight_addr_base [10:0] $end
$var integer 32 0" i [31:0] $end
$var integer 32 1" j [31:0] $end
$scope module u_bias_rom $end
$var wire 6 2" addr [5:0] $end
$var wire 1 . clk $end
$var parameter 32 3" ADDR_WIDTH $end
$var parameter 32 4" DATA_WIDTH $end
$var parameter 32 5" DEPTH $end
$var reg 16 6" data [15:0] $end
$var integer 32 7" init_i [31:0] $end
$upscope $end
$scope module u_wrom_k0 $end
$var wire 11 8" addr [10:0] $end
$var wire 1 . clk $end
$var parameter 32 9" ADDR_WIDTH $end
$var parameter 32 :" DEPTH $end
$var parameter 32 ;" WEIGHT_WIDTH $end
$var reg 8 <" data [7:0] $end
$var integer 32 =" init_i [31:0] $end
$upscope $end
$scope module u_wrom_k1 $end
$var wire 11 >" addr [10:0] $end
$var wire 1 . clk $end
$var parameter 32 ?" ADDR_WIDTH $end
$var parameter 32 @" DEPTH $end
$var parameter 32 A" WEIGHT_WIDTH $end
$var reg 8 B" data [7:0] $end
$var integer 32 C" init_i [31:0] $end
$upscope $end
$scope module u_wrom_k2 $end
$var wire 11 D" addr [10:0] $end
$var wire 1 . clk $end
$var parameter 32 E" ADDR_WIDTH $end
$var parameter 32 F" DEPTH $end
$var parameter 32 G" WEIGHT_WIDTH $end
$var reg 8 H" data [7:0] $end
$var integer 32 I" init_i [31:0] $end
$upscope $end
$scope begin bneck_store $end
$var reg 16 J" result [15:0] $end
$var reg 32 K" sum [31:0] $end
$upscope $end
$scope begin dec1_store $end
$var reg 16 L" result [15:0] $end
$var reg 32 M" sum [31:0] $end
$upscope $end
$scope begin enc1_store $end
$var reg 16 N" result [15:0] $end
$var reg 32 O" sum [31:0] $end
$upscope $end
$scope begin out_store $end
$var reg 32 P" sum [31:0] $end
$upscope $end
$scope begin skip_add_blk $end
$var reg 32 Q" sum [31:0] $end
$upscope $end
$upscope $end
$scope task run_ofdm_test $end
$var integer 32 R" measure_snr [31:0] $end
$var integer 32 S" test_id [31:0] $end
$scope begin snr_calc_block $end
$var integer 32 T" err_pwr_int [31:0] $end
$var integer 32 U" err_val [31:0] $end
$var integer 32 V" out_val [31:0] $end
$var integer 32 W" sig_pwr_int [31:0] $end
$var integer 32 X" sig_val [31:0] $end
$upscope $end
$upscope $end
$scope task run_test $end
$var integer 32 Y" test_id [31:0] $end
$upscope $end
$upscope $end
$enddefinitions $end
$comment Show the parameter values. $end
$dumpall
b1000 G"
b100000000000 F"
b1011 E"
b1000 A"
b100000000000 @"
b1011 ?"
b1000 ;"
b100000000000 :"
b1011 9"
b1000000 5"
b10000 4"
b110 3"
b1000 v
b11011000 u
b0 t
b1111000 s
b11000 r
b1000 q
b111 p
b100 o
b1001 n
b110 m
b1000 l
b1010 k
b1 j
b0 i
b10 h
b1011 g
b101 f
b11 e
b10 d
b10 c
b10000 b
b1000 a
b100 `
b1000 _
b100 ^
b10000 ]
b100 \
b1000 [
b10000 Z
b0 Y
b1100 X
b100 W
b100000 V
b1000 -
b11000011010100000 ,
b10 +
b10 *
b10000 )
b10000 (
b1010 '
b100000 &
$end
#0
$dumpvars
bx Y"
bx X"
bx W"
bx V"
bx U"
bx T"
bx S"
bx R"
bx Q"
bx P"
bx O"
bx N"
bx M"
bx L"
bx K"
bx J"
b100000000000 I"
bx H"
b10 D"
b100000000000 C"
bx B"
b1 >"
b100000000000 ="
bx <"
b0 8"
b1000000 7"
bx 6"
b0 2"
b10010 1"
b10 0"
b0 /"
b0 ."
0-"
bx ,"
bx +"
x*"
bx )"
0("
bx '"
bx &"
x%"
b0 $"
b0 #"
b0 ""
b0 !"
b0 ~
b0 }
b0 |
b0 {
b0 z
b0 y
b0 x
b0 w
bx U
bx T
bx S
bx R
bx Q
b1 P
b10 O
bx N
bx M
bx L
b0 K
b0 J
b0 I
bx H
b0 G
b0 F
bx E
bx D
bx C
r0 B
r0 A
bx @
r0 ?
r0 >
bx =
bx <
r0 ;
bx :
b0 9
08
b1001001010001000100110001000101 7
06
05
14
bx 3
x2
b0 1
00
b0 /
0.
0%
b0 $
0#
0"
0!
$end
#5000
b0 T
b0 S
b100000 N
b100000 <"
b0 R
b1000000 M
b1000000 B"
b0 Q
b100000 L
b100000 H"
b10000 U
b10000 6"
b0 3
b10000 1"
b10 0"
1.
#10000
0.
#15000
b10010 1"
b10 0"
1.
#20000
0.
#25000
b10000 1"
b10 0"
1.
#30000
0.
#35000
b10010 1"
b10 0"
1.
#40000
0.
#45000
b10000 1"
b10 0"
1.
#50000
0.
#55000
b10010 1"
b10 0"
1.
#60000
0.
#65000
b10000 1"
b10 0"
1.
#70000
0.
#75000
b10010 1"
b10 0"
1.
#80000
0.
#85000
b10000 1"
b10 0"
1.
#90000
0.
#95000
15
b10010 1"
b10 0"
1.
#100000
0.
#105000
b1 9
b10000 0"
1.
#110000
0.
#115000
b10 9
b10000 0"
1.
#120000
0.
#125000
b11 9
b10000 0"
1.
#130000
0.
#135000
b100 9
b10000 0"
1.
#140000
0.
#145000
b101 9
02
b0 @
b0 =
b0 :
b1 G
b1 D
b1 Y"
b100000 <
b10000 0"
1.
#150000
0.
#155000
b110 9
b10000 0"
1.
#160000
0.
#165000
b111 9
b10000 0"
1.
#170000
0.
#175000
b1000 9
b1 !"
b111 C
16
b10000 0"
1.
#180000
0.
#185000
1%
b1001100010011110100000101000100010111110100100101001110 7
b1001 9
1"
b1 ."
b1 !"
06
b10010 1"
b10000 0"
1.
#190000
0.
#195000
b1 3
b1010 9
b1 H
b1 =
10
18
b10000 0"
1.
#200000
0.
#205000
b1011 9
b1 ~
b10 =
b10000 0"
1.
#210000
0.
#215000
b10 ~
b1100 9
b11 =
b10000 0"
1.
#220000
0.
#225000
b1101 9
b11 ~
b100 =
b10000 0"
1.
#230000
0.
#235000
b100 ~
b1110 9
b101 =
b10000 0"
1.
#240000
0.
#245000
b1111 9
b101 ~
b110 =
b10000 0"
1.
#250000
0.
#255000
b110 ~
b10000 9
b111 =
b10000 0"
1.
#260000
0.
#265000
b10001 9
b111 ~
b1000 =
b10000 0"
1.
#270000
0.
#275000
b1000 ~
b10010 9
b1001 =
b10000 0"
1.
#280000
0.
#285000
b10011 9
b1001 ~
b1010 =
b10000 0"
1.
#290000
0.
#295000
b1010 ~
b10100 9
b1011 =
b10000 0"
1.
#300000
0.
#305000
b10101 9
b1011 ~
b1100 =
b10000 0"
1.
#310000
0.
#315000
b1100 ~
b10110 9
b1101 =
b10000 0"
1.
#320000
0.
#325000
b10111 9
b1101 ~
b1110 =
b10000 0"
1.
#330000
0.
#335000
b1110 ~
b11000 9
b1111 =
b10000 0"
1.
#340000
0.
#345000
b11001 9
b1111 ~
b10000 =
b10000 0"
1.
#350000
0.
#355000
b1 |
b0 ~
b11010 9
b10001 =
b10000 0"
1.
#360000
0.
#365000
b11011 9
b1 ~
b10010 =
b10000 0"
1.
#370000
0.
#375000
b10 ~
b11100 9
b10011 =
b10000 0"
1.
#380000
0.
#385000
b11101 9
b11 ~
b10100 =
b10000 0"
1.
#390000
0.
#395000
b100 ~
b11110 9
b10101 =
b10000 0"
1.
#400000
0.
#405000
b11111 9
b101 ~
b10110 =
b10000 0"
1.
#410000
0.
#415000
b110 ~
b100000 9
b10111 =
b10000 0"
1.
#420000
0.
#425000
b100001 9
b111 ~
b11000 =
b10000 0"
1.
#430000
0.
#435000
b1000 ~
b100010 9
b11001 =
b10000 0"
1.
#440000
0.
#445000
b100011 9
b1001 ~
b11010 =
b10000 0"
1.
#450000
0.
#455000
b1010 ~
b100100 9
b11011 =
b10000 0"
1.
#460000
0.
#465000
b100101 9
b1011 ~
b11100 =
b10000 0"
1.
#470000
0.
#475000
b1100 ~
b100110 9
b11101 =
b10000 0"
1.
#480000
0.
#485000
b100111 9
b1101 ~
b11110 =
b10000 0"
1.
#490000
0.
#495000
b1110 ~
b101000 9
b11111 =
b10000 0"
1.
#500000
0.
#505000
b10 !"
b101001 9
b1111 ~
b100000 =
b10000 0"
1.
#510000
0.
#515000
b1000101010011100100001100110001 7
0"
b10 ."
b10 |
b0 ~
b101010 9
b10 !"
00
08
b10000 0"
1.
#520000
0.
#525000
b10 3
b101011 9
b1 }
b0 )"
0%"
b0 '"
b0 &"
1("
b10 H
1.
#530000
0.
#535000
b1 #"
b0 }
0*"
b0 ,"
b0 +"
1-"
1%"
b100 P
b100 >"
b101 O
b101 D"
b11 K
b11 8"
b11 /"
b101100 9
1.
#540000
0.
#545000
b11000 N
b11000 <"
b1001000 M
b1001000 B"
b11000 L
b11000 H"
b101101 9
b1 }
1*"
0%"
b1 '"
b1 P
b1 >"
b10 O
b10 D"
b0 K
b0 8"
b0 /"
1.
#550000
0.
#555000
b100000 L
b100000 H"
b1000000 M
b1000000 B"
b100000 N
b100000 <"
b10 #"
b0 }
0*"
b1 ,"
1%"
b100 P
b100 >"
b101 O
b101 D"
b11 K
b11 8"
b11 /"
b101110 9
b10000 N"
b10000 O"
1.
#560000
0.
#565000
b11000 N
b11000 <"
b1001000 M
b1001000 B"
b11000 L
b11000 H"
b101111 9
b1 }
1*"
0%"
b10 '"
b1 P
b1 >"
b10 O
b10 D"
b0 K
b0 8"
b0 /"
1.
#570000
0.
#575000
b100000 L
b100000 H"
b1000000 M
b1000000 B"
b100000 N
b100000 <"
b11 #"
b0 }
0*"
b10 ,"
1%"
b100 P
b100 >"
b101 O
b101 D"
b11 K
b11 8"
b11 /"
b110000 9
1.
#580000
0.
#585000
b11000 N
b11000 <"
b1001000 M
b1001000 B"
b11000 L
b11000 H"
b110001 9
b1 }
1*"
0%"
b11 '"
b1 P
b1 >"
b10 O
b10 D"
b0 K
b0 8"
b0 /"
1.
#590000
0.
#595000
b100000 L
b100000 H"
b1000000 M
b1000000 B"
b100000 N
b100000 <"
b100 #"
b0 }
0*"
b11 ,"
1%"
b100 P
b100 >"
b101 O
b101 D"
b11 K
b11 8"
b11 /"
b110010 9
1.
#600000
0.
#605000
b11000 N
b11000 <"
b1001000 M
b1001000 B"
b11000 L
b11000 H"
b110011 9
b1 }
1*"
0%"
b100 '"
b1 P
b1 >"
b10 O
b10 D"
b0 K
b0 8"
b0 /"
1.
#610000
0.
#615000
b100000 L
b100000 H"
b1000000 M
b1000000 B"
b100000 N
b100000 <"
b101 #"
b0 }
0*"
b100 ,"
1%"
b100 P
b100 >"
b101 O
b101 D"
b11 K
b11 8"
b11 /"
b110100 9
1.
#620000
0.
#625000
b11000 N
b11000 <"
b1001000 M
b1001000 B"
b11000 L
b11000 H"
b110101 9
b1 }
1*"
0%"
b101 '"
b1 P
b1 >"
b10 O
b10 D"
b0 K
b0 8"
b0 /"
1.
#630000
0.
#635000
b100000 L
b100000 H"
b1000000 M
b1000000 B"
b100000 N
b100000 <"
b110 #"
b0 }
0*"
b101 ,"
1%"
b100 P
b100 >"
b101 O
b101 D"
b11 K
b11 8"
b11 /"
b110110 9
1.
#640000
0.
#645000
b11000 N
b11000 <"
b1001000 M
b1001000 B"
b11000 L
b11000 H"
b110111 9
b1 }
1*"
0%"
b110 '"
b1 P
b1 >"
b10 O
b10 D"
b0 K
b0 8"
b0 /"
1.
#650000
0.
#655000
b100000 L
b100000 H"
b1000000 M
b1000000 B"
b100000 N
b100000 <"
b111 #"
b0 }
0*"
b110 ,"
1%"
b100 P
b100 >"
b101 O
b101 D"
b11 K
b11 8"
b11 /"
b111000 9
1.
#660000
0.
#665000
b11000 N
b11000 <"
b1001000 M
b1001000 B"
b11000 L
b11000 H"
b111001 9
b1 }
1*"
0%"
b111 '"
b1 P
b1 >"
b10 O
b10 D"
b0 K
b0 8"
b0 /"
1.
#670000
0.
#675000
b100000 L
b100000 H"
b1000000 M
b1000000 B"
b100000 N
b100000 <"
b1 ""
b0 #"
b0 }
0*"
b111 ,"
1%"
b100 P
b100 >"
b101 O
b101 D"
b11 K
b11 8"
b11 /"
b111010 9
1.
#680000
0.
#685000
b11000 N
b11000 <"
b1001000 M
b1001000 B"
b11000 L
b11000 H"
b111011 9
b1 }
1*"
0%"
b0 '"
b1 &"
b1 w
b1 2"
b111 P
b111 >"
b1000 O
b1000 D"
b110 K
b110 8"
b110 /"
1.
#690000
0.
#695000
b1111111111110000 U
b1111111111110000 6"
b110000 L
b110000 H"
b111000 M
b111000 B"
b110000 N
b110000 <"
b1 #"
b0 }
0*"
b0 ,"
b1 +"
1%"
b1010 P
b1010 >"
b1011 O
b1011 D"
b1001 K
b1001 8"
b1001 /"
b111100 9
1.
#700000
0.
#705000
b101000 N
b101000 <"
b1010000 M
b1010000 B"
b101000 L
b101000 H"
b111101 9
b1 }
1*"
0%"
b1 '"
b111 P
b111 >"
b1000 O
b1000 D"
b110 K
b110 8"
b110 /"
1.
#710000
0.
#715000
b110000 L
b110000 H"
b111000 M
b111000 B"
b110000 N
b110000 <"
b10 #"
b0 }
0*"
b1 ,"
1%"
b1010 P
b1010 >"
b1011 O
b1011 D"
b1001 K
b1001 8"
b1001 /"
b111110 9
b1111111111111011 N"
b11111111111111111111111111110000 O"
1.
#720000
0.
#725000
b101000 N
b101000 <"
b1010000 M
b1010000 B"
b101000 L
b101000 H"
b111111 9
b1 }
1*"
0%"
b10 '"
b111 P
b111 >"
b1000 O
b1000 D"
b110 K
b110 8"
b110 /"
1.
#730000
0.
#735000
b110000 L
b110000 H"
b111000 M
b111000 B"
b110000 N
b110000 <"
b11 #"
b0 }
0*"
b10 ,"
1%"
b1010 P
b1010 >"
b1011 O
b1011 D"
b1001 K
b1001 8"
b1001 /"
b1000000 9
b1111111111111011 N"
1.
#740000
0.
#745000
b101000 N
b101000 <"
b1010000 M
b1010000 B"
b101000 L
b101000 H"
b1000001 9
b1 }
1*"
0%"
b11 '"
b111 P
b111 >"
b1000 O
b1000 D"
b110 K
b110 8"
b110 /"
1.
#750000
0.
#755000
b110000 L
b110000 H"
b111000 M
b111000 B"
b110000 N
b110000 <"
b100 #"
b0 }
0*"
b11 ,"
1%"
b1010 P
b1010 >"
b1011 O
b1011 D"
b1001 K
b1001 8"
b1001 /"
b1000010 9
b1111111111111011 N"
1.
#760000
0.
#765000
b101000 N
b101000 <"
b1010000 M
b1010000 B"
b101000 L
b101000 H"
b1000011 9
b1 }
1*"
0%"
b100 '"
b111 P
b111 >"
b1000 O
b1000 D"
b110 K
b110 8"
b110 /"
1.
#770000
0.
#775000
b110000 L
b110000 H"
b111000 M
b111000 B"
b110000 N
b110000 <"
b101 #"
b0 }
0*"
b100 ,"
1%"
b1010 P
b1010 >"
b1011 O
b1011 D"
b1001 K
b1001 8"
b1001 /"
b1000100 9
b1111111111111011 N"
1.
#780000
0.
#785000
b101000 N
b101000 <"
b1010000 M
b1010000 B"
b101000 L
b101000 H"
b1000101 9
b1 }
1*"
0%"
b101 '"
b111 P
b111 >"
b1000 O
b1000 D"
b110 K
b110 8"
b110 /"
1.
#790000
0.
#795000
b110000 L
b110000 H"
b111000 M
b111000 B"
b110000 N
b110000 <"
b110 #"
b0 }
0*"
b101 ,"
1%"
b1010 P
b1010 >"
b1011 O
b1011 D"
b1001 K
b1001 8"
b1001 /"
b1000110 9
b1111111111111011 N"
1.
#800000
0.
#805000
b101000 N
b101000 <"
b1010000 M
b1010000 B"
b101000 L
b101000 H"
b1000111 9
b1 }
1*"
0%"
b110 '"
b111 P
b111 >"
b1000 O
b1000 D"
b110 K
b110 8"
b110 /"
1.
#810000
0.
#815000
b110000 L
b110000 H"
b111000 M
b111000 B"
b110000 N
b110000 <"
b111 #"
b0 }
0*"
b110 ,"
1%"
b1010 P
b1010 >"
b1011 O
b1011 D"
b1001 K
b1001 8"
b1001 /"
b1001000 9
b1111111111111011 N"
1.
#820000
0.
#825000
b101000 N
b101000 <"
b1010000 M
b1010000 B"
b101000 L
b101000 H"
b1001001 9
b1 }
1*"
0%"
b111 '"
b111 P
b111 >"
b1000 O
b1000 D"
b110 K
b110 8"
b110 /"
1.
#830000
0.
#835000
b110000 L
b110000 H"
b111000 M
b111000 B"
b110000 N
b110000 <"
b10 ""
b0 #"
b0 }
0*"
b111 ,"
1%"
b1010 P
b1010 >"
b1011 O
b1011 D"
b1001 K
b1001 8"
b1001 /"
b1001010 9
b1111111111111011 N"
1.
#840000
0.
#845000
b101000 N
b101000 <"
b1010000 M
b1010000 B"
b101000 L
b101000 H"
b1001011 9
b1 }
1*"
0%"
b0 '"
b10 &"
b10 w
b10 2"
b1101 P
b1101 >"
b1110 O
b1110 D"
b1100 K
b1100 8"
b1100 /"
1.
#850000
0.
#855000
b1000 U
b1000 6"
b10000 L
b10000 H"
b1100000 M
b1100000 B"
b10000 N
b10000 <"
b1 #"
b0 }
0*"
b0 ,"
b10 +"
1%"
b10000 P
b10000 >"
b10001 O
b10001 D"
b1111 K
b1111 8"
b1111 /"
b1001100 9
b1111111111111011 N"
1.
#860000
0.
#865000
b111000 N
b111000 <"
b110000 M
b110000 B"
b111000 L
b111000 H"
b1001101 9
b1 }
1*"
0%"
b1 '"
b1101 P
b1101 >"
b1110 O
b1110 D"
b1100 K
b1100 8"
b1100 /"
1.
#870000
0.
#875000
b10000 L
b10000 H"
b1100000 M
b1100000 B"
b10000 N
b10000 <"
b10 #"
b0 }
0*"
b1 ,"
1%"
b10000 P
b10000 >"
b10001 O
b10001 D"
b1111 K
b1111 8"
b1111 /"
b1001110 9
b1000 N"
b1000 O"
1.
#880000
0.
#885000
b111000 N
b111000 <"
b110000 M
b110000 B"
b111000 L
b111000 H"
b1001111 9
b1 }
1*"
0%"
b10 '"
b1101 P
b1101 >"
b1110 O
b1110 D"
b1100 K
b1100 8"
b1100 /"
1.
#890000
0.
#895000
b10000 L
b10000 H"
b1100000 M
b1100000 B"
b10000 N
b10000 <"
b11 #"
b0 }
0*"
b10 ,"
1%"
b10000 P
b10000 >"
b10001 O
b10001 D"
b1111 K
b1111 8"
b1111 /"
b1010000 9
1.
#900000
0.
#905000
b111000 N
b111000 <"
b110000 M
b110000 B"
b111000 L
b111000 H"
b1010001 9
b1 }
1*"
0%"
b11 '"
b1101 P
b1101 >"
b1110 O
b1110 D"
b1100 K
b1100 8"
b1100 /"
1.
#910000
0.
#915000
b10000 L
b10000 H"
b1100000 M
b1100000 B"
b10000 N
b10000 <"
b100 #"
b0 }
0*"
b11 ,"
1%"
b10000 P
b10000 >"
b10001 O
b10001 D"
b1111 K
b1111 8"
b1111 /"
b1010010 9
1.
#920000
0.
#925000
b111000 N
b111000 <"
b110000 M
b110000 B"
b111000 L
b111000 H"
b1010011 9
b1 }
1*"
0%"
b100 '"
b1101 P
b1101 >"
b1110 O
b1110 D"
b1100 K
b1100 8"
b1100 /"
1.
#930000
0.
#935000
b10000 L
b10000 H"
b1100000 M
b1100000 B"
b10000 N
b10000 <"
b101 #"
b0 }
0*"
b100 ,"
1%"
b10000 P
b10000 >"
b10001 O
b10001 D"
b1111 K
b1111 8"
b1111 /"
b1010100 9
1.
#940000
0.
#945000
b111000 N
b111000 <"
b110000 M
b110000 B"
b111000 L
b111000 H"
b1010101 9
b1 }
1*"
0%"
b101 '"
b1101 P
b1101 >"
b1110 O
b1110 D"
b1100 K
b1100 8"
b1100 /"
1.
#950000
0.
#955000
b10000 L
b10000 H"
b1100000 M
b1100000 B"
b10000 N
b10000 <"
b110 #"
b0 }
0*"
b101 ,"
1%"
b10000 P
b10000 >"
b10001 O
b10001 D"
b1111 K
b1111 8"
b1111 /"
b1010110 9
1.
#960000
0.
#965000
b111000 N
b111000 <"
b110000 M
b110000 B"
b111000 L
b111000 H"
b1010111 9
b1 }
1*"
0%"
b110 '"
b1101 P
b1101 >"
b1110 O
b1110 D"
b1100 K
b1100 8"
b1100 /"
1.
#970000
0.
#975000
b10000 L
b10000 H"
b1100000 M
b1100000 B"
b10000 N
b10000 <"
b111 #"
b0 }
0*"
b110 ,"
1%"
b10000 P
b10000 >"
b10001 O
b10001 D"
b1111 K
b1111 8"
b1111 /"
b1011000 9
1.
#980000
0.
#985000
b111000 N
b111000 <"
b110000 M
b110000 B"
b111000 L
b111000 H"
b1011001 9
b1 }
1*"
0%"
b111 '"
b1101 P
b1101 >"
b1110 O
b1110 D"
b1100 K
b1100 8"
b1100 /"
1.
#990000
0.
#995000
b10000 L
b10000 H"
b1100000 M
b1100000 B"
b10000 N
b10000 <"
b11 ""
b0 #"
b0 }
0*"
b111 ,"
1%"
b10000 P
b10000 >"
b10001 O
b10001 D"
b1111 K
b1111 8"
b1111 /"
b1011010 9
1.
#1000000
0.
#1005000
b111000 N
b111000 <"
b110000 M
b110000 B"
b111000 L
b111000 H"
b1011011 9
b1 }
1*"
0%"
b0 '"
b11 &"
b11 w
b11 2"
b10011 P
b10011 >"
b10100 O
b10100 D"
b10010 K
b10010 8"
b10010 /"
1.
#1010000
0.
#1015000
b1111111111111000 U
b1111111111111000 6"
b100000 L
b100000 H"
b1011000 M
b1011000 B"
b100000 N
b100000 <"
b1 #"
b0 }
0*"
b0 ,"
b11 +"
1%"
b10110 P
b10110 >"
b10111 O
b10111 D"
b10101 K
b10101 8"
b10101 /"
b1011100 9
1.
#1020000
0.
#1025000
b1001000 N
b1001000 <"
b101000 M
b101000 B"
b1001000 L
b1001000 H"
b1011101 9
b1 }
1*"
0%"
b1 '"
b10011 P
b10011 >"
b10100 O
b10100 D"
b10010 K
b10010 8"
b10010 /"
1.
#1030000
0.
#1035000
b100000 L
b100000 H"
b1011000 M
b1011000 B"
b100000 N
b100000 <"
b10 #"
b0 }
0*"
b1 ,"
1%"
b10110 P
b10110 >"
b10111 O
b10111 D"
b10101 K
b10101 8"
b10101 /"
b1011110 9
b1111111111111101 N"
b11111111111111111111111111111000 O"
1.
#1040000
0.
#1045000
b1001000 N
b1001000 <"
b101000 M
b101000 B"
b1001000 L
b1001000 H"
b1011111 9
b1 }
1*"
0%"
b10 '"
b10011 P
b10011 >"
b10100 O
b10100 D"
b10010 K
b10010 8"
b10010 /"
1.
#1050000
0.
#1055000
b100000 L
b100000 H"
b1011000 M
b1011000 B"
b100000 N
b100000 <"
b11 #"
b0 }
0*"
b10 ,"
1%"
b10110 P
b10110 >"
b10111 O
b10111 D"
b10101 K
b10101 8"
b10101 /"
b1100000 9
b1111111111111101 N"
1.
#1060000
0.
#1065000
b1001000 N
b1001000 <"
b101000 M
b101000 B"
b1001000 L
b1001000 H"
b1100001 9
b1 }
1*"
0%"
b11 '"
b10011 P
b10011 >"
b10100 O
b10100 D"
b10010 K
b10010 8"
b10010 /"
1.
#1070000
0.
#1075000
b100000 L
b100000 H"
b1011000 M
b1011000 B"
b100000 N
b100000 <"
b100 #"
b0 }
0*"
b11 ,"
1%"
b10110 P
b10110 >"
b10111 O
b10111 D"
b10101 K
b10101 8"
b10101 /"
b1100010 9
b1111111111111101 N"
1.
#1080000
0.
#1085000
b1001000 N
b1001000 <"
b101000 M
b101000 B"
b1001000 L
b1001000 H"
b1100011 9
b1 }
1*"
0%"
b100 '"
b10011 P
b10011 >"
b10100 O
b10100 D"
b10010 K
b10010 8"
b10010 /"
1.
#1090000
0.
#1095000
b100000 L
b100000 H"
b1011000 M
b1011000 B"
b100000 N
b100000 <"
b101 #"
b0 }
0*"
b100 ,"
1%"
b10110 P
b10110 >"
b10111 O
b10111 D"
b10101 K
b10101 8"
b10101 /"
b1100100 9
b1111111111111101 N"
1.
#1100000
0.
#1105000
b1001000 N
b1001000 <"
b101000 M
b101000 B"
b1001000 L
b1001000 H"
b1100101 9
b1 }
1*"
0%"
b101 '"
b10011 P
b10011 >"
b10100 O
b10100 D"
b10010 K
b10010 8"
b10010 /"
1.
#1110000
0.
#1115000
b100000 L
b100000 H"
b1011000 M
b1011000 B"
b100000 N
b100000 <"
b110 #"
b0 }
0*"
b101 ,"
1%"
b10110 P
b10110 >"
b10111 O
b10111 D"
b10101 K
b10101 8"
b10101 /"
b1100110 9
b1111111111111101 N"
1.
#1120000
0.
#1125000
b1001000 N
b1001000 <"
b101000 M
b101000 B"
b1001000 L
b1001000 H"
b1100111 9
b1 }
1*"
0%"
b110 '"
b10011 P
b10011 >"
b10100 O
b10100 D"
b10010 K
b10010 8"
b10010 /"
1.
#1130000
0.
#1135000
b100000 L
b100000 H"
b1011000 M
b1011000 B"
b100000 N
b100000 <"
b111 #"
b0 }
0*"
b110 ,"
1%"
b10110 P
b10110 >"
b10111 O
b10111 D"
b10101 K
b10101 8"
b10101 /"
b1101000 9
b1111111111111101 N"
1.
#1140000
0.
#1145000
b1001000 N
b1001000 <"
b101000 M
b101000 B"
b1001000 L
b1001000 H"
b1101001 9
b1 }
1*"
0%"
b111 '"
b10011 P
b10011 >"
b10100 O
b10100 D"
b10010 K
b10010 8"
b10010 /"
1.
#1150000
0.
