rtl/simpleGAN/tb_simple_gan.vcd
$date
	Fri Dec 19 19:36:30 2025
$end
$version
	Icarus Verilog
$end
$timescale
	1ps
$end
$scope module tb_simple_gan $end
$var wire 1 ! gen_valid $end
$var wire 1 " done $end
$var wire 1 # disc_valid $end
$var wire 16 $ disc_score [15:0] $end
$var wire 1 % busy $end
$var parameter 32 & CLK_PERIOD $end
$var parameter 32 ' DATA_WIDTH $end
$var parameter 32 ( IMAGE_SIZE $end
$var parameter 32 ) LATENT_DIM $end
$var reg 1 * clk $end
$var reg 2 + mode [1:0] $end
$var reg 1 , rst_n $end
$var reg 1 - start $end
$var integer 32 . fail_count [31:0] $end
$var integer 32 / i [31:0] $end
$var integer 32 0 pass_count [31:0] $end
$var real 1 1 score_real $end
$var integer 32 2 test_num [31:0] $end
$scope function q88_to_real $end
$var reg 16 3 q88_val [15:0] $end
$upscope $end
$scope function real_to_q88 $end
$var real 1 4 r_val $end
$upscope $end
$scope module dut $end
$var wire 1 * clk $end
$var wire 16 5 disc_score [15:0] $end
$var wire 1 # disc_valid $end
$var wire 1 ! gen_valid $end
$var wire 2 6 mode [1:0] $end
$var wire 1 , rst_n $end
$var wire 1 - start $end
$var wire 8 7 gen_w2_data [7:0] $end
$var wire 5 8 gen_w2_addr [4:0] $end
$var wire 8 9 gen_w1_data [7:0] $end
$var wire 4 : gen_w1_addr [3:0] $end
$var wire 1 ; gen_done $end
$var wire 16 < gen_b2_data [15:0] $end
$var wire 4 = gen_b2_addr [3:0] $end
$var wire 16 > gen_b1_data [15:0] $end
$var wire 2 ? gen_b1_addr [1:0] $end
$var wire 1 " done $end
$var wire 8 @ disc_w2_data [7:0] $end
$var wire 2 A disc_w2_addr [1:0] $end
$var wire 8 B disc_w1_data [7:0] $end
$var wire 5 C disc_w1_addr [4:0] $end
$var wire 16 D disc_out [15:0] $end
$var wire 1 E disc_done $end
$var wire 16 F disc_b2_data [15:0] $end
$var wire 16 G disc_b1_data [15:0] $end
$var wire 2 H disc_b1_addr [1:0] $end
$var wire 1 % busy $end
$var parameter 32 I DATA_WIDTH $end
$var parameter 32 J HIDDEN_SIZE $end
$var parameter 32 K IMAGE_SIZE $end
$var parameter 32 L LATENT_DIM $end
$var parameter 3 M ST_DISC_START $end
$var parameter 3 N ST_DISC_WAIT $end
$var parameter 3 O ST_DONE $end
$var parameter 3 P ST_GEN_START $end
$var parameter 3 Q ST_GEN_WAIT $end
$var parameter 3 R ST_IDLE $end
$var parameter 32 S WEIGHT_WIDTH $end
$var reg 1 T disc_start_pulse $end
$var reg 1 U gen_start_pulse $end
$var reg 2 V mode_reg [1:0] $end
$var reg 3 W next_state [2:0] $end
$var reg 3 X state [2:0] $end
$scope begin gen_image_assign[0] $end
$var parameter 2 Y gi $end
$upscope $end
$scope begin gen_image_assign[1] $end
$var parameter 2 Z gi $end
$upscope $end
$scope begin gen_image_assign[2] $end
$var parameter 3 [ gi $end
$upscope $end
$scope begin gen_image_assign[3] $end
$var parameter 3 \ gi $end
$upscope $end
$scope begin gen_image_assign[4] $end
$var parameter 4 ] gi $end
$upscope $end
$scope begin gen_image_assign[5] $end
$var parameter 4 ^ gi $end
$upscope $end
$scope begin gen_image_assign[6] $end
$var parameter 4 _ gi $end
$upscope $end
$scope begin gen_image_assign[7] $end
$var parameter 4 ` gi $end
$upscope $end
$scope begin gen_image_assign[8] $end
$var parameter 5 a gi $end
$upscope $end
$scope module u_discriminator $end
$var wire 1 * clk $end
$var wire 1 , rst_n $end
$var wire 1 T valid_in $end
$var wire 8 b w2_data [7:0] $end
$var wire 8 c w1_data [7:0] $end
$var wire 1 d tanh_valid_out $end
$var wire 16 e tanh_out [15:0] $end
$var wire 1 f sigmoid_valid_out $end
$var wire 16 g sigmoid_out [15:0] $end
$var wire 16 h b2_data [15:0] $end
$var wire 16 i b1_data [15:0] $end
$var parameter 32 j DATA_WIDTH $end
$var parameter 32 k FRAC_BITS $end
$var parameter 32 l HIDDEN_SIZE $end
$var parameter 32 m INPUT_SIZE $end
$var parameter 32 n OUTPUT_SIZE $end
$var parameter 5 o ST_DONE $end
$var parameter 5 p ST_IDLE $end
$var parameter 5 q ST_L1_ACT $end
$var parameter 5 r ST_L1_ACT_WAIT $end
$var parameter 5 s ST_L1_BIAS $end
$var parameter 5 t ST_L1_BIAS_WAIT $end
$var parameter 5 u ST_L1_MAC $end
$var parameter 5 v ST_L1_WAIT $end
$var parameter 5 w ST_L2_ACT $end
$var parameter 5 x ST_L2_ACT_WAIT $end
$var parameter 5 y ST_L2_BIAS $end
$var parameter 5 z ST_L2_BIAS_WAIT $end
$var parameter 5 { ST_L2_MAC $end
$var parameter 5 | ST_L2_WAIT $end
$var parameter 5 } ST_LOAD_INPUT $end
$var parameter 32 ~ WEIGHT_WIDTH $end
$var reg 32 !" accumulator [31:0] $end
$var reg 2 "" b1_addr [1:0] $end
$var reg 16 #" disc_out [15:0] $end
$var reg 1 E done $end
$var reg 4 $" in_idx [3:0] $end
$var reg 5 %" next_state [4:0] $end
$var reg 4 &" out_idx [3:0] $end
$var reg 16 '" output_reg [15:0] $end
$var reg 16 (" sigmoid_in [15:0] $end
$var reg 1 )" sigmoid_valid_in $end
$var reg 5 *" state [4:0] $end
$var reg 16 +" tanh_in [15:0] $end
$var reg 1 ," tanh_valid_in $end
$var reg 1 -" valid_out $end
$var reg 5 ." w1_addr [4:0] $end
$var reg 2 /" w2_addr [1:0] $end
$scope module u_sigmoid $end
$var wire 1 * clk $end
$var wire 16 0" data_in [15:0] $end
$var wire 16 1" lut_value [15:0] $end
$var wire 1 , rst_n $end
$var wire 1 )" valid_in $end
$var wire 16 2" result [15:0] $end
$var wire 8 3" lut_addr [7:0] $end
$var wire 1 4" is_negative $end
$var wire 16 5" abs_input [15:0] $end
$var parameter 32 6" DATA_WIDTH $end
$var parameter 32 7" LUT_DEPTH $end
$var parameter 32 8" PIPELINED $end
$var reg 16 9" data_out [15:0] $end
$var reg 1 f valid_out $end
$scope begin gen_pipe $end
$upscope $end
$upscope $end
$scope module u_tanh $end
$var wire 1 * clk $end
$var wire 16 :" data_in [15:0] $end
$var wire 1 , rst_n $end
$var wire 1 ," valid_in $end
$var wire 1 d valid_out $end
$var wire 16 ;" data_out [15:0] $end
$var parameter 32 <" DATA_WIDTH $end
$var parameter 32 =" LUT_DEPTH $end
$var parameter 32 >" PIPELINED $end
$var parameter 32 ?" USE_LUT $end
$scope begin gen_lut $end
$var wire 1 @" is_negative $end
$var wire 1 A" saturated $end
$var wire 16 B" result [15:0] $end
$var wire 8 C" lut_addr [7:0] $end
$var wire 16 D" abs_input [15:0] $end
$var reg 16 E" lut_value [15:0] $end
$scope begin gen_pipe $end
$var reg 16 F" data_out_reg [15:0] $end
$var reg 1 G" valid_out_reg $end
$upscope $end
$upscope $end
$upscope $end
$scope begin $ivl_for_loop7 $end
$var integer 32 H" i [31:0] $end
$upscope $end
$scope begin $ivl_for_loop8 $end
$var integer 32 I" i [31:0] $end
$upscope $end
$scope begin $ivl_for_loop9 $end
$var integer 32 J" i [31:0] $end
$upscope $end
$upscope $end
$scope module u_generator $end
$var wire 1 * clk $end
$var wire 1 , rst_n $end
$var wire 1 U valid_in $end
$var wire 8 K" w2_data [7:0] $end
$var wire 8 L" w1_data [7:0] $end
$var wire 1 M" tanh_valid_out $end
$var wire 16 N" tanh_out [15:0] $end
$var wire 16 O" b2_data [15:0] $end
$var wire 16 P" b1_data [15:0] $end
$var parameter 32 Q" DATA_WIDTH $end
$var parameter 32 R" FRAC_BITS $end
$var parameter 32 S" HIDDEN_SIZE $end
$var parameter 32 T" LATENT_DIM $end
$var parameter 32 U" OUTPUT_SIZE $end
$var parameter 5 V" ST_DONE $end
$var parameter 5 W" ST_IDLE $end
$var parameter 5 X" ST_L1_ACT $end
$var parameter 5 Y" ST_L1_ACT_WAIT $end
$var parameter 5 Z" ST_L1_BIAS $end
$var parameter 5 [" ST_L1_BIAS_WAIT $end
$var parameter 5 \" ST_L1_MAC $end
$var parameter 5 ]" ST_L1_WAIT $end
$var parameter 5 ^" ST_L2_ACT $end
$var parameter 5 _" ST_L2_ACT_WAIT $end
$var parameter 5 `" ST_L2_BIAS $end
$var parameter 5 a" ST_L2_BIAS_WAIT $end
$var parameter 5 b" ST_L2_MAC $end
$var parameter 5 c" ST_L2_WAIT $end
$var parameter 5 d" ST_LOAD_INPUT $end
$var parameter 32 e" WEIGHT_WIDTH $end
$var reg 32 f" accumulator [31:0] $end
$var reg 2 g" b1_addr [1:0] $end
$var reg 4 h" b2_addr [3:0] $end
$var reg 1 ; done $end
$var reg 4 i" in_idx [3:0] $end
$var reg 5 j" next_state [4:0] $end
$var reg 4 k" out_idx [3:0] $end
$var reg 5 l" state [4:0] $end
$var reg 16 m" tanh_in [15:0] $end
$var reg 1 n" tanh_valid_in $end
$var reg 1 o" valid_out $end
$var reg 4 p" w1_addr [3:0] $end
$var reg 5 q" w2_addr [4:0] $end
$scope module u_tanh $end
$var wire 1 * clk $end
$var wire 16 r" data_in [15:0] $end
$var wire 1 , rst_n $end
$var wire 1 n" valid_in $end
$var wire 1 M" valid_out $end
$var wire 16 s" data_out [15:0] $end
$var parameter 32 t" DATA_WIDTH $end
$var parameter 32 u" LUT_DEPTH $end
$var parameter 32 v" PIPELINED $end
$var parameter 32 w" USE_LUT $end
$scope begin gen_lut $end
$var wire 1 x" is_negative $end
$var wire 1 y" saturated $end
$var wire 16 z" result [15:0] $end
$var wire 8 {" lut_addr [7:0] $end
$var wire 16 |" abs_input [15:0] $end
$var reg 16 }" lut_value [15:0] $end
$scope begin gen_pipe $end
$var reg 16 ~" data_out_reg [15:0] $end
$var reg 1 !# valid_out_reg $end
$upscope $end
$upscope $end
$upscope $end
$scope begin $ivl_for_loop3 $end
$var integer 32 "# i [31:0] $end
$upscope $end
$scope begin $ivl_for_loop4 $end
$var integer 32 ## i [31:0] $end
$upscope $end
$scope begin $ivl_for_loop5 $end
$var integer 32 $# i [31:0] $end
$upscope $end
$scope begin $ivl_for_loop6 $end
$var integer 32 %# i [31:0] $end
$upscope $end
$upscope $end
$scope module u_weights $end
$var wire 1 * clk $end
$var wire 2 &# d_b1_addr [1:0] $end
$var wire 5 '# d_w1_addr [4:0] $end
$var wire 2 (# d_w2_addr [1:0] $end
$var wire 2 )# g_b1_addr [1:0] $end
$var wire 4 *# g_b2_addr [3:0] $end
$var wire 4 +# g_w1_addr [3:0] $end
$var wire 5 ,# g_w2_addr [4:0] $end
$var reg 16 -# d_b1_data [15:0] $end
$var reg 16 .# d_b2_data [15:0] $end
$var reg 8 /# d_w1_data [7:0] $end
$var reg 8 0# d_w2_data [7:0] $end
$var reg 16 1# disc_b2 [15:0] $end
$var reg 16 2# g_b1_data [15:0] $end
$var reg 16 3# g_b2_data [15:0] $end
$var reg 8 4# g_w1_data [7:0] $end
$var reg 8 5# g_w2_data [7:0] $end
$upscope $end
$scope begin $ivl_for_loop0 $end
$var integer 32 6# i [31:0] $end
$upscope $end
$scope begin $ivl_for_loop1 $end
$var integer 32 7# i [31:0] $end
$upscope $end
$scope begin $ivl_for_loop2 $end
$var integer 32 8# i [31:0] $end
$upscope $end
$upscope $end
$upscope $end
$enddefinitions $end
$comment Show the parameter values. $end
$dumpall
b1 w"
b1 v"
b100000000 u"
b10000 t"
b1000 e"
b1 d"
b1000 c"
b1001 b"
b1010 a"
b1011 `"
b1101 _"
b1100 ^"
b10 ]"
b11 \"
b100 ["
b101 Z"
b111 Y"
b110 X"
b0 W"
b1110 V"
b1001 U"
b10 T"
b11 S"
b111 R"
b10000 Q"
b1 ?"
b1 >"
b100000000 ="
b10000 <"
b1 8"
b100000000 7"
b10000 6"
b1000 ~
b1 }
b1000 |
b1001 {
b1010 z
b1011 y
b1101 x
b1100 w
b10 v
b11 u
b100 t
b101 s
b111 r
b110 q
b0 p
b1110 o
b1 n
b1001 m
b11 l
b111 k
b10000 j
b1000 a
b111 `
b110 _
b101 ^
b100 ]
b11 \
b10 [
b1 Z
b0 Y
b1000 S
b0 R
b10 Q
b1 P
b101 O
b100 N
b11 M
b10 L
b1001 K
b11 J
b10000 I
b10 )
b1001 (
b10000 '
b1010 &
$end
#0
$dumpvars
bx 8#
bx 7#
b1001 6#
bx 5#
bx 4#
bx 3#
bx 2#
b0 1#
bx 0#
bx /#
bx .#
bx -#
b0 ,#
b0 +#
b0 *#
b0 )#
b0 (#
b0 '#
b0 &#
bx %#
b1001 $#
b11 ##
b10 "#
0!#
b0 ~"
b0 }"
b0 |"
b0 {"
b0 z"
0y"
0x"
b0 s"
b0 r"
b0 q"
b0 p"
0o"
0n"
b0 m"
b0 l"
b0 k"
b0 j"
b0 i"
b0 h"
b0 g"
b0 f"
bx P"
bx O"
b0 N"
0M"
bx L"
bx K"
bx J"
b11 I"
b1001 H"
0G"
b0 F"
b0 E"
b0 D"
b0 C"
b0 B"
0A"
0@"
b0 ;"
b0 :"
b0 9"
b0 5"
04"
b0 3"
b10000000 2"
b10000000 1"
b0 0"
b0 /"
b0 ."
0-"
0,"
b0 +"
b0 *"
0)"
b0 ("
b0 '"
b0 &"
b0 %"
b0 $"
b0 #"
b0 ""
b0 !"
bx i
bx h
b0 g
0f
b0 e
0d
bx c
bx b
b0 X
b0 W
b0 V
0U
0T
b0 H
bx G
bx F
0E
b0 D
b0 C
bx B
b0 A
bx @
b0 ?
bx >
b0 =
bx <
0;
b0 :
bx 9
b0 8
bx 7
b0 6
b0 5
r0 4
bx 3
b0 2
r0 1
b0 0
b1001 /
b0 .
0-
0,
b0 +
0*
0%
b0 $
0#
0"
0!
$end
#5000
b0 F
b0 h
b0 .#
b11110010 @
b11110010 b
b11110010 0#
b0 G
b0 i
b0 -#
b11110110 B
b11110110 c
b11110110 /#
b0 <
b0 O"
b0 3#
b11111010 7
b11111010 K"
b11111010 5#
b0 >
b0 P"
b0 2#
b111 9
b111 L"
b111 4#
b1001 6#
b11 I"
b1001 H"
b1001 $#
b11 ##
b10 "#
1*
#10000
0*
#15000
b1001 6#
b11 I"
b1001 H"
b1001 $#
b11 ##
b10 "#
1*
#20000
0*
#25000
b1001 6#
b11 I"
b1001 H"
b1001 $#
b11 ##
b10 "#
1*
#30000
0*
#35000
b1001 6#
b11 I"
b1001 H"
b1001 $#
b11 ##
b10 "#
1*
#40000
0*
#45000
b1001 6#
b11 I"
b1001 H"
b1001 $#
b11 ##
b10 "#
1*
#50000
0*
1,
#55000
b10000000 g
b10000000 9"
1*
#60000
0*
#65000
1*
#70000
0*
#75000
1*
#80000
0*
#85000
1*
#90000
0*
#95000
1*
#100000
0*
b1 2
#105000
b1 W
1-
1*
#110000
0*
#115000
1%
b1 X
b10 W
0-
1*
#120000
0*
#125000
b1 j"
1U
b10 X
1*
#130000
0*
#135000
b10 j"
b1 l"
0U
b10 %#
1*
#140000
0*
#145000
b11 j"
b10 l"
1*
#150000
0*
#155000
b10 j"
b11 l"
1*
#160000
0*
#165000
b11 j"
b10 l"
b1 :
b1 p"
b1 +#
b1 i"
b101011001101 f"
1*
#170000
0*
#175000
b100 j"
b11 l"
b1011 9
b1011 L"
b1011 4#
1*
#180000
0*
#185000
b101 j"
b100 l"
b101110111111 f"
1*
#190000
0*
#195000
b10 j"
b101 l"
1*
#200000
0*
#205000
b11 j"
b10 l"
b10 :
b10 p"
b10 +#
b0 f"
b0 i"
b1 k"
1*
#210000
0*
#215000
b10 j"
b11 l"
b10111 9
b10111 L"
b10111 4#
1*
#220000
0*
#225000
b11 j"
b10 l"
b11 :
b11 p"
b11 +#
b1 i"
b10001101111101 f"
1*
#230000
0*
#235000
b100 j"
b11 l"
b100 9
b100 L"
b100 4#
1*
#240000
0*
#245000
b101 j"
b100 l"
b1 ?
b1 g"
b1 )#
b10001111010101 f"
1*
#250000
0*
#255000
b10 j"
b101 l"
1*
#260000
0*
#265000
b11 j"
b10 l"
b100 :
b100 p"
b100 +#
b0 f"
b0 i"
b10 k"
1*
#270000
0*
#275000
b10 j"
b11 l"
b11100011 9
b11100011 L"
b11100011 4#
1*
#280000
0*
#285000
b11 j"
b10 l"
b101 :
b101 p"
b101 +#
b1 i"
b11111111111111111101001101000001 f"
1*
#290000
0*
#295000
b100 j"
b11 l"
b11101111 9
b11101111 L"
b11101111 4#
1*
#300000
0*
#305000
b101 j"
b100 l"
b10 ?
b10 g"
b10 )#
b11111111111111111101000111001011 f"
1*
#310000
0*
#315000
b110 j"
b101 l"
1*
#320000
0*
#325000
b111 j"
b110 l"
b0 k"
1*
#330000
0*
#335000
b10100 z"
b10100 }"
b101 {"
b10111 |"
1n"
b10111 m"
b10111 r"
b111 l"
1*
#340000
0*
#345000
b110 j"
1M"
1!#
b10100 N"
b10100 s"
b10100 ~"
0n"
1*
#350000
0*
#355000
b111 j"
b1 k"
0M"
0!#
b110 l"
1*
#360000
0*
#365000
b1000001 z"
b1000001 }"
b10001 {"
b1000111 |"
b111 l"
1n"
b1000111 m"
b1000111 r"
1*
#370000
0*
#375000
b110 j"
0n"
1M"
1!#
b1000001 N"
b1000001 s"
b1000001 ~"
1*
#380000
0*
#385000
b111 j"
b110 l"
0M"
0!#
b10 k"
1*
#390000
0*
#395000
b1010110 }"
b10111 {"
b1111111110101010 z"
0y"
1x"
b1011101 |"
1n"
b1111111110100011 m"
b1111111110100011 r"
b111 l"
1*
#400000
0*
#405000
b1000 j"
1M"
1!#
b1111111110101010 N"
b1111111110101010 s"
b1111111110101010 ~"
0n"
1*
#410000
0*
#415000
b1001 j"
b0 f"
b0 i"
b0 k"
0M"
0!#
b1000 l"
1*
#420000
0*
#425000
b1000 j"
b1001 l"
1*
#430000
0*
#435000
b1001 j"
b1 8
b1 q"
b1 ,#
b1 i"
b11111111111111111111111110001000 f"
b1000 l"
1*
#440000
0*
#445000
b1000 j"
b1001 l"
b11111101 7
b11111101 K"
b11111101 5#
1*
#450000
0*
#455000
b1001 j"
b10 8
b10 q"
b10 ,#
b10 i"
b11111111111111111111111011000101 f"
b1000 l"
1*
#460000
0*
#465000
b1010 j"
b1001 l"
b110 7
b110 K"
b110 5#
1*
#470000
0*
#475000
b1011 j"
b11111111111111111111110011000001 f"
b1010 l"
1*
#480000
0*
#485000
b1000 j"
b1011 l"
1*
#490000
0*
#495000
b1001 j"
b11 8
b11 q"
b11 ,#
b0 f"
b0 i"
b1 k"
b1000 l"
1*
#500000
0*
#505000
b1000 j"
b1001 l"
b100 7
b100 K"
b100 5#
1*
#510000
0*
#515000
b1001 j"
b100 8
b100 q"
b100 ,#
b1 i"
b1010000 f"
b1000 l"
1*
#520000
0*
#525000
b1000 j"
b1001 l"
b11111110 7
b11111110 K"
b11111110 5#
1*
#530000
0*
#535000
b1001 j"
b101 8
b101 q"
b101 ,#
b10 i"
b11111111111111111111111111001110 f"
b1000 l"
1*
#540000
0*
#545000
b1010 j"
b1001 l"
b1101 7
b1101 K"
b1101 5#
1*
#550000
0*
#555000
b1011 j"
b1 =
b1 h"
b1 *#
b11111111111111111111101101110000 f"
b1010 l"
1*
#560000
0*
#565000
b1000 j"
b1011 l"
1*
#570000
0*
#575000
b1001 j"
b110 8
b110 q"
b110 ,#
b0 f"
b0 i"
b10 k"
b1000 l"
1*
#580000
0*
#585000
b1000 j"
b1001 l"
b101110 7
b101110 K"
b101110 5#
1*
#590000
0*
#595000
b1001 j"
b111 8
b111 q"
b111 ,#
b1 i"
b1110011000 f"
b1000 l"
1*
#600000
0*
#605000
b1000 j"
b1001 l"
b10011 7
b10011 K"
b10011 5#
1*
#610000
0*
#615000
b1001 j"
b1000 8
b1000 q"
b1000 ,#
b10 i"
b100001101011 f"
b1000 l"
1*
#620000
0*
#625000
b1010 j"
b1001 l"
b1001 7
b1001 K"
b1001 5#
1*
#630000
0*
#635000
b1011 j"
b10 =
b10 h"
b10 *#
b10101100101 f"
b1010 l"
1*
#640000
0*
#645000
b1000 j"
b1011 l"
1*
#650000
0*
#655000
b1001 j"
b1001 8
b1001 q"
b1001 ,#
b0 f"
b0 i"
b11 k"
b1000 l"
1*
#660000
0*
#665000
b1000 j"
b1001 l"
b100011 7
b100011 K"
b100011 5#
1*
#670000
0*
#675000
b1001 j"
b1010 8
b1010 q"
b1010 ,#
b1 i"
b1010111100 f"
b1000 l"
1*
#680000
0*
#685000
b1000 j"
b1001 l"
b10010 7
b10010 K"
b10010 5#
1*
#690000
0*
#695000
b1001 j"
b1011 8
b1011 q"
b1011 ,#
b10 i"
b11101001110 f"
b1000 l"
1*
#700000
0*
#705000
b1010 j"
b1001 l"
b11111100 7
b11111100 K"
b11111100 5#
1*
#710000
0*
#715000
b1011 j"
b11 =
b11 h"
b11 *#
b100010100110 f"
b1010 l"
1*
#720000
0*
#725000
b1000 j"
b1011 l"
1*
#730000
0*
#735000
b1001 j"
b1100 8
b1100 q"
b1100 ,#
b0 f"
b0 i"
b100 k"
b1000 l"
1*
#740000
0*
#745000
b1000 j"
b1001 l"
b11101111 7
b11101111 K"
b11101111 5#
1*
#750000
0*
#755000
b1001 j"
b1101 8
b1101 q"
b1101 ,#
b1 i"
b11111111111111111111111010101100 f"
b1000 l"
1*
#760000
0*
#765000
b1000 j"
b1001 l"
b10010 7
b10010 K"
b10010 5#
1*
#770000
0*
#775000
b1001 j"
b1110 8
b1110 q"
b1110 ,#
b10 i"
b1100111110 f"
b1000 l"
1*
#780000
0*
#785000
b1010 j"
b1001 l"
b100 7
b100 K"
b100 5#
1*
#790000
0*
#795000
b1011 j"
b100 =
b100 h"
b100 *#
b111100110 f"
b1010 l"
1*
#800000
0*
#805000
b1000 j"
b1011 l"
1*
#810000
0*
#815000
b1001 j"
b1111 8
b1111 q"
b1111 ,#
b0 f"
b0 i"
b101 k"
b1000 l"
1*
#820000
0*
#825000
b1000 j"
b1001 l"
b100111 7
b100111 K"
b100111 5#
1*
#830000
0*
#835000
b1001 j"
b10000 8
b10000 q"
b10000 ,#
b1 i"
b1100001100 f"
b1000 l"
1*
#840000
0*
#845000
b1000 j"
b1001 l"
b1001 7
b1001 K"
b1001 5#
1*
#850000
0*
#855000
b1001 j"
b10001 8
b10001 q"
b10001 ,#
b10 i"
b10101010101 f"
b1000 l"
1*
#860000
0*
#865000
b1010 j"
b1001 l"
b11110110 7
b11110110 K"
b11110110 5#
1*
#870000
0*
#875000
b1011 j"
b101 =
b101 h"
b101 *#
b100010110001 f"
b1010 l"
1*
#880000
0*
#885000
b1000 j"
b1011 l"
1*
#890000
0*
#895000
b1001 j"
b10010 8
b10010 q"
b10010 ,#
b0 f"
b0 i"
b110 k"
b1000 l"
1*
#900000
0*
#905000
b1000 j"
b1001 l"
b1001 7
b1001 K"
b1001 5#
1*
#910000
0*
#915000
b1001 j"
b10011 8
b10011 q"
b10011 ,#
b1 i"
b10110100 f"
b1000 l"
1*
#920000
0*
#925000
b1000 j"
b1001 l"
b11110001 7
b11110001 K"
b11110001 5#
1*
#930000
0*
#935000
b1001 j"
b10100 8
b10100 q"
b10100 ,#
b10 i"
b11111111111111111111110011100101 f"
b1000 l"
1*
#940000
0*
#945000
b1010 j"
b1001 l"
b1011 7
b1011 K"
b1011 5#
1*
#950000
0*
#955000
b1011 j"
b110 =
b110 h"
b110 *#
b11111111111111111111100100110011 f"
b1010 l"
1*
#960000
0*
#965000
b1000 j"
b1011 l"
1*
#970000
0*
#975000
b1001 j"
b10101 8
b10101 q"
b10101 ,#
b0 f"
b0 i"
b111 k"
b1000 l"
1*
#980000
0*
#985000
b1000 j"
b1001 l"
b11111111 7
b11111111 K"
b11111111 5#
1*
#990000
0*
#995000
b1001 j"
b10110 8
b10110 q"
b10110 ,#
b1 i"
b11111111111111111111111111101100 f"
b1000 l"
1*
#1000000
0*
#1005000
b1000 j"
b1001 l"
b1001 7
b1001 K"
b1001 5#
1*
#1010000
0*
#1015000
b1001 j"
b10111 8
b10111 q"
b10111 ,#
b10 i"
b1000110101 f"
b1000 l"
1*
#1020000
0*
#1025000
b1010 j"
b1001 l"
b11110001 7
b11110001 K"
b11110001 5#
1*
#1030000
0*
#1035000
b1011 j"
b111 =
b111 h"
b111 *#
b11100111111 f"
b1010 l"
1*
#1040000
0*
#1045000
b1000 j"
b1011 l"
1*
#1050000
0*
#1055000
b1001 j"
b11000 8
b11000 q"
b11000 ,#
b0 f"
b0 i"
b1000 k"
b1000 l"
1*
#1060000
0*
#1065000
b1000 j"
b1001 l"
b1001 7
b1001 K"
b1001 5#
1*
#1070000
0*
#1075000
b1001 j"
b11001 8
b11001 q"
b11001 ,#
b1 i"
b10110100 f"
b1000 l"
1*
#1080000
0*
#1085000
b1000 j"
b1001 l"
b10101 7
b10101 K"
b10101 5#
1*
#1090000
0*
#1095000
b1001 j"
b11010 8
b11010 q"
b11010 ,#
b10 i"
b11000001001 f"
b1000 l"
1*
#1100000
0*
#1105000
b1010 j"
b1001 l"
b11110010 7
b11110010 K"
b11110010 5#
1*
#1110000
0*
#1115000
b1011 j"
b1000 =
b1000 h"
b1000 *#
b101010111101 f"
b1010 l"
1*
#1120000
0*
#1125000
b1100 j"
b1011 l"
1*
#1130000
0*
#1135000
b1101 j"
b0 k"
b1100 l"
1*
#1140000
0*
#1145000
b1111111111111100 z"
b100 }"
b1 {"
b111 |"
b1101 l"
1n"
b1111111111111001 m"
b1111111111111001 r"
1*
#1150000
0*
#1155000
b1100 j"
0n"
1M"
1!#
b1111111111111100 N"
b1111111111111100 s"
b1111111111111100 ~"
1*
#1160000
0*
#1165000
b1101 j"
b1100 l"
0M"
0!#
b1 k"
1*
#1170000
0*
#1175000
b1111111111111000 z"
b1000 }"
b10 {"
b1010 |"
1n"
b1111111111110110 m"
b1111111111110110 r"
b1101 l"
1*
#1180000
0*
#1185000
b1100 j"
1M"
1!#
b1111111111111000 N"
b1111111111111000 s"
b1111111111111000 ~"
0n"
1*
#1190000
0*
#1195000
b1101 j"
b10 k"
0M"
0!#
b1100 l"
1*
#1200000
0*
#1205000
b1000 z"
0x"
b1101 l"
1n"
b1010 m"
b1010 r"
1*
#1210000
0*
#1215000
b1100 j"
0n"
1M"
1!#
b1000 N"
b1000 s"
b1000 ~"
1*
#1220000
0*
#1225000
b1101 j"
b1100 l"
0M"
0!#
b11 k"
1*
#1230000
0*
#1235000
b10000 z"
b10000 }"
b100 {"
b10001 |"
1n"
b10001 m"
b10001 r"
b1101 l"
1*
#1240000
0*
#1245000
b1100 j"
1M"
1!#
b10000 N"
b10000 s"
b10000 ~"
0n"
1*
#1250000
0*
#1255000
b1101 j"
b100 k"
0M"
0!#
b1100 l"
1*
#1260000
0*
#1265000
b0 z"
b0 }"
b0 {"
b11 |"
b1101 l"
1n"
b11 m"
b11 r"
1*
#1270000
0*
#1275000
b1100 j"
0n"
1M"
1!#
b0 N"
b0 s"
b0 ~"
1*
#1280000
0*
#1285000
b1101 j"
b1100 l"
0M"
0!#
b101 k"
1*
#1290000
0*
#1295000
b10000 z"
b10000 }"
b100 {"
b10001 |"
1n"
b10001 m"
b10001 r"
b1101 l"
1*
#1300000
0*
#1305000
b1100 j"
1M"
1!#
b10000 N"
b10000 s"
b10000 ~"
0n"
1*
#1310000
0*
#1315000
b1101 j"
b110 k"
0M"
0!#
b1100 l"
1*
#1320000
0*
#1325000
b1100 }"
b11 {"
b1111111111110100 z"
0y"
1x"
b1110 |"
b1101 l"
1n"
b1111111111110010 m"
b1111111111110010 r"
1*
#1330000
0*
#1335000
b1100 j"
0n"
1M"
1!#
b1111111111110100 N"
b1111111111110100 s"
b1111111111110100 ~"
1*
#1340000
0*
#1345000
b1101 j"
b1100 l"
0M"
0!#
b111 k"
1*
#1350000
0*
#1355000
b1100 z"
0x"
1n"
b1110 m"
b1110 r"
b1101 l"
1*
#1360000
0*
#1365000
b1100 j"
1M"
1!#
b1100 N"
b1100 s"
b1100 ~"
0n"
1*
#1370000
0*
#1375000
b1101 j"
b1000 k"
0M"
0!#
b1100 l"
1*
#1380000
0*
#1385000
b10100 z"
b10100 }"
b101 {"
b10101 |"
b1101 l"
1n"
b10101 m"
b10101 r"
1*
#1390000
0*
#1395000
b1110 j"
0n"
1M"
1!#
b10100 N"
b10100 s"
b10100 ~"
1*
#1400000
0*
#1405000
b0 j"
b1110 l"
0M"
0!#
1*
#1410000
0*
#1415000
b101 W
1!
1;
1o"
b0 l"
1*
#1420000
0*
#1425000
b0 W
1"
b101 X
0!
0;
0o"
1*
#1430000
0*
#1435000
0%
0"
b0 X
b1 0
b10100 3
1*
#1440000
0*
#1445000
1*
#1450000
0*
#1455000
1*
#1460000
0*
#1465000
1*
#1470000
0*
#1475000
1*
#1480000
0*
#1485000
b1 V
b11 W
b1001 7#
1-
1*
b1001 /
b1 +
b1 6
b10 2
#1490000
0*
#1495000
1%
b11 X
b100 W
0-
1*
#1500000
0*
#1505000
b1 %"
1T
b100 X
1*
#1510000
0*
#1515000
b10 %"
b1 *"
0T
b1001 J"
1*
#1520000
0*
#1525000
b11 %"
b10 *"
1*
#1530000
0*
#1535000
b10 %"
b11 *"
1*
#1540000
0*
#1545000
b11 %"
b10 *"
b1 C
b1 ."
b1 '#
b1 $"
b101000000000 !"
1*
#1550000
0*
#1555000
b10 %"
b11 *"
b100 B
b100 c
b100 /#
1*
#1560000
0*
#1565000
b11 %"
b10 *"
b10 C
b10 ."
b10 '#
b10 $"
b111000000000 !"
1*
#1570000
0*
#1575000
b10 %"
b11 *"
b11101010 B
b11101010 c
b11101010 /#
1*
#1580000
0*
#1585000
b11 %"
b10 *"
b11 C
b11 ."
b11 '#
b11 $"
b10010000000000 !"
1*
#1590000
0*
#1595000
b10 %"
b11 *"
b100 B
b100 c
b100 /#
1*
#1600000
0*
#1605000
b11 %"
b10 *"
b100 C
b100 ."
b100 '#
b100 $"
b10100000000000 !"
1*
