rtl/simpleGAN/tb_simple_gan.vcd
$date
	Sat Dec 20 22:16:07 2025
$end
$version
	Icarus Verilog
$end
$timescale
	1ps
$end
$scope module tb_simple_gan $end
$var wire 1 ! gen_valid $end
$var wire 1 " done $end
$var wire 1 # disc_valid $end
$var wire 16 $ disc_score [15:0] $end
$var wire 1 % busy $end
$var parameter 32 & CLK_PERIOD $end
$var parameter 32 ' DATA_WIDTH $end
$var parameter 32 ( IMAGE_SIZE $end
$var parameter 32 ) LATENT_DIM $end
$var reg 1 * clk $end
$var reg 2 + mode [1:0] $end
$var reg 1 , rst_n $end
$var reg 1 - start $end
$var integer 32 . fail_count [31:0] $end
$var integer 32 / i [31:0] $end
$var integer 32 0 pass_count [31:0] $end
$var real 1 1 score_real $end
$var integer 32 2 test_num [31:0] $end
$scope function q88_to_real $end
$var reg 16 3 q88_val [15:0] $end
$upscope $end
$scope function real_to_q88 $end
$var real 1 4 r_val $end
$upscope $end
$scope module dut $end
$var wire 1 * clk $end
$var wire 16 5 disc_score [15:0] $end
$var wire 1 # disc_valid $end
$var wire 1 ! gen_valid $end
$var wire 2 6 mode [1:0] $end
$var wire 1 , rst_n $end
$var wire 1 - start $end
$var wire 8 7 gen_w2_data [7:0] $end
$var wire 5 8 gen_w2_addr [4:0] $end
$var wire 8 9 gen_w1_data [7:0] $end
$var wire 4 : gen_w1_addr [3:0] $end
$var wire 1 ; gen_done $end
$var wire 16 < gen_b2_data [15:0] $end
$var wire 4 = gen_b2_addr [3:0] $end
$var wire 16 > gen_b1_data [15:0] $end
$var wire 2 ? gen_b1_addr [1:0] $end
$var wire 1 " done $end
$var wire 8 @ disc_w2_data [7:0] $end
$var wire 2 A disc_w2_addr [1:0] $end
$var wire 8 B disc_w1_data [7:0] $end
$var wire 5 C disc_w1_addr [4:0] $end
$var wire 16 D disc_out [15:0] $end
$var wire 1 E disc_done $end
$var wire 16 F disc_b2_data [15:0] $end
$var wire 16 G disc_b1_data [15:0] $end
$var wire 2 H disc_b1_addr [1:0] $end
$var wire 1 % busy $end
$var parameter 32 I DATA_WIDTH $end
$var parameter 32 J HIDDEN_SIZE $end
$var parameter 32 K IMAGE_SIZE $end
$var parameter 32 L LATENT_DIM $end
$var parameter 3 M ST_DISC_START $end
$var parameter 3 N ST_DISC_WAIT $end
$var parameter 3 O ST_DONE $end
$var parameter 3 P ST_GEN_START $end
$var parameter 3 Q ST_GEN_WAIT $end
$var parameter 3 R ST_IDLE $end
$var parameter 32 S WEIGHT_WIDTH $end
$var reg 1 T disc_start_pulse $end
$var reg 1 U gen_start_pulse $end
$var reg 2 V mode_reg [1:0] $end
$var reg 3 W next_state [2:0] $end
$var reg 3 X state [2:0] $end
$scope begin gen_image_assign[0] $end
$var parameter 2 Y gi $end
$upscope $end
$scope begin gen_image_assign[1] $end
$var parameter 2 Z gi $end
$upscope $end
$scope begin gen_image_assign[2] $end
$var parameter 3 [ gi $end
$upscope $end
$scope begin gen_image_assign[3] $end
$var parameter 3 \ gi $end
$upscope $end
$scope begin gen_image_assign[4] $end
$var parameter 4 ] gi $end
$upscope $end
$scope begin gen_image_assign[5] $end
$var parameter 4 ^ gi $end
$upscope $end
$scope begin gen_image_assign[6] $end
$var parameter 4 _ gi $end
$upscope $end
$scope begin gen_image_assign[7] $end
$var parameter 4 ` gi $end
$upscope $end
$scope begin gen_image_assign[8] $end
$var parameter 5 a gi $end
$upscope $end
$scope module u_discriminator $end
$var wire 1 * clk $end
$var wire 1 , rst_n $end
$var wire 1 T valid_in $end
$var wire 8 b w2_data [7:0] $end
$var wire 8 c w1_data [7:0] $end
$var wire 1 d tanh_valid_out $end
$var wire 16 e tanh_out [15:0] $end
$var wire 1 f sigmoid_valid_out $end
$var wire 16 g sigmoid_out [15:0] $end
$var wire 16 h b2_data [15:0] $end
$var wire 16 i b1_data [15:0] $end
$var parameter 32 j DATA_WIDTH $end
$var parameter 32 k FRAC_BITS $end
$var parameter 32 l HIDDEN_SIZE $end
$var parameter 32 m INPUT_SIZE $end
$var parameter 32 n OUTPUT_SIZE $end
$var parameter 5 o ST_DONE $end
$var parameter 5 p ST_IDLE $end
$var parameter 5 q ST_L1_ACCUM $end
$var parameter 5 r ST_L1_ACT $end
$var parameter 5 s ST_L1_ACT_WAIT $end
$var parameter 5 t ST_L1_BIAS $end
$var parameter 5 u ST_L1_BIAS_WAIT $end
$var parameter 5 v ST_L1_MULT $end
$var parameter 5 w ST_L1_UPDATE $end
$var parameter 5 x ST_L1_WAIT $end
$var parameter 5 y ST_L2_ACCUM $end
$var parameter 5 z ST_L2_ACT $end
$var parameter 5 { ST_L2_ACT_WAIT $end
$var parameter 5 | ST_L2_BIAS $end
$var parameter 5 } ST_L2_BIAS_WAIT $end
$var parameter 5 ~ ST_L2_MULT $end
$var parameter 5 !" ST_L2_UPDATE $end
$var parameter 5 "" ST_L2_WAIT $end
$var parameter 5 #" ST_LOAD_INPUT $end
$var parameter 32 $" WEIGHT_WIDTH $end
$var reg 32 %" accumulator [31:0] $end
$var reg 2 &" b1_addr [1:0] $end
$var reg 16 '" disc_out [15:0] $end
$var reg 1 E done $end
$var reg 4 (" in_idx [3:0] $end
$var reg 5 )" next_state [4:0] $end
$var reg 4 *" out_idx [3:0] $end
$var reg 16 +" output_reg [15:0] $end
$var reg 24 ," product_reg [23:0] $end
$var reg 16 -" sigmoid_in [15:0] $end
$var reg 1 ." sigmoid_valid_in $end
$var reg 5 /" state [4:0] $end
$var reg 16 0" tanh_in [15:0] $end
$var reg 1 1" tanh_valid_in $end
$var reg 1 2" valid_out $end
$var reg 5 3" w1_addr [4:0] $end
$var reg 2 4" w2_addr [1:0] $end
$scope module u_sigmoid $end
$var wire 1 * clk $end
$var wire 16 5" data_in [15:0] $end
$var wire 16 6" lut_value [15:0] $end
$var wire 1 , rst_n $end
$var wire 1 ." valid_in $end
$var wire 16 7" result [15:0] $end
$var wire 8 8" lut_addr [7:0] $end
$var wire 1 9" is_negative $end
$var wire 16 :" abs_input [15:0] $end
$var parameter 32 ;" DATA_WIDTH $end
$var parameter 32 <" LUT_DEPTH $end
$var parameter 32 =" PIPELINED $end
$var reg 16 >" data_out [15:0] $end
$var reg 1 f valid_out $end
$scope begin gen_pipe $end
$upscope $end
$upscope $end
$scope module u_tanh $end
$var wire 1 * clk $end
$var wire 16 ?" data_in [15:0] $end
$var wire 1 , rst_n $end
$var wire 1 1" valid_in $end
$var wire 1 d valid_out $end
$var wire 16 @" data_out [15:0] $end
$var parameter 32 A" DATA_WIDTH $end
$var parameter 32 B" LUT_DEPTH $end
$var parameter 32 C" PIPELINED $end
$var parameter 32 D" USE_LUT $end
$scope begin gen_lut $end
$var wire 1 E" is_negative $end
$var wire 1 F" saturated $end
$var wire 16 G" result [15:0] $end
$var wire 8 H" lut_addr [7:0] $end
$var wire 16 I" abs_input [15:0] $end
$var reg 16 J" lut_value [15:0] $end
$scope begin gen_pipe $end
$var reg 16 K" data_out_reg [15:0] $end
$var reg 1 L" valid_out_reg $end
$upscope $end
$upscope $end
$upscope $end
$scope begin $ivl_for_loop4 $end
$var integer 32 M" i [31:0] $end
$upscope $end
$scope begin $ivl_for_loop5 $end
$var integer 32 N" i [31:0] $end
$upscope $end
$scope begin $ivl_for_loop6 $end
$var integer 32 O" i [31:0] $end
$upscope $end
$upscope $end
$scope module u_generator $end
$var wire 1 * clk $end
$var wire 1 , rst_n $end
$var wire 1 U valid_in $end
$var wire 8 P" w2_data [7:0] $end
$var wire 8 Q" w1_data [7:0] $end
$var wire 1 R" tanh_valid_out $end
$var wire 16 S" tanh_out [15:0] $end
$var wire 16 T" b2_data [15:0] $end
$var wire 16 U" b1_data [15:0] $end
$var parameter 32 V" DATA_WIDTH $end
$var parameter 32 W" FRAC_BITS $end
$var parameter 32 X" HIDDEN_SIZE $end
$var parameter 32 Y" LATENT_DIM $end
$var parameter 32 Z" OUTPUT_SIZE $end
$var parameter 5 [" ST_DONE $end
$var parameter 5 \" ST_IDLE $end
$var parameter 5 ]" ST_L1_ACCUM $end
$var parameter 5 ^" ST_L1_ACT $end
$var parameter 5 _" ST_L1_ACT_WAIT $end
$var parameter 5 `" ST_L1_BIAS $end
$var parameter 5 a" ST_L1_BIAS_WAIT $end
$var parameter 5 b" ST_L1_MULT $end
$var parameter 5 c" ST_L1_UPDATE $end
$var parameter 5 d" ST_L1_WAIT $end
$var parameter 5 e" ST_L2_ACCUM $end
$var parameter 5 f" ST_L2_ACT $end
$var parameter 5 g" ST_L2_ACT_WAIT $end
$var parameter 5 h" ST_L2_BIAS $end
$var parameter 5 i" ST_L2_BIAS_WAIT $end
$var parameter 5 j" ST_L2_MULT $end
$var parameter 5 k" ST_L2_UPDATE $end
$var parameter 5 l" ST_L2_WAIT $end
$var parameter 5 m" ST_LOAD_INPUT $end
$var parameter 32 n" WEIGHT_WIDTH $end
$var reg 32 o" accumulator [31:0] $end
$var reg 2 p" b1_addr [1:0] $end
$var reg 4 q" b2_addr [3:0] $end
$var reg 1 ; done $end
$var reg 4 r" in_idx [3:0] $end
$var reg 5 s" next_state [4:0] $end
$var reg 4 t" out_idx [3:0] $end
$var reg 24 u" product_reg [23:0] $end
$var reg 5 v" state [4:0] $end
$var reg 16 w" tanh_in [15:0] $end
$var reg 1 x" tanh_valid_in $end
$var reg 1 y" valid_out $end
$var reg 4 z" w1_addr [3:0] $end
$var reg 5 {" w2_addr [4:0] $end
$scope module u_tanh $end
$var wire 1 * clk $end
$var wire 16 |" data_in [15:0] $end
$var wire 1 , rst_n $end
$var wire 1 x" valid_in $end
$var wire 1 R" valid_out $end
$var wire 16 }" data_out [15:0] $end
$var parameter 32 ~" DATA_WIDTH $end
$var parameter 32 !# LUT_DEPTH $end
$var parameter 32 "# PIPELINED $end
$var parameter 32 ## USE_LUT $end
$scope begin gen_lut $end
$var wire 1 $# is_negative $end
$var wire 1 %# saturated $end
$var wire 16 &# result [15:0] $end
$var wire 8 '# lut_addr [7:0] $end
$var wire 16 (# abs_input [15:0] $end
$var reg 16 )# lut_value [15:0] $end
$scope begin gen_pipe $end
$var reg 16 *# data_out_reg [15:0] $end
$var reg 1 +# valid_out_reg $end
$upscope $end
$upscope $end
$upscope $end
$scope begin $ivl_for_loop0 $end
$var integer 32 ,# i [31:0] $end
$upscope $end
$scope begin $ivl_for_loop1 $end
$var integer 32 -# i [31:0] $end
$upscope $end
$scope begin $ivl_for_loop2 $end
$var integer 32 .# i [31:0] $end
$upscope $end
$scope begin $ivl_for_loop3 $end
$var integer 32 /# i [31:0] $end
$upscope $end
$upscope $end
$scope module u_weights $end
$var wire 1 * clk $end
$var wire 2 0# d_b1_addr [1:0] $end
$var wire 5 1# d_w1_addr [4:0] $end
$var wire 2 2# d_w2_addr [1:0] $end
$var wire 2 3# g_b1_addr [1:0] $end
$var wire 4 4# g_b2_addr [3:0] $end
$var wire 4 5# g_w1_addr [3:0] $end
$var wire 5 6# g_w2_addr [4:0] $end
$var reg 16 7# d_b1_data [15:0] $end
$var reg 16 8# d_b2_data [15:0] $end
$var reg 8 9# d_w1_data [7:0] $end
$var reg 8 :# d_w2_data [7:0] $end
$var reg 16 ;# disc_b2 [15:0] $end
$var reg 16 <# g_b1_data [15:0] $end
$var reg 16 =# g_b2_data [15:0] $end
$var reg 8 ># g_w1_data [7:0] $end
$var reg 8 ?# g_w2_data [7:0] $end
$upscope $end
$scope begin $ivl_for_loop7 $end
$var integer 32 @# i [31:0] $end
$upscope $end
$scope begin $ivl_for_loop8 $end
$var integer 32 A# i [31:0] $end
$upscope $end
$scope begin $ivl_for_loop9 $end
$var integer 32 B# i [31:0] $end
$upscope $end
$upscope $end
$upscope $end
$enddefinitions $end
$comment Show the parameter values. $end
$dumpall
b1 ##
b1 "#
b100000000 !#
b10000 ~"
b1000 n"
b1 m"
b1010 l"
b1101 k"
b1011 j"
b1110 i"
b1111 h"
b10001 g"
b10000 f"
b1100 e"
b10 d"
b101 c"
b11 b"
b110 a"
b111 `"
b1001 _"
b1000 ^"
b100 ]"
b0 \"
b10010 ["
b1001 Z"
b10 Y"
b11 X"
b111 W"
b10000 V"
b1 D"
b1 C"
b100000000 B"
b10000 A"
b1 ="
b100000000 <"
b10000 ;"
b1000 $"
b1 #"
b1010 ""
b1101 !"
b1011 ~
b1110 }
b1111 |
b10001 {
b10000 z
b1100 y
b10 x
b101 w
b11 v
b110 u
b111 t
b1001 s
b1000 r
b100 q
b0 p
b10010 o
b1 n
b1001 m
b11 l
b111 k
b10000 j
b1000 a
b111 `
b110 _
b101 ^
b100 ]
b11 \
b10 [
b1 Z
b0 Y
b1000 S
b0 R
b10 Q
b1 P
b101 O
b100 N
b11 M
b10 L
b1001 K
b11 J
b10000 I
b10 )
b1001 (
b10000 '
b1010 &
$end
#0
$dumpvars
bx B#
bx A#
b1001 @#
bx ?#
bx >#
bx =#
bx <#
b1111111110001000 ;#
bx :#
bx 9#
bx 8#
bx 7#
b0 6#
b0 5#
b0 4#
b0 3#
b0 2#
b0 1#
b0 0#
bx /#
b1001 .#
b11 -#
b10 ,#
0+#
b0 *#
b0 )#
b0 (#
b0 '#
b0 &#
0%#
0$#
b0 }"
b0 |"
b0 {"
b0 z"
0y"
0x"
b0 w"
b0 v"
b0 u"
b0 t"
b0 s"
b0 r"
b0 q"
b0 p"
b0 o"
bx U"
bx T"
b0 S"
0R"
bx Q"
bx P"
bx O"
b11 N"
b1001 M"
0L"
b0 K"
b0 J"
b0 I"
b0 H"
b0 G"
0F"
0E"
b0 @"
b0 ?"
b0 >"
b0 :"
09"
b0 8"
b10000000 7"
b10000000 6"
b0 5"
b0 4"
b0 3"
02"
01"
b0 0"
b0 /"
0."
b0 -"
b0 ,"
b0 +"
b0 *"
b0 )"
b0 ("
b0 '"
b0 &"
b0 %"
bx i
bx h
b0 g
0f
b0 e
0d
bx c
bx b
b0 X
b0 W
b0 V
0U
0T
b0 H
bx G
bx F
0E
b0 D
b0 C
bx B
b0 A
bx @
b0 ?
bx >
b0 =
bx <
0;
b0 :
bx 9
b0 8
bx 7
b0 6
b0 5
r0 4
bx 3
b0 2
r0 1
b0 0
b1001 /
b0 .
0-
0,
b0 +
0*
0%
b0 $
0#
0"
0!
$end
#5000
b1111111110001000 F
b1111111110001000 h
b1111111110001000 8#
b10101011 @
b10101011 b
b10101011 :#
b1010010 G
b1010010 i
b1010010 7#
b11101101 B
b11101101 c
b11101101 9#
b1111111111100010 <
b1111111111100010 T"
b1111111111100010 =#
b11111010 7
b11111010 P"
b11111010 ?#
b1110001 >
b1110001 U"
b1110001 <#
b100 9
b100 Q"
b100 >#
b1001 @#
b11 N"
b1001 M"
b1001 .#
b11 -#
b10 ,#
1*
#10000
0*
#15000
b1001 @#
b11 N"
b1001 M"
b1001 .#
b11 -#
b10 ,#
1*
#20000
0*
#25000
b1001 @#
b11 N"
b1001 M"
b1001 .#
b11 -#
b10 ,#
1*
#30000
0*
#35000
b1001 @#
b11 N"
b1001 M"
b1001 .#
b11 -#
b10 ,#
1*
#40000
0*
#45000
b1001 @#
b11 N"
b1001 M"
b1001 .#
b11 -#
b10 ,#
1*
#50000
0*
1,
#55000
b10000000 g
b10000000 >"
1*
#60000
0*
#65000
1*
#70000
0*
#75000
1*
#80000
0*
#85000
1*
#90000
0*
#95000
1*
#100000
0*
b1 2
#105000
b1 W
1-
1*
#110000
0*
#115000
1%
b1 X
b10 W
0-
1*
#120000
0*
#125000
b1 s"
1U
b10 X
1*
#130000
0*
#135000
b10 s"
b1 v"
0U
b10 /#
1*
#140000
0*
#145000
b11 s"
b10 v"
1*
#150000
0*
#155000
b100 s"
b11 v"
1*
#160000
0*
#165000
b101 s"
b100 v"
b10001110000 u"
1*
#170000
0*
#175000
b10 s"
b10001110000 o"
b101 v"
1*
#180000
0*
#185000
b11 s"
b10 v"
b1 :
b1 z"
b1 5#
b1 r"
1*
#190000
0*
#195000
b100 s"
b11 v"
b1000 9
b1000 Q"
b1000 >#
1*
#200000
0*
#205000
b101 s"
b100 v"
b111101011000 u"
1*
#210000
0*
#215000
b110 s"
b1001111001000 o"
b101 v"
1*
#220000
0*
#225000
b111 s"
b110 v"
1*
#230000
0*
#235000
b10 s"
b111 v"
1*
#240000
0*
#245000
b11 s"
b10 v"
b10 :
b10 z"
b10 5#
b0 o"
b0 r"
b1 t"
1*
#250000
0*
#255000
b100 s"
b11 v"
b10110 9
b10110 Q"
b10110 >#
1*
#260000
0*
#265000
b101 s"
b100 v"
b1100001101000 u"
1*
#270000
0*
#275000
b10 s"
b1100001101000 o"
b101 v"
1*
#280000
0*
#285000
b11 s"
b10 v"
b11 :
b11 z"
b11 5#
b1 r"
1*
#290000
0*
#295000
b100 s"
b11 v"
b100 9
b100 Q"
b100 >#
1*
#300000
0*
#305000
b101 s"
b100 v"
b11110101100 u"
1*
#310000
0*
#315000
b110 s"
b10000000010100 o"
b101 v"
1*
#320000
0*
#325000
b111 s"
b110 v"
b1 ?
b1 p"
b1 3#
1*
#330000
0*
#335000
b10 s"
b111 v"
b110011 >
b110011 U"
b110011 <#
1*
#340000
0*
#345000
b11 s"
b10 v"
b100 :
b100 z"
b100 5#
b0 o"
b0 r"
b10 t"
1*
#350000
0*
#355000
b100 s"
b11 v"
b11100100 9
b11100100 Q"
b11100100 >#
1*
#360000
0*
#365000
b101 s"
b100 v"
b111111111110000011110000 u"
1*
#370000
0*
#375000
b10 s"
b11111111111111111110000011110000 o"
b101 v"
1*
#380000
0*
#385000
b11 s"
b10 v"
b101 :
b101 z"
b101 5#
b1 r"
1*
#390000
0*
#395000
b100 s"
b11 v"
b11110000 9
b11110000 Q"
b11110000 >#
1*
#400000
0*
#405000
b101 s"
b100 v"
b111111111110000101010000 u"
1*
#410000
0*
#415000
b110 s"
b11111111111111111100001001000000 o"
b101 v"
1*
#420000
0*
#425000
b111 s"
b110 v"
b10 ?
b10 p"
b10 3#
1*
#430000
0*
#435000
b1000 s"
b111 v"
b1111111111100100 >
b1111111111100100 U"
b1111111111100100 <#
1*
#440000
0*
#445000
b1001 s"
b1000 v"
b0 t"
1*
#450000
0*
#455000
b10000010 &#
b10000010 )#
b100110 '#
b10011000 (#
1x"
b10011000 w"
b10011000 |"
b1001 v"
1*
#460000
0*
#465000
b1000 s"
1R"
1+#
b10000010 S"
b10000010 }"
b10000010 *#
0x"
1*
#470000
0*
#475000
b1001 s"
b1 t"
0R"
0+#
b1000 v"
1*
#480000
0*
#485000
b1100110 &#
b1100110 )#
b11100 '#
b1110011 (#
b1001 v"
1x"
b1110011 w"
b1110011 |"
1*
#490000
0*
#495000
b1000 s"
0x"
1R"
1+#
b1100110 S"
b1100110 }"
b1100110 *#
1*
#500000
0*
#505000
b1001 s"
b1000 v"
0R"
0+#
b10 t"
1*
#510000
0*
#515000
b10000010 )#
b100110 '#
b1111111101111110 &#
0%#
1$#
b10011000 (#
1x"
b1111111101101000 w"
b1111111101101000 |"
b1001 v"
1*
#520000
0*
#525000
b1010 s"
1R"
1+#
b1111111101111110 S"
b1111111101111110 }"
b1111111101111110 *#
0x"
1*
#530000
0*
#535000
b1011 s"
b0 o"
b0 r"
b0 t"
0R"
0+#
b1010 v"
1*
#540000
0*
#545000
b1100 s"
b1011 v"
1*
#550000
0*
#555000
b1101 s"
b111111111111110011110100 u"
b1100 v"
1*
#560000
0*
#565000
b1010 s"
b1101 v"
b11111111111111111111110011110100 o"
1*
#570000
0*
#575000
b1011 s"
b1 8
b1 {"
b1 6#
b1 r"
b1010 v"
1*
#580000
0*
#585000
b1100 s"
b1011 v"
b11111101 7
b11111101 P"
b11111101 ?#
1*
#590000
0*
#595000
b1101 s"
b111111111111111011001110 u"
b1100 v"
1*
#600000
0*
#605000
b1010 s"
b1101 v"
b11111111111111111111101111000010 o"
1*
#610000
0*
#615000
b1011 s"
b10 8
b10 {"
b10 6#
b10 r"
b1010 v"
1*
#620000
0*
#625000
b1100 s"
b1011 v"
b110 7
b110 P"
b110 ?#
1*
#630000
0*
#635000
b1101 s"
b111111111111110011110100 u"
b1100 v"
1*
#640000
0*
#645000
b1110 s"
b1101 v"
b11111111111111111111100010110110 o"
1*
#650000
0*
#655000
b1111 s"
b1110 v"
1*
#660000
0*
#665000
b1010 s"
b1111 v"
1*
#670000
0*
#675000
b1011 s"
b11 8
b11 {"
b11 6#
b0 o"
b0 r"
b1 t"
b1010 v"
1*
#680000
0*
#685000
b1100 s"
b1011 v"
b10110 7
b10110 P"
b10110 ?#
1*
#690000
0*
#695000
b1101 s"
b101100101100 u"
b1100 v"
1*
#700000
0*
#705000
b1010 s"
b1101 v"
b101100101100 o"
1*
#710000
0*
#715000
b1011 s"
b100 8
b100 {"
b100 6#
b1 r"
b1010 v"
1*
#720000
0*
#725000
b1100 s"
b1011 v"
b110 7
b110 P"
b110 ?#
1*
#730000
0*
#735000
b1101 s"
b1001100100 u"
b1100 v"
1*
#740000
0*
#745000
b1010 s"
b1101 v"
b110110010000 o"
1*
#750000
0*
#755000
b1011 s"
b101 8
b101 {"
b101 6#
b10 r"
b1010 v"
1*
#760000
0*
#765000
b1100 s"
b1011 v"
b1001 7
b1001 P"
b1001 ?#
1*
#770000
0*
#775000
b1101 s"
b111111111111101101101110 u"
b1100 v"
1*
#780000
0*
#785000
b1110 s"
b1101 v"
b100011111110 o"
1*
#790000
0*
#795000
b1111 s"
b1 =
b1 q"
b1 4#
b1110 v"
1*
#800000
0*
#805000
b1010 s"
b1111 v"
b10010010 <
b10010010 T"
b10010010 =#
1*
#810000
0*
#815000
b1011 s"
b110 8
b110 {"
b110 6#
b0 o"
b0 r"
b10 t"
b1010 v"
1*
#820000
0*
#825000
b1100 s"
b1011 v"
b101100 7
b101100 P"
b101100 ?#
1*
#830000
0*
#835000
b1101 s"
b1011001011000 u"
b1100 v"
1*
#840000
0*
#845000
b1010 s"
b1101 v"
b1011001011000 o"
1*
#850000
0*
#855000
b1011 s"
b111 8
b111 {"
b111 6#
b1 r"
b1010 v"
1*
#860000
0*
#865000
b1100 s"
b1011 v"
b10010 7
b10010 P"
b10010 ?#
1*
#870000
0*
#875000
b1101 s"
b11100101100 u"
b1100 v"
1*
#880000
0*
#885000
b1010 s"
b1101 v"
b1110110000100 o"
1*
#890000
0*
#895000
b1011 s"
b1000 8
b1000 {"
b1000 6#
b10 r"
b1010 v"
1*
#900000
0*
#905000
b1100 s"
b1011 v"
b1010 7
b1010 P"
b1010 ?#
1*
#910000
0*
#915000
b1101 s"
b111111111111101011101100 u"
b1100 v"
1*
#920000
0*
#925000
b1110 s"
b1101 v"
b1100001110000 o"
1*
#930000
0*
#935000
b1111 s"
b10 =
b10 q"
b10 4#
b1110 v"
1*
#940000
0*
#945000
b1010 s"
b1111 v"
b101 <
b101 T"
b101 =#
1*
#950000
0*
#955000
b1011 s"
b1001 8
b1001 {"
b1001 6#
b0 o"
b0 r"
b11 t"
b1010 v"
1*
#960000
0*
#965000
b1100 s"
b1011 v"
b110010 7
b110010 P"
b110010 ?#
1*
#970000
0*
#975000
b1101 s"
b1100101100100 u"
b1100 v"
1*
#980000
0*
#985000
b1010 s"
b1101 v"
b1100101100100 o"
1*
#990000
0*
#995000
b1011 s"
b1010 8
b1010 {"
b1010 6#
b1 r"
b1010 v"
1*
#1000000
0*
#1005000
b1100 s"
b1011 v"
b11000 7
b11000 P"
b11000 ?#
1*
#1010000
0*
#1015000
b1101 s"
b100110010000 u"
b1100 v"
1*
#1020000
0*
#1025000
b1010 s"
b1101 v"
b10001011110100 o"
1*
#1030000
0*
#1035000
b1011 s"
b1011 8
b1011 {"
b1011 6#
b10 r"
b1010 v"
1*
#1040000
0*
#1045000
b1100 s"
b1011 v"
b11111001 7
b11111001 P"
b11111001 ?#
1*
#1050000
0*
#1055000
b1101 s"
b1110001110 u"
b1100 v"
1*
#1060000
0*
#1065000
b1110 s"
b1101 v"
b10011010000010 o"
1*
#1070000
0*
#1075000
b1111 s"
b11 =
b11 q"
b11 4#
b1110 v"
1*
#1080000
0*
#1085000
b1010 s"
b1111 v"
b10001111 <
b10001111 T"
b10001111 =#
1*
#1090000
0*
#1095000
b1011 s"
b1100 8
b1100 {"
b1100 6#
b0 o"
b0 r"
b100 t"
b1010 v"
1*
#1100000
0*
#1105000
b1100 s"
b1011 v"
b11101110 7
b11101110 P"
b11101110 ?#
1*
#1110000
0*
#1115000
b1101 s"
b111111111111011011011100 u"
b1100 v"
1*
#1120000
0*
#1125000
b1010 s"
b1101 v"
b11111111111111111111011011011100 o"
1*
#1130000
0*
#1135000
b1011 s"
b1101 8
b1101 {"
b1101 6#
b1 r"
b1010 v"
1*
#1140000
0*
#1145000
b1100 s"
b1011 v"
b10010 7
b10010 P"
b10010 ?#
1*
#1150000
0*
#1155000
b1101 s"
b11100101100 u"
b1100 v"
1*
#1160000
0*
#1165000
b1010 s"
b1101 v"
b11111111111111111111111000001000 o"
1*
#1170000
0*
#1175000
b1011 s"
b1110 8
b1110 {"
b1110 6#
b10 r"
b1010 v"
1*
#1180000
0*
#1185000
b1100 s"
b1011 v"
b100 7
b100 P"
b100 ?#
1*
#1190000
0*
#1195000
b1101 s"
b111111111111110111111000 u"
b1100 v"
1*
#1200000
0*
#1205000
b1110 s"
b1101 v"
b11111111111111111111110000000000 o"
1*
#1210000
0*
#1215000
b1111 s"
b100 =
b100 q"
b100 4#
b1110 v"
1*
#1220000
0*
#1225000
b1010 s"
b1111 v"
b1111111111110000 <
b1111111111110000 T"
b1111111111110000 =#
1*
#1230000
0*
#1235000
b1011 s"
b1111 8
b1111 {"
b1111 6#
b0 o"
b0 r"
b101 t"
b1010 v"
1*
#1240000
0*
#1245000
b1100 s"
b1011 v"
b110110 7
b110110 P"
b110110 ?#
1*
#1250000
0*
#1255000
b1101 s"
b1101101101100 u"
b1100 v"
1*
#1260000
0*
#1265000
b1010 s"
b1101 v"
b1101101101100 o"
1*
#1270000
0*
#1275000
b1011 s"
b10000 8
b10000 {"
b10000 6#
b1 r"
b1010 v"
1*
#1280000
0*
#1285000
b1100 s"
b1011 v"
b1111 7
b1111 P"
b1111 ?#
1*
#1290000
0*
#1295000
b1101 s"
b10111111010 u"
b1100 v"
1*
#1300000
0*
#1305000
b1010 s"
b1101 v"
b10000101100110 o"
1*
#1310000
0*
#1315000
b1011 s"
b10001 8
b10001 {"
b10001 6#
b10 r"
b1010 v"
1*
#1320000
0*
#1325000
b1100 s"
b1011 v"
b11110011 7
b11110011 P"
b11110011 ?#
1*
#1330000
0*
#1335000
b1101 s"
b11010011010 u"
b1100 v"
1*
#1340000
0*
#1345000
b1110 s"
b1101 v"
b10100000000000 o"
1*
#1350000
0*
#1355000
b1111 s"
b101 =
b101 q"
b101 4#
b1110 v"
1*
#1360000
0*
#1365000
b1010 s"
b1111 v"
b10010110 <
b10010110 T"
b10010110 =#
1*
#1370000
0*
#1375000
b1011 s"
b10010 8
b10010 {"
b10010 6#
b0 o"
b0 r"
b110 t"
b1010 v"
1*
#1380000
0*
#1385000
b1100 s"
b1011 v"
b1010 7
b1010 P"
b1010 ?#
1*
#1390000
0*
#1395000
b1101 s"
b10100010100 u"
b1100 v"
1*
#1400000
0*
#1405000
b1010 s"
b1101 v"
b10100010100 o"
1*
#1410000
0*
#1415000
b1011 s"
b10011 8
b10011 {"
b10011 6#
b1 r"
b1010 v"
1*
#1420000
0*
#1425000
b1100 s"
b1011 v"
b11110001 7
b11110001 P"
b11110001 ?#
1*
#1430000
0*
#1435000
b1101 s"
b111111111111101000000110 u"
b1100 v"
1*
#1440000
0*
#1445000
b1010 s"
b1101 v"
b11111111111111111111111100011010 o"
1*
#1450000
0*
#1455000
b1011 s"
b10100 8
b10100 {"
b10100 6#
b10 r"
b1010 v"
1*
#1460000
0*
#1465000
b1100 s"
b1011 v"
b1011 7
b1011 P"
b1011 ?#
1*
#1470000
0*
#1475000
b1101 s"
b111111111111101001101010 u"
b1100 v"
1*
#1480000
0*
#1485000
b1110 s"
b1101 v"
b11111111111111111111100110000100 o"
1*
#1490000
0*
#1495000
b1111 s"
b110 =
b110 q"
b110 4#
b1110 v"
1*
#1500000
0*
#1505000
b1010 s"
b1111 v"
b1111111111111010 <
b1111111111111010 T"
b1111111111111010 =#
1*
#1510000
0*
#1515000
b1011 s"
b10101 8
b10101 {"
b10101 6#
b0 o"
b0 r"
b111 t"
b1010 v"
1*
#1520000
0*
#1525000
b1100 s"
b1011 v"
b10001 7
b10001 P"
b10001 ?#
1*
#1530000
0*
#1535000
b1101 s"
b100010100010 u"
b1100 v"
1*
#1540000
0*
#1545000
b1010 s"
b1101 v"
b100010100010 o"
1*
#1550000
0*
#1555000
b1011 s"
b10110 8
b10110 {"
b10110 6#
b1 r"
b1010 v"
1*
#1560000
0*
#1565000
b1100 s"
b1011 v"
1*
#1570000
0*
#1575000
b1101 s"
b11011000110 u"
b1100 v"
1*
#1580000
0*
#1585000
b1010 s"
b1101 v"
b111101101000 o"
1*
#1590000
0*
#1595000
b1011 s"
b10111 8
b10111 {"
b10111 6#
b10 r"
b1010 v"
1*
#1600000
0*
#1605000
b1100 s"
b1011 v"
b11101110 7
b11101110 P"
b11101110 ?#
1*
#1610000
0*
#1615000
b1101 s"
b100100100100 u"
b1100 v"
1*
#1620000
0*
#1625000
b1110 s"
b1101 v"
b1100010001100 o"
1*
#1630000
0*
#1635000
b1111 s"
b111 =
b111 q"
b111 4#
b1110 v"
1*
#1640000
0*
#1645000
b1010 s"
b1111 v"
b10110010 <
b10110010 T"
b10110010 =#
1*
#1650000
0*
#1655000
b1011 s"
b11000 8
b11000 {"
b11000 6#
b0 o"
b0 r"
b1000 t"
b1010 v"
1*
#1660000
0*
#1665000
b1100 s"
b1011 v"
b1001 7
b1001 P"
b1001 ?#
1*
#1670000
0*
